Date,Open,High,Low,Close,Volume,Close2
2011-01-04,22160,22240,21830,22200,14348,22200
2011-01-05,22190,22190,22030,22090,3373,22090
2011-01-06,22240,22350,22030,22030,8458,22030
2011-01-07,22050,22480,21980,22480,11457,22480
2011-01-11,22080,22370,22050,22370,6733,22370
2011-01-12,22270,22370,22100,22190,3571,22190
2011-01-13,22300,22370,22190,22310,5947,22310
2011-01-14,22260,22310,22060,22060,4608,22060
2011-01-17,22000,22090,21650,21700,20554,21700
2011-01-18,21590,21690,21450,21490,13507,21490
2011-01-19,21600,21700,21450,21470,10651,21470
2011-01-20,21560,21760,21250,21250,11067,21250
2011-01-21,21240,21650,21170,21320,11182,21320
2011-01-24,21330,21650,21250,21640,7400,21640
2011-01-25,21440,21590,21350,21590,5488,21590
2011-01-26,21320,21470,21320,21430,4152,21430
2011-01-27,21370,21580,21280,21580,4716,21580
2011-01-28,21580,21690,21530,21690,9798,21690
2011-01-31,21350,21610,21280,21480,6497,21480
2011-02-01,21540,21570,21480,21500,5084,21500
2011-02-02,21590,21620,21540,21600,2991,21600
2011-02-03,21500,21650,21460,21630,2889,21630
2011-02-04,21680,21680,21520,21600,1538,21600
2011-02-07,21550,21680,21500,21550,4470,21550
2011-02-08,21610,21740,21570,21580,3370,21580
2011-02-09,21590,21730,21370,21370,5941,21370
2011-02-10,21300,21440,21280,21300,3503,21300
2011-02-14,21600,22220,21470,22160,19277,22160
2011-02-15,22340,22380,22210,22260,12424,22260
2011-02-16,22200,22320,22160,22250,4316,22250
2011-02-17,22340,22530,22260,22400,8464,22400
2011-02-18,22450,22470,22270,22350,3598,22350
2011-02-21,22270,22500,22200,22330,6123,22330
2011-02-22,22400,22430,21820,21890,8197,21890
2011-02-23,21510,21820,21510,21650,4565,21650
2011-02-24,21510,21570,21440,21520,3349,21520
2011-02-25,21430,21640,21400,21490,4016,21490
2011-02-28,21450,21730,21350,21720,4568,21720
2011-03-01,21800,21920,21730,21810,4185,21810
2011-03-02,21630,21780,21550,21620,3958,21620
2011-03-03,21630,21970,21630,21970,5008,21970
2011-03-04,21990,22140,21930,22100,4976,22100
2011-03-07,22200,22400,22060,22360,12810,22360
2011-03-08,22290,22400,22240,22350,5035,22350
2011-03-09,22400,22570,22330,22380,5966,22380
2011-03-10,22340,22400,22100,22200,5101,22200
2011-03-11,21850,22060,21850,22050,3301,22050
2011-03-14,20600,21500,20350,21390,25578,21390
2011-03-15,21000,21030,19560,20130,30351,20130
2011-03-16,20250,21150,20250,21040,8965,21040
2011-03-17,19560,20690,19560,20620,7547,20620
2011-03-18,20400,21250,20400,21000,5855,21000
2011-03-22,21150,21340,20900,21170,7486,21170
2011-03-23,21170,21280,21000,21060,9856,21060
2011-03-24,21110,21250,21100,21200,4882,21200
2011-03-25,21200,21800,21140,21770,6654,21770
2011-03-28,21710,21960,21680,21680,5263,21680
2011-03-29,21590,21900,21410,21870,6622,21870
2011-03-30,21900,22070,21870,22070,5066,22070
2011-03-31,22000,22200,21910,22200,6828,22200
2011-04-01,21980,22170,21980,22120,5706,22120
2011-04-04,22350,22470,22270,22330,7639,22330
2011-04-05,22210,22480,22180,22250,5268,22250
2011-04-06,22300,22680,22220,22680,11591,22680
2011-04-07,22840,23150,22840,23120,13991,23120
2011-04-08,22900,23360,22900,23320,12443,23320
2011-04-11,23210,23380,23040,23340,6835,23340
2011-04-12,23180,23190,22860,23050,9093,23050
2011-04-13,22830,23130,22800,23070,4984,23070
2011-04-14,23100,23180,23030,23150,5303,23150
2011-04-15,23200,23380,23110,23160,10354,23160
2011-04-18,23040,23120,23030,23080,2561,23080
2011-04-19,22810,22950,22700,22770,7376,22770
2011-04-20,22750,22940,22730,22890,8182,22890
2011-04-21,22980,22980,22790,22790,5814,22790
2011-04-22,22770,22870,22720,22870,1061,22870
2011-04-25,22730,22800,22630,22690,1526,22690
2011-04-26,22620,22620,22300,22370,4605,22370
2011-04-27,22390,22580,22330,22390,2374,22390
2011-04-28,22450,22590,22350,22400,2547,22400
2011-05-02,22350,22470,22350,22400,1737,22400
2011-05-06,21600,21750,21350,21410,11178,21410
2011-05-09,21450,21590,21280,21420,9279,21420
2011-05-10,21350,21480,21320,21350,4631,21350
2011-05-11,21540,21830,21540,21690,5954,21690
2011-05-12,21630,21660,21470,21650,2929,21650
2011-05-13,21300,21400,21160,21240,5389,21240
2011-05-16,21240,21240,21140,21230,3233,21230
2011-05-17,21020,21320,21010,21320,3300,21320
2011-05-18,21230,21630,21230,21620,2578,21620
2011-05-19,21620,21710,21480,21480,3442,21480
2011-05-20,21330,21500,21260,21360,4576,21360
2011-05-23,21400,21400,20930,20990,3211,20990
2011-05-24,20730,20970,20670,20900,3453,20900
2011-05-25,20780,20900,20730,20770,2165,20770
2011-05-26,20790,20900,20760,20850,2072,20850
2011-05-27,20700,20780,20670,20730,3844,20730
2011-05-30,20530,20690,20480,20580,3095,20580
2011-05-31,20580,20840,20490,20840,2923,20840
2011-06-01,20990,20990,20710,20880,11954,20880
2011-06-02,20670,20690,20380,20470,6026,20470
2011-06-03,20400,20680,20350,20580,3525,20580
2011-06-06,20390,20400,20240,20280,2311,20280
2011-06-07,20260,20360,20260,20330,1515,20330
2011-06-08,20340,20370,20100,20110,3003,20110
2011-06-09,20140,20150,20040,20050,4232,20050
2011-06-10,20020,20080,19910,19930,5087,19930
2011-06-13,19800,19890,19730,19880,4115,19880
2011-06-14,19760,20090,19730,20080,4121,20080
2011-06-15,20100,20100,19900,19910,1510,19910
2011-06-16,19850,19870,19700,19760,1941,19760
2011-06-17,19800,19800,19620,19700,2911,19700
2011-06-20,19530,19670,19200,19200,6911,19200
2011-06-21,19300,19470,19130,19200,2772,19200
2011-06-22,19200,19320,19160,19200,4773,19200
2011-06-23,19110,19200,19040,19090,3830,19090
2011-06-24,19160,19730,19130,19650,6285,19650
2011-06-27,19700,19870,19630,19850,1713,19850
2011-06-28,19860,19950,19610,19670,2473,19670
2011-06-29,19820,19830,19550,19550,4229,19550
2011-06-30,19560,19760,19350,19700,6990,19700
2011-07-01,19650,19820,19570,19700,6304,19700
2011-07-04,19850,20130,19740,20070,6761,20070
2011-07-05,20200,20200,19900,19900,4390,19900
2011-07-06,19990,20020,19760,19860,3994,19860
2011-07-07,19900,20030,19840,19930,2493,19930
2011-07-08,20000,20090,19900,20090,3433,20090
2011-07-11,19870,19950,19790,19950,2531,19950
2011-07-12,19700,19700,19350,19360,6278,19360
2011-07-13,19160,19510,19160,19410,5378,19410
2011-07-14,19320,19390,19130,19240,3255,19240
2011-07-15,19170,19420,19170,19400,1910,19400
2011-07-19,19250,19340,19110,19180,3255,19180
2011-07-20,19280,19330,19050,19150,3871,19150
2011-07-21,19130,19140,18890,18960,6448,18960
2011-07-22,18800,19200,18800,19050,6477,19050
2011-07-25,18890,18970,18660,18670,3742,18670
2011-07-26,18540,18630,18430,18570,5482,18570
2011-07-27,18500,18540,18300,18380,3736,18380
2011-07-28,18220,18300,18140,18230,2805,18230
2011-07-29,18110,18240,18000,18200,7609,18200
2011-08-01,18050,18350,18050,18230,3052,18230
2011-08-02,18050,18080,17880,17960,3080,17960
2011-08-03,17700,17770,17630,17640,4390,17640
2011-08-04,17600,17870,17550,17630,4281,17630
2011-08-05,17030,17830,17020,17800,18492,17800
2011-08-08,17510,17700,17140,17530,8357,17530
2011-08-09,17010,17460,16530,17440,8582,17440
2011-08-10,17610,17750,17500,17660,3178,17660
2011-08-11,17150,17600,17150,17600,3155,17600
2011-08-12,17670,17820,17530,17600,3014,17600
2011-08-15,17600,17900,17520,17750,5542,17750
2011-08-16,18050,18240,18050,18210,7343,18210
2011-08-17,18070,18230,18070,18220,1540,18220
2011-08-18,18070,18180,17850,17970,2122,17970
2011-08-19,17400,17550,17300,17550,4558,17550
2011-08-22,17410,17450,17150,17380,2170,17380
2011-08-23,17230,17340,16980,17250,3913,17250
2011-08-24,17400,17470,17150,17400,2301,17400
2011-08-25,17030,17890,17030,17880,4887,17880
2011-08-26,17620,17950,17570,17930,3271,17930
2011-08-29,17890,17900,17590,17650,2590,17650
2011-08-30,17900,17950,17710,17860,3883,17860
2011-08-31,17750,17900,17680,17890,1565,17890
2011-09-01,17880,17930,17760,17910,1535,17910
2011-09-02,17650,17800,17410,17570,1747,17570
2011-09-05,17220,17320,17210,17220,1456,17220
2011-09-06,16970,17080,16760,16940,3422,16940
2011-09-07,17080,17150,16860,16980,2530,16980
2011-09-08,17170,17400,16880,17380,3852,17380
2011-09-09,17200,17290,17060,17140,1697,17140
2011-09-12,16800,17080,16600,16780,4715,16780
2011-09-13,16950,16960,16700,16960,1185,16960
2011-09-14,16710,16850,16370,16630,5101,16630
2011-09-15,16630,16870,16450,16780,3470,16780
2011-09-16,16710,16990,16710,16900,1829,16900
2011-09-20,16520,16700,16450,16690,2271,16690
2011-09-21,16380,16950,16380,16770,3529,16770
2011-09-22,16500,16510,16380,16380,1942,16380
2011-09-26,16000,16170,15560,15690,4985,15690
2011-09-27,15750,15860,15500,15590,3381,15590
2011-09-28,15750,15950,15610,15900,4739,15900
2011-09-29,15550,16050,15550,15960,4955,15960
2011-09-30,15700,16150,15700,15970,10611,15970
2011-10-03,15750,15900,15400,15710,7387,15710
2011-10-04,14910,15150,14850,15050,9937,15050
2011-10-05,14950,15040,14780,15030,12971,15030
2011-10-06,15150,15240,14950,15180,4649,15180
2011-10-07,15580,15960,15580,15900,11089,15900
2011-10-11,15980,16430,15980,16200,8069,16200
2011-10-12,16200,17100,16180,17000,9352,17000
2011-10-13,17250,17330,17100,17300,4867,17300
2011-10-14,17200,17210,16910,16920,2329,16920
2011-10-17,17200,17300,17110,17120,1979,17120
2011-10-18,16850,16940,16610,16700,2266,16700
2011-10-19,16650,16800,16450,16490,1666,16490
2011-10-20,16310,16380,16000,16020,2106,16020
2011-10-21,15840,16550,15840,16550,5268,16550
2011-10-24,16150,16760,16010,16760,20407,16760
2011-10-25,16860,16940,16780,16900,3608,16900
2011-10-26,16630,17310,16590,17270,8126,17270
2011-10-27,17280,17300,17120,17180,9853,17180
2011-10-28,17480,17730,17450,17590,13522,17590
2011-10-31,17670,17990,17470,17950,10159,17950
2011-11-01,17550,17880,17440,17800,5517,17800
2011-11-02,17400,17850,17250,17850,9772,17850
2011-11-04,18000,18230,18000,18130,5427,18130
2011-11-07,18300,18300,17940,18010,3491,18010
2011-11-08,17900,17990,17720,17770,3422,17770
2011-11-09,17660,17990,17550,17830,5604,17830
2011-11-10,17390,17580,17220,17370,3777,17370
2011-11-11,17270,17580,17210,17530,8551,17530
2011-11-14,17650,17700,17450,17560,4890,17560
2011-11-15,17560,17570,17160,17270,4269,17270
2011-11-16,17200,17210,16600,16600,6858,16600
2011-11-17,16400,16710,16360,16590,4391,16590
2011-11-18,16300,16430,16230,16260,4617,16260
2011-11-21,16100,16200,15930,15950,4590,15950
2011-11-22,15830,16180,15790,16100,6844,16100
2011-11-24,15750,16060,15680,15970,3210,15970
2011-11-25,15860,16000,15480,15630,11416,15630
2011-11-28,15560,15960,15560,15920,9589,15920
2011-11-29,16000,16180,15900,16090,5331,16090
2011-11-30,16180,16180,15630,15750,6837,15750
2011-12-01,16550,16700,16400,16550,11408,16550
2011-12-02,16430,16550,16280,16450,4682,16450
2011-12-05,16310,16420,16230,16350,3668,16350
2011-12-06,16250,16350,16030,16210,2816,16210
2011-12-07,16080,16270,16080,16210,2425,16210
2011-12-08,16170,16300,16030,16170,3855,16170
2011-12-09,16000,16200,15920,16040,2608,16040
2011-12-12,16160,16200,15930,15930,1617,15930
2011-12-13,15790,15900,15750,15750,2943,15750
2011-12-14,15700,15840,15690,15730,1360,15730
2011-12-15,15630,15650,15380,15470,4526,15470
2011-12-16,15380,15530,15310,15380,1870,15380
2011-12-19,15400,15500,14980,15130,6744,15130
2011-12-20,15200,15510,15200,15390,3862,15390
2011-12-21,15550,15610,15400,15460,3467,15460
2011-12-22,15160,15320,15150,15260,3636,15260
2011-12-26,15350,15380,15120,15170,2878,15170
2011-12-27,15150,15250,14930,15080,4113,15080
2011-12-28,14980,15100,14980,15100,2019,15100
2011-12-29,15100,15290,15020,15090,1517,15090
2011-12-30,15080,15310,15020,15210,4048,15210
2012-01-04,15500,15510,15260,15270,4690,15270
2012-01-05,15340,15340,15170,15270,3568,15270
2012-01-06,15150,15250,15050,15250,2977,15250
2012-01-10,15500,15910,15450,15910,15569,15910
2012-01-11,16040,16040,15800,15910,4756,15910
2012-01-12,15770,16020,15770,15920,4943,15920
2012-01-13,15850,15970,15700,15730,5943,15730
2012-01-16,15600,15730,15500,15640,4864,15640
2012-01-17,15620,16240,15520,16140,7591,16140
2012-01-18,16150,16450,16080,16080,6789,16080
2012-01-19,16140,16350,16040,16260,4625,16260
2012-01-20,16370,16690,16310,16660,10191,16660
2012-01-23,16750,16800,16710,16770,2046,16770
2012-01-24,16780,16800,16730,16780,1409,16780
2012-01-25,16820,16980,16810,16920,2999,16920
2012-01-26,17140,17140,17010,17080,2495,17080
2012-01-27,17010,17080,16910,16950,2278,16950
2012-01-30,16900,16950,16510,16520,4698,16520
2012-01-31,16370,16620,16320,16430,6685,16430
2012-02-01,16510,16570,16310,16380,2245,16380
2012-02-02,16360,16600,16350,16560,3960,16560
2012-02-03,16620,16760,16500,16700,4720,16700
2012-02-06,16850,16970,16800,16900,5207,16900
2012-02-07,16840,16860,16660,16690,5279,16690
2012-02-08,16690,17200,16690,17180,7545,17180
2012-02-09,17160,17230,16970,17120,3778,17120
2012-02-10,17190,17330,17080,17180,7564,17180
2012-02-13,17240,17240,16920,17010,3850,17010
2012-02-14,17030,17030,16890,16970,2898,16970
2012-02-15,16940,17250,16940,17090,4539,17090
2012-02-16,17080,17090,16940,16970,2982,16970
2012-02-17,17100,17250,17090,17210,4062,17210
2012-02-20,17640,17750,17550,17660,10725,17660
2012-02-21,17640,17640,17410,17570,3957,17570
2012-02-22,17630,17900,17530,17780,4195,17780
2012-02-23,17880,17970,17780,17930,4013,17930
2012-02-24,17900,18350,17890,18270,6807,18270
2012-02-27,18490,18960,18410,18960,17631,18960
2012-02-28,18420,18540,18210,18470,7985,18470
2012-02-29,18530,18690,18420,18520,5229,18520
2012-03-01,18360,18560,18360,18450,4412,18450
2012-03-02,18400,18670,18400,18600,3115,18600
2012-03-05,18700,18750,18580,18630,3509,18630
2012-03-06,18430,18510,18040,18240,3013,18240
2012-03-07,17750,18000,17730,17790,4157,17790
2012-03-08,17810,18070,17810,18000,2316,18000
2012-03-09,18320,18400,18150,18240,2862,18240
2012-03-12,18410,18470,18280,18280,2817,18280
2012-03-13,18350,18460,18240,18290,1646,18290
2012-03-14,18500,18720,18310,18400,4069,18400
2012-03-15,18310,18570,18150,18200,4280,18200
2012-03-16,18070,18430,18070,18240,2772,18240
2012-03-19,18290,18380,18110,18110,2185,18110
2012-03-21,17990,18170,17880,17990,3495,17990
2012-03-22,17950,18130,17860,18100,2377,18100
2012-03-23,17810,17910,17700,17740,5706,17740
2012-03-26,17650,17710,17510,17610,3582,17610
2012-03-27,17750,17980,17750,17950,2725,17950
2012-03-28,17800,17920,17620,17680,1416,17680
2012-03-29,17560,17560,17230,17440,3288,17440
2012-03-30,17210,17320,17170,17210,2310,17210
2012-04-02,17310,17410,17230,17270,1307,17270
2012-04-03,17250,17360,17200,17340,1300,17340
2012-04-04,17340,17450,17090,17160,1835,17160
2012-04-05,17020,17410,16920,17350,4339,17350
2012-04-06,17200,17380,17150,17320,1363,17320
2012-04-09,17250,17250,17120,17210,1268,17210
2012-04-10,17140,17280,16940,17030,1891,17030
2012-04-11,16820,17170,16810,17110,2213,17110
2012-04-12,17050,17490,17050,17480,2741,17480
2012-04-13,17700,17750,17510,17690,2679,17690
2012-04-16,17460,17550,17400,17450,1351,17450
2012-04-17,17310,17470,17310,17380,547,17380
2012-04-18,17450,17770,17400,17700,2782,17700
2012-04-19,17650,17850,17600,17790,2858,17790
2012-04-20,17680,18030,17650,18020,4349,18020
2012-04-23,18100,18110,17920,17920,1884,17920
2012-04-24,17810,18200,17730,17890,2335,17890
2012-04-25,18010,18140,17950,18140,2311,18140
2012-04-26,18060,18180,18020,18090,1593,18090
2012-04-27,18000,18130,17980,18040,1288,18040
2012-05-01,17900,17900,17570,17750,2139,17750
2012-05-02,17850,18420,17820,18330,5388,18330
2012-05-07,18070,18150,17910,17970,1344,17970
2012-05-08,18110,18140,17950,18120,1652,18120
2012-05-09,18020,18040,17800,17940,1611,17940
2012-05-10,17740,17840,17660,17780,3462,17780
2012-05-11,17710,17830,17610,17730,1350,17730
2012-05-14,17670,17800,17610,17610,2525,17610
2012-05-15,17210,17380,17180,17350,3665,17350
2012-05-16,17180,17330,17150,17280,2107,17280
2012-05-17,17120,17500,17120,17480,4295,17480
2012-05-18,17100,17210,16960,17010,2819,17010
2012-05-21,16810,17260,16810,17150,1257,17150
2012-05-22,17280,17390,17100,17380,1699,17380
2012-05-23,17380,17540,17180,17220,1036,17220
2012-05-24,17200,17300,17100,17110,615,17110
2012-05-25,17040,17200,17040,17100,570,17100
2012-05-28,17030,17130,16960,17060,507,17060
2012-05-29,17070,17370,17070,17300,1078,17300
2012-05-30,17250,17450,17250,17370,1787,17370
2012-05-31,17100,17500,17010,17410,3429,17410
2012-06-01,17130,17390,17130,17320,2196,17320
2012-06-04,17090,17090,16850,16940,1938,16940
2012-06-05,16790,16990,16720,16990,1358,16990
2012-06-06,17100,17120,16840,17090,763,17090
2012-06-07,17260,17260,17120,17150,566,17150
2012-06-08,17480,17530,17050,17070,3374,17070
2012-06-11,17400,17400,17130,17290,1923,17290
2012-06-12,17030,17140,17030,17080,1257,17080
2012-06-13,17110,17350,17080,17350,2923,17350
2012-06-14,17150,17240,17130,17140,447,17140
2012-06-15,17070,17230,16920,17000,1096,17000
2012-06-18,17480,17480,17260,17340,1455,17340
2012-06-19,17300,17300,17130,17180,528,17180
2012-06-20,17230,17280,17150,17250,389,17250
2012-06-21,17210,17230,17000,17090,1329,17090
2012-06-22,16970,17100,16970,17060,777,17060
2012-06-25,17180,17180,17010,17060,815,17060
2012-06-26,16900,16930,16740,16900,1946,16900
2012-06-27,16890,16970,16760,16790,951,16790
2012-06-28,16810,16920,16810,16870,1587,16870
2012-06-29,16840,17060,16840,17010,1789,17010
2012-07-02,17200,17250,17030,17030,2200,17030
2012-07-03,17000,17040,16920,16920,1423,16920
2012-07-04,17010,17010,16940,16970,888,16970
2012-07-05,17020,17030,16760,16850,1548,16850
2012-07-06,16830,16990,16700,16860,2469,16860
2012-07-09,16880,16880,16610,16640,2450,16640
2012-07-10,16540,16540,16450,16510,1565,16510
2012-07-11,16440,16470,16360,16380,1665,16380
2012-07-12,16380,16450,16270,16440,2816,16440
2012-07-13,16300,16520,16280,16380,1761,16380
2012-07-17,16160,16280,16100,16250,1371,16250
2012-07-18,16260,16400,16140,16140,1021,16140
2012-07-19,16200,16350,16200,16310,1779,16310
2012-07-20,16260,16320,16120,16230,546,16230
2012-07-23,16100,16100,15810,15820,1529,15820
2012-07-24,15730,15790,15600,15690,1937,15690
2012-07-25,15590,15670,15500,15620,1720,15620
2012-07-26,15410,15650,15410,15650,532,15650
2012-07-27,15700,15790,15550,15680,1187,15680
2012-07-30,15730,15790,15650,15730,1047,15730
2012-07-31,15610,15780,15610,15780,441,15780
2012-08-01,15610,15700,15610,15650,1147,15650
2012-08-02,15700,15700,15500,15640,674,15640
2012-08-03,15500,15600,15420,15600,554,15600
2012-08-06,15820,15890,15720,15890,1450,15890
2012-08-07,15880,15900,15810,15880,330,15880
2012-08-08,15910,15980,15890,15890,720,15890
2012-08-09,15970,16050,15880,16050,918,16050
2012-08-10,16050,16100,15910,15910,932,15910
2012-08-13,15840,15900,15600,15600,1171,15600
2012-08-14,15510,15650,15510,15610,1055,15610
2012-08-15,15630,15680,15400,15530,829,15530
2012-08-16,15420,15610,15420,15540,538,15540
2012-08-17,15510,15560,15430,15520,951,15520
2012-08-20,15530,15530,15350,15400,1761,15400
2012-08-21,15400,15530,15370,15420,914,15420
2012-08-22,15380,15450,15310,15310,821,15310
2012-08-23,15200,15340,15200,15340,968,15340
2012-08-24,15230,15310,15140,15280,828,15280
2012-08-27,15180,15210,14920,14950,3399,14950
2012-08-28,14890,15020,14850,14970,2000,14970
2012-08-29,14980,15080,14950,15000,1330,15000
2012-08-30,15000,15000,14850,14890,3084,14890
2012-08-31,14890,14920,14840,14850,1123,14850
2012-09-03,14800,14900,14710,14860,1735,14860
2012-09-04,15000,15000,14720,14820,1783,14820
2012-09-05,14760,14810,14600,14630,1679,14630
2012-09-06,14550,14650,14530,14590,2672,14590
2012-09-07,14660,15470,14650,15270,9823,15270
2012-09-10,15430,15430,15280,15290,3452,15290
2012-09-11,15200,15220,15010,15060,4648,15060
2012-09-12,15040,15210,15000,15040,2656,15040
2012-09-13,15070,15160,15020,15100,5554,15100
2012-09-14,15350,15390,15160,15390,4688,15390
2012-09-18,15000,15000,14700,14870,2165,14870
2012-09-19,14870,14990,14730,14970,2673,14970
2012-09-20,14970,15000,14720,14740,1996,14740
2012-09-21,14670,14750,14640,14680,2085,14680
2012-09-24,14520,14670,14430,14590,6294,14590
2012-09-25,14510,14600,14490,14550,2250,14550
2012-09-26,14540,14550,14420,14430,3557,14430
2012-09-27,14380,15010,14300,14970,6134,14970
2012-09-28,14810,15090,14700,15010,4203,15010
2012-10-01,15020,15090,14970,14970,1121,14970
2012-10-02,15000,15030,14990,14990,970,14990
2012-10-03,15070,15070,15020,15030,1147,15030
2012-10-04,15030,15100,15030,15050,1520,15050
2012-10-05,15090,15110,15050,15110,1212,15110
2012-10-09,14980,15280,14850,15250,3775,15250
2012-10-10,15080,15350,15040,15320,4038,15320
2012-10-11,15180,15300,15110,15220,1785,15220
2012-10-12,15230,15450,15230,15430,3151,15430
2012-10-15,15430,15480,15370,15460,2507,15460
2012-10-16,15470,15500,15430,15430,1051,15430
2012-10-17,15470,15650,15470,15620,2398,15620
2012-10-18,15710,15950,15710,15890,2396,15890
2012-10-19,15910,16100,15910,16040,3893,16040
2012-10-22,15910,15990,15860,15990,1865,15990
2012-10-23,15990,16050,15940,16020,1373,16020
2012-10-24,15900,15960,15760,15850,2715,15850
2012-10-25,15730,15950,15730,15930,1310,15930
2012-10-26,15890,15890,15550,15610,934,15610
2012-10-29,15420,15500,15400,15430,853,15430
2012-10-30,15330,15540,15330,15490,728,15490
2012-10-31,15400,15550,15400,15550,849,15550
2012-11-01,15540,15980,15540,15930,1173,15930
2012-11-02,15990,16040,15900,16020,4286,16020
2012-11-05,16040,16130,15920,16030,1592,16030
2012-11-06,15940,16010,15750,15880,917,15880
2012-11-07,15950,15960,15820,15920,850,15920
2012-11-08,15800,15840,15650,15680,942,15680
2012-11-09,15600,15750,15600,15670,1212,15670
2012-11-12,15630,15700,15600,15660,799,15660
2012-11-13,15660,15660,15360,15440,3765,15440
2012-11-14,15310,15500,15300,15470,2224,15470
2012-11-15,15600,15670,15410,15630,2764,15630
2012-11-16,15530,15640,15470,15480,821,15480
2012-11-19,15630,15630,15490,15530,2027,15530
2012-11-20,15680,15780,15560,15660,1909,15660
2012-11-21,15420,15730,15420,15660,2850,15660
2012-11-22,15810,15950,15700,15700,2526,15700
2012-11-26,15850,15960,15780,15890,2617,15890
2012-11-27,15870,15960,15840,15900,3014,15900
2012-11-28,15850,15860,15700,15730,1965,15730
2012-11-29,15790,15850,15750,15800,551,15800
2012-11-30,15770,15890,15720,15820,1838,15820
2012-12-03,15890,15910,15800,15800,1237,15800
2012-12-04,15800,15900,15800,15860,782,15860
2012-12-05,15900,16470,15880,16360,9161,16360
2012-12-06,16380,16440,16260,16360,3572,16360
2012-12-07,16370,16630,16310,16610,5223,16610
2012-12-10,16790,17030,16770,16990,5844,16990
2012-12-11,17040,17050,16880,17020,2850,17020
2012-12-12,17020,17090,16950,17000,1932,17000
2012-12-13,17040,17160,17000,17010,3894,17010
2012-12-14,16900,17880,16860,17820,13633,17820
2012-12-17,18130,18300,17980,18130,7353,18130
2012-12-18,18120,18480,18050,18350,11062,18350
2012-12-19,18390,18390,18150,18240,5997,18240
2012-12-20,18250,18260,18080,18200,5025,18200
2012-12-21,18240,18320,18030,18100,5665,18100
2012-12-25,18120,18960,18050,18900,8116,18900
2012-12-26,18980,18980,18830,18950,3587,18950
2012-12-27,19000,19180,18960,19060,5169,19060
2012-12-28,19090,19500,19090,19380,6722,19380
2013-01-04,20390,20630,20270,20460,11517,20460
2013-01-07,20620,20620,20320,20460,4295,20460
2013-01-08,20490,20490,20130,20160,3895,20160
2013-01-09,20080,20170,19960,20130,4264,20130
2013-01-10,20250,20450,20200,20200,3190,20200
2013-01-11,20550,20560,20290,20350,5304,20350
2013-01-15,20940,21010,20890,21000,9469,21000
2013-01-16,21000,21020,20320,20460,6048,20460
2013-01-17,20660,20730,20130,20430,4883,20430
2013-01-18,20790,21100,20690,20920,4550,20920
2013-01-21,21100,21100,20800,20880,2964,20880
2013-01-22,20980,21270,20720,20940,3003,20940
2013-01-23,20720,21000,20500,20580,2644,20580
2013-01-24,20670,21120,20650,20760,2595,20760
2013-01-25,21180,21180,20820,20820,3194,20820
2013-01-28,20950,21580,20950,21440,7375,21440
2013-01-29,21580,21820,21550,21800,5102,21800
2013-01-30,21900,22170,21900,22160,6387,22160
2013-01-31,22160,22180,22000,22120,3310,22120
2013-02-01,22180,22530,22070,22510,4700,22510
2013-02-04,22770,23080,22770,23070,8021,23070
2013-02-05,22840,23070,22840,22950,9759,22950
2013-02-06,23300,23500,23230,23410,8035,23410
2013-02-07,23350,23370,22670,22840,9273,22840
2013-02-08,22840,22920,22540,22720,9286,22720
2013-02-12,22870,22980,22800,22800,1938,22800
2013-02-13,22800,22800,22570,22600,2337,22600
2013-02-14,22780,22780,22620,22700,1193,22700
2013-02-15,22600,22610,22270,22330,5821,22330
2013-02-18,22700,22840,22520,22520,3594,22520
2013-02-19,22280,22380,21980,21980,8192,21980
2013-02-20,21980,22070,21610,21660,6155,21660
2013-02-21,21880,21950,20450,20580,13982,20580
2013-02-22,20200,20590,20200,20460,10818,20460
2013-02-25,20670,20960,20570,20740,4809,20740
2013-02-26,20280,20780,20210,20410,4175,20410
2013-02-27,20270,20450,20190,20310,4431,20310
2013-02-28,20460,21370,20460,21350,10607,21350
2013-03-01,21490,21500,20910,20940,7481,20940
2013-03-04,21360,21390,20160,20170,13571,20170
2013-03-05,20100,20460,20040,20370,4217,20370
2013-03-06,20840,21110,20720,21040,6365,21040
2013-03-07,21130,21200,20590,20780,4768,20780
2013-03-08,21190,21300,20970,21290,4733,21290
2013-03-11,21270,21380,20940,21110,7773,21110
2013-03-12,21120,21360,20880,20880,3906,20880
2013-03-13,20680,20790,20440,20500,1836,20500
2013-03-14,20510,20700,20370,20500,3526,20500
2013-03-15,20550,21140,20380,20980,9858,20980
2013-03-18,20410,20490,20210,20310,2830,20310
2013-03-19,20260,20380,19920,20160,5500,20160
2013-03-21,20860,20960,20730,20790,4755,20790
2013-03-22,20570,20750,20530,20550,4269,20550
2013-03-25,20650,20870,20650,20710,2922,20710
2013-03-26,20400,20470,20230,20240,1153,20240
2013-03-27,20530,20580,20460,20490,3431,20490
2013-03-28,20310,20490,19810,19940,4262,19940
2013-03-29,19800,19980,19640,19980,2845,19980
2013-04-01,19860,19890,19690,19690,1330,19690
2013-04-02,19600,19720,19440,19540,2303,19540
2013-04-03,19590,20000,19560,19800,1883,19800
2013-04-04,19670,20100,19660,20090,2415,20090
2013-04-05,20400,20560,19960,20110,8347,20110
2013-04-08,20100,20500,20060,20190,9024,20190
2013-04-09,20390,20790,20370,20610,4647,20610
2013-04-10,20750,20750,20460,20500,2023,20500
2013-04-11,20690,20910,20660,20840,4748,20840
2013-04-12,20770,20790,20570,20730,1162,20730
2013-04-15,20280,20530,20030,20030,3490,20030
2013-04-16,19440,19740,19360,19740,3606,19740
2013-04-17,19820,20010,19710,19950,4681,19950
2013-04-18,19700,19930,19660,19900,1439,19900
2013-04-19,19780,20340,19700,20260,2359,20260
2013-04-22,20520,20560,20320,20380,3511,20380
2013-04-23,20280,20430,19790,20130,3819,20130
2013-04-24,20010,20330,19800,20180,2785,20180
2013-04-25,20110,20340,19960,20060,3047,20060
2013-04-26,20230,20300,19960,20130,2575,20130
2013-04-30,19750,20080,19740,19930,2618,19930
2013-05-01,19760,19890,19760,19870,402,19870
2013-05-02,19710,19780,19600,19700,1940,19700
2013-05-07,20430,20450,20260,20370,5463,20370
2013-05-08,20440,20740,20350,20500,3404,20500
2013-05-09,20460,20600,20160,20180,3081,20180
2013-05-10,20680,20920,20620,20790,7369,20790
2013-05-13,21090,21170,20920,21000,4339,21000
2013-05-14,21000,21050,20430,20560,2131,20560
2013-05-15,20650,20770,20610,20690,2620,20690
2013-05-16,20700,21150,20560,21150,3148,21150
2013-05-17,21030,21350,21000,21350,2561,21350
2013-05-20,21500,21840,21470,21790,4813,21790
2013-05-21,21770,21790,21500,21610,2447,21610
2013-05-22,21550,21800,21500,21720,2838,21720
2013-05-23,21740,21830,21240,21400,7720,21400
2013-05-24,21100,21200,20650,21060,4712,21060
2013-05-27,20060,20510,20000,20420,1611,20420
2013-05-28,20730,21300,20730,21300,3374,21300
2013-05-29,21400,21550,21350,21380,1378,21380
2013-05-30,21150,21170,20910,20950,1209,20950
2013-05-31,20950,21070,20880,20880,1083,20880
2013-06-03,20640,20760,20620,20700,2642,20700
2013-06-04,20650,20650,20280,20480,1148,20480
2013-06-05,20480,20490,20200,20200,784,20200
2013-06-06,20010,20120,19810,19820,3791,19820
2013-06-07,19650,19650,19080,19350,3018,19350
2013-06-10,19470,19720,19230,19320,2381,19320
2013-06-11,19400,19470,19260,19280,1274,19280
2013-06-12,19030,19030,18800,18890,1141,18890
2013-06-13,18750,18750,18250,18250,2608,18250
2013-06-14,18650,18890,18550,18560,1837,18560
2013-06-17,18500,18510,18080,18510,1400,18510
2013-06-18,18510,18520,18320,18360,481,18360
2013-06-19,18370,18640,18190,18290,1164,18290
2013-06-20,18360,18500,17660,17660,3831,17660
2013-06-21,17570,18000,17500,17880,6056,17880
2013-06-24,17870,17880,16820,16820,7894,16820
2013-06-25,16530,17200,16260,17030,12407,17030
2013-06-26,17740,17890,16800,16890,8381,16890
2013-06-27,16990,17300,16920,17010,2320,17010
2013-06-28,17030,17570,17030,17450,2078,17450
2013-07-01,17450,17450,17190,17440,3191,17440
2013-07-02,17440,17440,17070,17280,2658,17280
2013-07-03,17350,17390,17040,17260,2454,17260
2013-07-04,17000,17320,16980,17260,2069,17260
2013-07-05,17260,17490,17240,17400,2051,17400
2013-07-08,17490,17660,17030,17180,3910,17180
2013-07-09,17120,17440,17120,17310,2359,17310
2013-07-10,17250,17400,17130,17360,1880,17360
2013-07-11,17410,18300,17320,18290,4811,18290
2013-07-12,18300,18480,17800,18010,2198,18010
2013-07-16,18010,18100,17740,17920,1785,17920
2013-07-17,17940,17990,17700,17950,1343,17950
2013-07-18,17750,17890,17400,17500,2718,17500
2013-07-19,17500,17630,17120,17450,2396,17450
2013-07-22,17200,17340,17010,17340,2682,17340
2013-07-23,17170,17900,17150,17770,2877,17770
2013-07-24,17660,17800,17400,17680,1032,17680
2013-07-25,17650,17900,17490,17620,2410,17620
2013-07-26,17420,17640,17310,17590,789,17590
2013-07-29,17300,17390,17110,17150,2396,17150
2013-07-30,17020,17180,16890,17120,3822,17120
2013-07-31,16920,17300,16920,17050,1093,17050
2013-08-01,17000,17290,16990,17200,1563,17200
2013-08-02,17210,17600,17190,17550,2554,17550
2013-08-05,17410,17580,17310,17550,757,17550
2013-08-06,17530,17580,17210,17470,1515,17470
2013-08-07,17240,17500,17220,17330,1371,17330
2013-08-08,17260,17400,17260,17270,723,17270
2013-08-09,17270,17450,17010,17350,1996,17350
2013-08-12,17490,17800,17300,17800,2137,17800
2013-08-13,17800,18500,17800,18290,3355,18290
2013-08-14,18500,18550,18300,18500,1505,18500
2013-08-15,18460,18460,18220,18220,1066,18220
2013-08-16,18140,18660,17850,18240,3041,18240
2013-08-19,17890,18180,17890,18080,920,18080
2013-08-20,17950,18100,17660,17690,1184,17690
2013-08-21,17560,17640,17410,17530,692,17530
2013-08-22,17520,17750,17390,17600,1939,17600
2013-08-23,17700,17910,17370,17580,1210,17580
2013-08-26,17620,17960,17460,17950,969,17950
2013-08-27,17940,17940,17820,17940,256,17940
2013-08-28,17600,17900,17490,17800,859,17800
2013-08-29,17900,17900,17750,17870,678,17870
2013-08-30,17700,17930,17600,17930,681,17930
2013-09-02,17980,18050,17830,18050,683,18050
2013-09-03,18120,18300,18030,18280,819,18280
2013-09-04,18140,18300,18050,18250,1153,18250
2013-09-05,18310,18310,18110,18200,1660,18200
2013-09-06,18350,18560,18120,18470,1915,18470
2013-09-09,18590,19490,18220,19450,3927,19450
2013-09-10,19380,19600,19300,19580,2793,19580
2013-09-11,19650,19970,19620,19890,2673,19890
2013-09-12,19870,20200,19560,20100,2855,20100
2013-09-13,19860,20080,19610,19900,955,19900
2013-09-17,20200,20250,19370,19560,2147,19560
2013-09-18,19570,19800,19420,19580,1276,19580
2013-09-19,19700,19700,19500,19590,1147,19590
2013-09-20,19690,19760,19560,19760,736,19760
2013-09-24,19600,19600,19200,19390,1984,19390
2013-09-25,19330,19400,19110,19200,705,19200
2013-09-26,19110,19500,18950,19000,1412,19000
2013-09-27,19000,19170,18860,18860,639,18860
2013-09-30,18600,18770,18410,18610,1022,18610
2013-10-01,18650,18760,18650,18760,188,18760
2013-10-02,18500,18840,18500,18600,321,18600
2013-10-03,18470,18640,18450,18560,324,18560
2013-10-04,18520,18660,18350,18600,624,18600
2013-10-07,18780,18780,18490,18600,510,18600
2013-10-08,18400,18690,18400,18690,434,18690
2013-10-09,18680,18750,18450,18610,329,18610
2013-10-10,18800,18850,18500,18600,905,18600
2013-10-11,18890,18920,18690,18920,955,18920
2013-10-15,18920,19010,18900,19000,1210,19000
2013-10-16,19000,19000,18830,18870,316,18870
2013-10-17,19010,19020,18830,18840,1099,18840
2013-10-18,18840,19000,18800,18940,542,18940
2013-10-21,18860,18960,18810,18960,967,18960
2013-10-22,19030,19040,18810,19040,679,19040
2013-10-23,19040,19250,18810,18820,1093,18820
2013-10-24,18800,19170,18700,18740,393,18740
2013-10-25,18630,18880,18450,18530,1196,18530
2013-10-28,18530,18680,18410,18680,323,18680
2013-10-29,18500,18900,18440,18680,836,18680
2013-10-30,18890,18950,18500,18800,1067,18800
2013-10-31,18680,18970,18620,18960,1280,18960
2013-11-01,18560,18890,18560,18830,578,18830
2013-11-05,18920,18920,18500,18630,501,18630
2013-11-06,18630,18740,18470,18710,361,18710
2013-11-07,18610,18610,18430,18430,602,18430
2013-11-08,18390,18590,18250,18500,771,18500
2013-11-11,18550,18690,18310,18520,1022,18520
2013-11-12,18510,18680,18380,18680,592,18680
2013-11-13,18510,18650,18380,18400,740,18400
2013-11-14,18350,18500,18350,18500,1138,18500
2013-11-15,18740,18850,18490,18830,2588,18830
2013-11-18,18850,19000,18650,18990,2516,18990
2013-11-19,19060,19120,19020,19090,2712,19090
2013-11-20,19100,19200,18800,19150,2506,19150
2013-11-21,19150,19170,18830,19000,1952,19000
2013-11-22,19100,19200,19010,19130,1638,19130
2013-11-25,19140,19250,18900,19230,3578,19230
2013-11-26,19050,19140,18930,19020,1433,19020
2013-11-27,18910,19100,18910,19050,733,19050
2013-11-28,19100,19310,19010,19290,2576,19290
2013-11-29,19270,19290,19180,19250,799,19250
2013-12-02,19180,19560,19110,19340,8241,19340
2013-12-03,19430,19540,19320,19520,4405,19520
2013-12-04,19330,19700,19300,19660,3865,19660
2013-12-05,19550,19750,19550,19680,1149,19680
2013-12-06,19420,19670,19320,19560,1651,19560
2013-12-09,19610,19750,19430,19650,2852,19650
2013-12-10,19600,19750,19600,19710,1077,19710
2013-12-11,19670,19670,19250,19480,1833,19480
2013-12-12,19160,19450,19150,19330,890,19330
2013-12-13,19400,19490,19280,19430,2341,19430
2013-12-16,19150,19350,18850,19010,1774,19010
2013-12-17,19030,19050,18720,18850,1527,18850
2013-12-18,18790,18850,18710,18770,1163,18770
2013-12-19,18890,18990,18740,18760,3078,18760
2013-12-20,18650,18690,18200,18250,3180,18250
2013-12-24,18100,18380,18100,18110,6763,18110
2013-12-25,18050,18210,18040,18090,5164,18090
2013-12-26,18270,18370,18040,18120,1831,18120
2013-12-27,18180,18580,18080,18540,1539,18540
2013-12-30,18650,18690,18500,18520,2394,18520
2014-01-06,18500,18500,18010,18100,1859,18100
2014-01-07,18010,18160,18010,18120,716,18120
2014-01-08,18400,18470,18060,18420,1850,18420
2014-01-09,18390,18480,18300,18360,540,18360
2014-01-10,18570,18580,18390,18570,5642,18570
2014-01-14,18300,18300,18030,18130,3018,18130
2014-01-15,18220,18300,18110,18140,1032,18140
2014-01-16,18220,18300,18130,18230,825,18230
2014-01-17,18220,18460,18150,18150,1198,18150
2014-01-20,18150,18240,18100,18100,879,18100
2014-01-21,18160,18290,18150,18290,2674,18290
2014-01-22,18290,18410,18180,18400,1986,18400
2014-01-23,18510,18580,18230,18300,1066,18300
2014-01-24,18050,18250,18010,18230,2772,18230
2014-01-27,18100,18230,17900,17960,4485,17960
2014-01-28,17960,18100,17960,18020,1021,18020
2014-01-29,18090,18450,18080,18280,1966,18280
2014-01-30,18050,18180,17960,18010,1509,18010
2014-01-31,18050,18100,17900,17900,474,17900
2014-02-03,18460,18690,17600,17610,3814,17610
2014-02-04,17250,17340,16970,17050,3147,17050
2014-02-05,17270,17340,17050,17190,1638,17190
2014-02-06,17320,17320,17110,17260,1401,17260
2014-02-07,17390,17980,17250,17810,2076,17810
2014-02-10,17880,17970,17850,17970,1619,17970
2014-02-12,18080,18210,18010,18050,3433,18050
2014-02-13,18100,18100,17900,18070,2547,18070
2014-02-14,17730,18000,17730,17900,516,17900
2014-02-17,17910,17980,17750,17870,1921,17870
2014-02-18,18000,18000,17540,17800,1622,17800
2014-02-19,17890,18030,17790,18010,708,18010
2014-02-20,18010,18090,17780,17850,2281,17850
2014-02-21,17810,17940,17660,17690,907,17690
2014-02-24,17710,17950,17310,17470,1866,17470
2014-02-25,17320,17570,17180,17180,1679,17180
2014-02-26,17200,17250,17110,17150,911,17150
2014-02-27,17160,17430,17110,17420,1558,17420
2014-02-28,17650,17650,17100,17400,3382,17400
2014-03-03,17270,17270,17050,17150,1251,17150
2014-03-04,17100,17250,17100,17250,484,17250
2014-03-05,17340,17400,17100,17270,1036,17270
2014-03-06,17010,17330,17010,17330,1240,17330
2014-03-07,17290,17360,17210,17360,407,17360
2014-03-10,17350,17400,17000,17090,1190,17090
2014-03-11,16960,17150,16930,16990,1082,16990
2014-03-12,16990,17000,16810,16820,1838,16820
2014-03-13,16830,17070,16770,16920,2020,16920
2014-03-14,16850,16850,16660,16680,1071,16680
2014-03-17,16600,16790,16600,16750,1302,16750
2014-03-18,16880,16940,16770,16820,713,16820
2014-03-19,16770,16850,16500,16610,1488,16610
2014-03-20,16760,16760,16510,16680,1002,16680
2014-03-24,16890,17010,16830,17010,1950,17010
2014-03-25,17000,17020,16860,16980,722,16980
2014-03-26,17100,17140,16900,17030,562,17030
2014-03-27,16950,17110,16700,17110,1366,17110
2014-03-28,16920,17150,16920,17150,624,17150
2014-03-31,17150,17280,17040,17280,1451,17280
2014-04-01,17300,17400,17200,17240,912,17240
2014-04-02,17380,17400,17300,17340,649,17340
2014-04-03,17350,17410,17290,17300,721,17300
2014-04-04,17150,17260,17050,17200,1268,17200
2014-04-07,17010,17270,16980,17160,1188,17160
2014-04-08,17010,17430,17010,17400,1417,17400
2014-04-09,17360,17500,17270,17370,1194,17370
2014-04-10,17400,17690,17310,17650,1244,17650
2014-04-11,17650,17970,17500,17950,3098,17950
2014-04-14,17950,17950,17740,17740,1178,17740
2014-04-15,17890,17940,17520,17520,1532,17520
2014-04-16,17460,17650,17450,17650,2230,17650
2014-04-17,17650,17660,17510,17610,730,17610
2014-04-18,17460,17610,17450,17570,581,17570
2014-04-21,17520,17560,17420,17420,605,17420
2014-04-22,17540,17540,17120,17280,858,17280
2014-04-23,17290,17390,17220,17250,1582,17250
2014-04-24,17200,17260,17160,17200,553,17200
2014-04-25,17140,17210,17090,17180,1048,17180
2014-04-28,17180,17180,16910,16910,1066,16910
2014-04-30,17010,17110,17010,17050,1098,17050
2014-05-01,17140,17140,17020,17090,647,17090
2014-05-02,17090,17130,17000,17100,1366,17100
2014-05-07,17030,17100,16900,17010,1550,17010
2014-05-08,17060,17120,17010,17120,836,17120
2014-05-09,17030,17840,17000,17110,1106,17110
2014-05-12,17150,17400,17100,17350,1586,17350
2014-05-13,17410,17430,17220,17220,1546,17220
2014-05-14,17440,17440,17250,17420,692,17420
2014-05-15,17270,17340,17270,17280,509,17280
2014-05-16,17210,17220,17040,17180,838,17180
2014-05-19,17180,17180,16890,16890,2152,16890
2014-05-20,16720,16960,16720,16820,4204,16820
2014-05-21,16830,16900,16760,16900,1719,16900
2014-05-22,16940,17200,16910,17130,972,17130
2014-05-23,17000,17230,17000,17230,1487,17230
2014-05-26,17340,17340,17110,17310,1211,17310
2014-05-27,17320,17400,17010,17260,1469,17260
2014-05-28,17160,17400,17040,17290,762,17290
2014-05-29,17310,17510,17300,17330,1952,17330
2014-05-30,17380,17480,17310,17410,1374,17410
2014-06-02,17390,17650,17390,17600,1770,17600
2014-06-03,17600,17740,17540,17650,674,17650
2014-06-04,17590,17690,17510,17600,1917,17600
2014-06-05,17640,17680,17550,17580,502,17580
2014-06-06,17670,17680,17520,17540,1173,17540
2014-06-09,17570,17700,17570,17600,1394,17600
2014-06-10,17530,17760,17510,17750,1197,17750
2014-06-11,17640,17810,17640,17710,1268,17710
2014-06-12,17750,17750,17610,17680,525,17680
2014-06-13,17610,18050,17510,17970,5378,17970
2014-06-16,17960,18170,17890,18110,3859,18110
2014-06-17,18110,18110,17920,18010,1185,18010
2014-06-18,18000,18080,17930,18020,2346,18020
2014-06-19,18080,18100,17850,17870,2397,17870
2014-06-20,17750,18110,17750,18110,2226,18110
2014-06-23,18030,18180,18030,18180,2637,18180
2014-06-24,18070,18140,18050,18120,387,18120
2014-06-25,18030,18100,18020,18080,808,18080
2014-06-26,18000,18280,18000,18230,2883,18230
2014-06-27,18090,18230,18000,18060,733,18060
2014-06-30,18000,18250,17940,18250,982,18250
2014-07-01,18230,18260,18130,18250,603,18250
2014-07-02,18270,18480,18260,18260,1895,18260
2014-07-03,18300,18450,18270,18450,741,18450
2014-07-04,18370,18600,18370,18380,1835,18380
2014-07-07,18410,18550,18400,18500,3585,18500
2014-07-08,18450,18580,18370,18480,1716,18480
2014-07-09,18530,18530,18390,18390,1331,18390
2014-07-10,18310,18390,18250,18300,5021,18300
2014-07-11,18210,18330,18200,18200,875,18200
2014-07-14,18200,18390,18150,18230,293,18230
2014-07-15,18320,18470,18320,18350,406,18350
2014-07-16,18370,18530,18210,18480,1742,18480
2014-07-17,18540,18540,18350,18390,709,18390
2014-07-18,18220,18470,18210,18380,712,18380
2014-07-22,18410,18850,18410,18850,2838,18850
2014-07-23,18790,19100,18720,18990,2873,18990
2014-07-24,19100,19440,18500,19400,4204,19400
2014-07-25,19540,19620,19400,19490,6124,19490
2014-07-28,19500,20150,19490,20070,4900,20070
2014-07-29,20300,20490,20220,20440,3020,20440
2014-07-30,20320,20440,20300,20360,1972,20360
2014-07-31,20400,20460,20330,20440,2323,20440
2014-08-01,20430,20780,20420,20710,3640,20710
2014-08-04,20680,20970,20550,20970,3600,20970
2014-08-05,21020,21110,20590,20590,3866,20590
2014-08-06,20610,20700,20340,20560,2401,20560
2014-08-07,20600,20600,20190,20380,1243,20380
2014-08-08,20160,20270,20000,20250,1751,20250
2014-08-11,20160,20640,20160,20600,2052,20600
2014-08-12,20550,20640,20370,20370,2284,20370
2014-08-13,20380,20510,20320,20400,1023,20400
2014-08-14,20450,20600,20440,20450,777,20450
2014-08-15,20430,20590,20320,20590,593,20590
2014-08-18,20530,20620,20510,20520,1478,20520
2014-08-19,20600,20610,20350,20350,1057,20350
2014-08-20,20420,20530,20400,20530,581,20530
2014-08-21,20580,20580,20120,20310,4293,20310
2014-08-22,20320,20450,20230,20360,1591,20360
2014-08-25,20550,20650,20350,20450,2108,20450
2014-08-26,20440,20440,20110,20110,1954,20110
2014-08-27,20270,20460,20120,20310,1419,20310
2014-08-28,20180,20240,20010,20070,1531,20070
2014-08-29,19780,20140,19710,20140,1313,20140
2014-09-01,20040,20380,20040,20380,1140,20380
2014-09-02,20400,20590,20310,20540,1260,20540
2014-09-03,20650,21200,20600,21010,4635,21010
2014-09-04,21000,21190,20970,21080,1386,21080
2014-09-05,21290,21490,21200,21460,2675,21460
2014-09-08,21550,21690,21520,21630,1896,21630
2014-09-09,21670,21830,21610,21730,1940,21730
2014-09-10,21680,21710,21270,21330,2760,21330
2014-09-11,21400,21750,21390,21590,1657,21590
2014-09-12,21380,21600,21360,21600,1215,21600
2014-09-16,21460,21500,21210,21260,1996,21260
2014-09-17,21250,21300,21140,21210,2267,21210
2014-09-18,21570,21570,21210,21450,1839,21450
2014-09-19,21530,21620,21410,21500,1863,21500
2014-09-22,21410,21460,21140,21220,1278,21220
2014-09-24,21150,21830,20950,21770,4232,21770
2014-09-25,21850,22090,21810,21970,2846,21970
2014-09-26,21650,21740,21450,21680,1920,21680
2014-09-29,21400,22000,21400,21820,3632,21820
2014-09-30,21810,21810,21430,21550,1448,21550
2014-10-01,21600,21800,21550,21550,663,21550
2014-10-02,21450,21480,21350,21350,619,21350
2014-10-03,21350,21690,21350,21690,3115,21690
2014-10-06,21730,21820,21650,21740,946,21740
2014-10-07,21790,21900,21770,21800,889,21800
2014-10-08,21750,21750,21520,21630,915,21630
2014-10-09,21730,21780,21560,21600,904,21600
2014-10-10,21600,21600,21350,21520,1266,21520
2014-10-14,21080,21290,20970,21000,1101,21000
2014-10-15,20780,21150,20760,21010,971,21010
2014-10-16,20800,21030,20600,21010,1674,21010
2014-10-17,20510,20950,20510,20660,2841,20660
2014-10-20,20860,21160,20860,21070,1641,21070
2014-10-21,21060,21210,20820,20840,741,20840
2014-10-22,20760,21190,20760,20970,1014,20970
2014-10-23,21080,21080,20770,20980,515,20980
2014-10-24,20910,21000,20910,20950,407,20950
2014-10-27,21000,21020,20660,20700,410,20700
2014-10-28,20600,20850,20600,20800,267,20800
2014-10-29,20950,21400,20950,21400,1662,21400
2014-10-30,21550,21610,21360,21570,1397,21570
2014-10-31,21600,22100,21500,22060,3490,22060
2014-11-04,22550,22710,22510,22700,6128,22700
2014-11-05,22580,22630,22170,22410,2918,22410
2014-11-06,22430,22660,22390,22390,2557,22390
2014-11-07,22400,23400,22400,23010,5882,23010
2014-11-10,22800,23350,22800,23250,1902,23250
2014-11-11,23360,24250,23360,23850,6807,23850
2014-11-12,23800,24100,23790,24080,5901,24080
2014-11-13,24100,24240,24040,24150,43548,24150
2014-11-14,24050,24200,23930,24060,4249,24060
2014-11-17,24300,24500,23100,23840,3500,23840
2014-11-18,23910,24050,23870,23960,2929,23960
2014-11-19,24190,24190,23910,24100,1195,24100
2014-11-20,24250,24250,24000,24140,1712,24140
2014-11-21,24150,24170,23820,24060,1140,24060
2014-11-25,24820,25150,24820,25100,6330,25100
2014-11-26,25030,25550,25030,25470,6991,25470
2014-11-27,25700,26100,25700,26030,6175,26030
2014-11-28,25920,26690,25910,26540,6967,26540
2014-12-01,26950,27540,26950,27360,5978,27360
2014-12-02,27060,28130,26900,28130,5922,28130
2014-12-03,28510,29980,28510,29500,9357,29500
2014-12-04,29610,30500,29610,30500,7111,30500
2014-12-05,31050,32800,31000,32050,17487,32050
2014-12-08,33000,33200,31700,33200,16099,33200
2014-12-09,33050,33700,31800,32300,21086,32300
2014-12-10,29700,31800,29700,31800,26166,31800
2014-12-11,31050,32300,30750,31450,8584,31450
2014-12-12,31200,32300,31200,31650,5441,31650
2014-12-15,30700,31350,30600,30700,3102,30700
2014-12-16,30500,32150,30250,31700,9462,31700
2014-12-17,32000,33700,31900,33600,13548,33600
2014-12-18,34200,34650,33800,34150,9503,34150
2014-12-19,34300,34750,32550,34000,11868,34000
2014-12-22,34200,35500,34000,35350,12645,35350
2014-12-24,34300,34950,32950,33050,16153,33050
2014-12-25,32650,34100,32650,34000,8783,34000
2014-12-26,34700,35700,34600,35500,28033,35500
2014-12-29,35700,36800,35700,36150,9760,36150
2014-12-30,36050,36100,35400,35900,9263,35900
2015-01-05,37050,37950,36800,37950,10087,37950
2015-01-06,37950,37950,36950,37400,10009,37400
2015-01-07,37300,38000,37200,37600,7990,37600
2015-01-08,38050,38750,37300,37350,9039,37350
2015-01-09,37250,38200,36900,37850,7168,37850
2015-01-13,36700,36700,36150,36350,7205,36350
2015-01-14,36400,36600,35850,35900,4420,35900
2015-01-15,35400,36750,35400,36700,5783,36700
2015-01-16,36850,37350,36500,37250,4257,37250
2015-01-19,37800,37800,33500,33700,23883,33700
2015-01-20,33000,34800,32600,33950,12769,33950
2015-01-21,34150,35850,34150,35600,8448,35600
2015-01-22,36300,36300,35500,35650,4838,35650
2015-01-23,36200,36900,36050,36500,7771,36500
2015-01-26,36350,36400,35850,36100,1769,36100
2015-01-27,36500,36750,35200,35500,7513,35500
2015-01-28,35900,35950,35050,35050,2868,35050
2015-01-29,34350,34550,34050,34050,7173,34050
2015-01-30,34350,35150,33850,34000,4161,34000
2015-02-02,33250,33400,32250,32950,5218,32950
2015-02-03,32800,33500,32400,32600,5845,32600
2015-02-04,33600,34400,33550,33850,5163,33850
2015-02-05,34900,35200,34100,34350,5575,34350
2015-02-06,33500,33650,32700,32900,3602,32900
2015-02-09,32650,33800,32650,33700,4692,33700
2015-02-10,33400,34350,33250,34350,3501,34350
2015-02-12,34850,34850,34150,34650,2977,34650
2015-02-13,34300,35050,34300,34750,3212,34750
2015-02-16,34450,34650,34300,34500,2738,34500
2015-02-17,34750,34800,34450,34550,2608,34550
2015-02-18,34850,35050,34650,35000,3460,35000
2015-02-19,35000,35000,34800,35000,940,35000
2015-02-20,34900,35050,34800,35050,1422,35050
2015-02-23,35050,35200,34900,35050,886,35050
2015-02-24,35000,35600,35000,35400,2136,35400
2015-02-25,35400,35400,34900,35200,1258,35200
2015-02-26,34850,35600,34500,35500,3989,35500
2015-02-27,35550,36000,35550,35850,6260,35850
2015-03-02,36500,36700,35950,36150,9406,36150
2015-03-03,36200,36250,35000,35050,3420,35050
2015-03-04,34500,34700,34200,34700,3302,34700
2015-03-05,34350,34700,33550,33600,5226,33600
2015-03-06,33700,34150,33700,34100,1925,34100
2015-03-09,33400,34700,33150,34150,3621,34150
2015-03-10,34600,34850,34350,34600,3193,34600
2015-03-11,34050,35000,34050,34450,1618,34450
2015-03-12,34400,35800,34400,35450,7659,35450
2015-03-13,35500,36050,35350,35550,3982,35550
2015-03-16,35550,36550,35500,36500,3486,36500
2015-03-17,36800,37150,36800,36850,6614,36850
2015-03-18,37200,38000,36950,37950,10646,37950
2015-03-19,38100,38150,37350,37350,6908,37350
2015-03-20,37550,38700,37450,38700,8525,38700
2015-03-23,38550,38950,38400,38550,5067,38550
2015-03-24,38850,38900,38050,38250,3672,38250
2015-03-25,38400,38400,37550,37600,2510,37600
2015-03-26,37350,38050,37100,38000,4749,38000
2015-03-27,37900,38200,37800,38150,1900,38150
2015-03-30,38100,39050,38000,39050,4102,39050
2015-03-31,39750,40600,39750,40100,7322,40100
2015-04-01,39450,39950,38900,39800,3949,39800
2015-04-02,39900,40100,39050,39150,4061,39150
2015-04-03,39450,39950,39350,39750,2162,39750
2015-04-06,39750,40050,39750,39950,1225,39950
2015-04-07,40100,40850,40100,40650,5632,40650
2015-04-08,41000,41600,40800,41450,6152,41450
2015-04-09,41850,42300,41550,41750,7020,41750
2015-04-10,41750,42500,41700,42400,4629,42400
2015-04-13,42650,43400,42550,43300,5884,43300
2015-04-14,43400,43900,43100,43250,6968,43250
2015-04-15,43450,43750,43050,43600,4675,43600
2015-04-16,43350,44750,43050,44550,7407,44550
2015-04-17,45150,46500,45100,46450,12840,46450
2015-04-20,44450,46150,44250,44250,16464,44250
2015-04-21,44400,45350,44400,44950,9409,44950
2015-04-22,46100,46350,45750,46350,7260,46350
2015-04-23,47150,47700,46850,47700,9979,47700
2015-04-24,47300,47500,46050,46600,9084,46600
2015-04-27,46600,47500,46500,47450,7569,47450
2015-04-28,47800,48650,47700,48400,11663,48400
2015-04-30,48000,48250,47350,47600,6560,47600
2015-05-01,46700,46900,46050,46150,8853,46150
2015-05-07,44400,44800,44000,44150,14365,44150
2015-05-08,44150,44700,43250,44100,7745,44100
2015-05-11,46100,46500,44150,45050,9883,45050
2015-05-12,45600,45750,44800,45500,3847,45500
2015-05-13,45600,45600,44850,44950,4410,44950
2015-05-14,44750,44750,44200,44350,3939,44350
2015-05-15,44350,44700,43100,43850,7229,43850
2015-05-18,43400,43850,43350,43350,2893,43350
2015-05-19,42900,45100,42800,44600,7453,44600
2015-05-20,45500,46400,45300,46300,5343,46300
2015-05-21,45900,46350,45600,45950,4823,45950
2015-05-22,45950,47400,45900,47100,8982,47100
2015-05-25,47800,49300,47600,49200,11542,49200
2015-05-26,49700,49950,48700,49400,11789,49400
2015-05-27,49100,49900,49100,49300,11940,49300
2015-05-28,49750,49750,47350,47600,11016,47600
2015-05-29,46200,47000,45500,46750,28314,46750
2015-06-01,46100,48000,46000,47800,9565,47800
2015-06-02,48850,48850,47800,48150,8049,48150
2015-06-03,48500,48500,47300,47600,6040,47600
2015-06-04,48000,49000,45500,46750,15933,46750
2015-06-05,47900,49100,46800,48200,19194,48200
2015-06-08,48250,49600,47900,49450,17681,49450
2015-06-09,49700,50100,49050,49150,16809,49150
2015-06-10,48600,49100,48350,48900,10232,48900
2015-06-11,48700,48950,48450,48700,4109,48700
2015-06-12,48750,49100,48500,48900,3553,48900
2015-06-15,48750,49100,47600,48450,5031,48450
2015-06-16,47550,47800,46200,46350,13810,46350
2015-06-17,46350,46650,45900,46500,7018,46500
2015-06-18,46800,47000,45650,45800,7914,45800
2015-06-19,45350,45500,44350,44850,12241,44850
2015-06-22,43300,43850,43200,43700,11682,43700
2015-06-23,43650,45250,43150,44150,23141,44150
2015-06-24,45300,45350,44050,44800,10611,44800
2015-06-25,45350,45800,44500,44650,9255,44650
2015-06-26,43600,43600,41450,41650,25087,41650
2015-06-29,40000,41900,37600,38850,47562,38850
2015-06-30,38500,41750,38450,41750,37206,41750
2015-07-01,41700,41850,40750,41400,13737,41400
2015-07-02,40450,41100,39550,39750,20306,39750
2015-07-03,39050,40250,37600,39100,41467,39100
2015-07-06,39800,41950,39000,40000,88116,40000
2015-07-07,40800,41250,39500,40350,31300,40350
2015-07-08,40000,40000,37550,37550,43407,37550
2015-07-09,36000,39950,35500,39700,31874,39700
2015-07-10,40100,42250,39750,41000,43182,41000
2015-07-13,41750,42300,40100,41300,21860,41300
2015-07-14,42000,42000,39500,39650,10926,39650
2015-07-15,39700,40200,38550,38550,7801,38550
2015-07-16,38900,40550,38900,39850,12367,39850
2015-07-17,40000,41100,40000,41100,8093,41100
2015-07-21,41400,41450,40850,41050,4242,41050
2015-07-22,41050,41200,40100,40150,1352,40150
2015-07-23,40150,41700,40150,41500,7909,41500
2015-07-24,41500,41550,40750,41200,4272,41200
2015-07-27,40350,40500,39100,39650,4100,39650
2015-07-28,38250,39150,38000,39000,10853,39000
2015-07-29,39100,39100,37300,37300,7110,37300
2015-07-30,38400,38450,37750,38000,2828,38000
2015-07-31,37500,39400,37400,39400,6223,39400
2015-08-03,38000,39000,37200,37500,4206,37500
2015-08-04,37600,38000,37000,37350,5677,37350
2015-08-05,37800,38000,37000,37200,2512,37200
2015-08-06,37500,37650,37200,37250,1183,37250
2015-08-07,37450,38250,37150,37950,2743,37950
2015-08-10,37600,38750,37600,38700,1780,38700
2015-08-11,39300,39450,38050,38400,3413,38400
2015-08-12,38100,38900,37500,38900,2793,38900
2015-08-13,38150,39250,37950,38250,1940,38250
2015-08-14,38250,38850,38250,38400,644,38400
2015-08-17,38350,38350,36750,36950,4077,36950
2015-08-18,37000,37150,36000,36450,4727,36450
2015-08-19,35450,35950,34800,35200,5370,35200
2015-08-20,35550,35550,34450,34450,2262,34450
2015-08-21,32900,33700,32500,32850,6186,32850
2015-08-24,31550,31900,29800,30500,7406,30500
2015-08-25,27600,30500,27600,28920,5239,28920
2015-08-26,30100,30400,28800,30200,3591,30200
2015-08-27,30900,31850,30600,30700,4958,30700
2015-08-28,32800,32800,31800,32450,4835,32450
2015-08-31,32600,32850,30600,31600,2692,31600
2015-09-01,31050,31350,30300,30650,2894,30650
2015-09-02,29700,31200,29600,30200,3510,30200
2015-09-03,30550,30650,29930,30000,1088,30000
2015-09-04,30000,30050,29040,29730,1425,29730
2015-09-07,29120,30300,28770,28980,3925,28980
2015-09-08,28910,29190,28010,28880,1901,28880
2015-09-09,30100,30600,30050,30450,2886,30450
2015-09-10,29750,30850,29560,30700,1018,30700
2015-09-11,30850,30950,30450,30900,480,30900
2015-09-14,30850,30900,29960,29960,1225,29960
2015-09-15,30000,30700,29900,30250,1934,30250
2015-09-16,30150,30250,29930,29970,618,29970
2015-09-17,30750,31000,30450,30800,2130,30800
2015-09-18,30200,30700,30050,30500,741,30500
2015-09-24,29890,30500,29890,30150,303,30150
2015-09-25,30350,30350,29860,30000,346,30000
2015-09-28,30300,30600,29870,29920,1249,29920
2015-09-29,29680,29740,29140,29470,1286,29470
2015-09-30,29320,30300,29210,29530,1993,29530
2015-10-01,29700,29950,29460,29700,247,29700
2015-10-02,29600,29840,29170,29700,1182,29700
2015-10-05,29810,30150,29810,30000,705,30000
2015-10-06,31000,31100,30400,30850,1193,30850
2015-10-07,30600,31250,30600,31250,1219,31250
2015-10-08,32150,32600,30700,30700,3460,30700
2015-10-09,31500,31650,31100,31400,781,31400
2015-10-13,32400,32500,31950,32200,1320,32200
2015-10-14,32350,32400,31500,31800,1153,31800
2015-10-15,31400,32350,31150,32350,1115,32350
2015-10-16,32850,33000,32350,32600,2050,32600
2015-10-19,32700,33000,32400,32900,1326,32900
2015-10-20,32950,32950,32500,32950,908,32950
2015-10-21,32950,33000,31900,31950,3200,31950
2015-10-22,32100,32750,31950,32450,1730,32450
2015-10-23,33150,33200,32700,33050,1646,33050
2015-10-26,33750,35150,33500,33500,3830,33500
2015-10-27,33500,33500,32700,32800,1457,32800
2015-10-28,33200,33200,32750,32800,467,32800
2015-10-29,32800,32900,32600,32800,767,32800
2015-10-30,33050,33350,32650,33100,1192,33100
2015-11-02,33050,33050,32500,32850,633,32850
2015-11-04,32550,33500,32400,33000,1445,33000
2015-11-05,33750,35050,33350,34750,5251,34750
2015-11-06,35000,35350,34500,35300,3565,35300
2015-11-09,35750,36600,35600,36300,3691,36300
2015-11-10,36100,36300,35800,35900,1795,35900
2015-11-11,35950,35950,35200,35300,1394,35300
2015-11-12,35500,35650,34950,35050,975,35050
2015-11-13,34650,35050,34500,34650,711,34650
2015-11-16,33550,34200,33500,33600,1348,33600
2015-11-17,34200,35250,34200,35050,1702,35050
2015-11-18,34750,34950,34550,34650,773,34650
2015-11-19,34900,34950,34350,34850,1017,34850
2015-11-20,34950,35050,34650,34950,755,34950
2015-11-24,34750,34900,34400,34600,1748,34600
2015-11-25,34800,34800,34350,34650,490,34650
2015-11-26,34900,35150,34700,35150,2033,35150
2015-11-27,34900,35350,33850,34300,2420,34300
2015-11-30,33550,33650,32800,33400,3459,33400
2015-12-01,33650,33950,33250,33950,1220,33950
2015-12-02,33700,34050,33450,33750,1268,33750
2015-12-03,34550,34750,34050,34400,1553,34400
2015-12-04,34500,34500,33750,33900,544,33900
2015-12-07,34150,34250,33950,34200,1092,34200
2015-12-08,34250,34300,33500,33500,1631,33500
2015-12-09,33200,33750,33050,33300,985,33300
2015-12-10,33250,33450,33000,33400,417,33400
2015-12-11,33150,33400,32550,33150,1171,33150
2015-12-14,31900,33100,31800,33000,1980,33000
2015-12-15,32550,33100,32250,32450,1793,32450
2015-12-16,32900,33000,32600,32750,1265,32750
2015-12-17,32800,33700,32800,33600,3142,33600
2015-12-18,33100,33900,32000,33550,2914,33550
2015-12-21,33200,34500,32950,34400,3920,34400
2015-12-22,34200,34500,33900,34500,2272,34500
2015-12-24,34400,34450,33750,33800,1038,33800
2015-12-25,33750,33900,33150,33150,3302,33150
2015-12-28,33750,34250,33050,33050,3428,33050
2015-12-29,33000,33750,32850,33150,1095,33150
2015-12-30,33250,33400,32650,32700,1166,32700
2016-01-04,33000,33000,30450,30650,2582,30650
2016-01-05,30750,31200,30100,30250,4591,30250
2016-01-06,30500,30700,30050,30200,2026,30200
2016-01-07,30150,30250,28400,28430,2708,28430
2016-01-08,28430,29300,28400,28970,3438,28970
2016-01-12,28000,28400,27670,27850,1971,27850
2016-01-13,27830,28280,27830,27840,659,27840
2016-01-14,27100,27560,26750,27410,1313,27410
2016-01-15,27500,28010,26600,27180,1647,27180
2016-01-18,26120,26970,26070,26650,1333,26650
2016-01-19,26150,27490,26150,27430,1382,27430
2016-01-20,27590,27890,26560,26600,2056,26600
2016-01-21,26700,27240,26440,26470,1442,26470
2016-01-22,26770,27370,26570,27120,1237,27120
2016-01-25,27270,27600,27150,27240,918,27240
2016-01-26,26740,27170,26500,26500,1868,26500
2016-01-27,26460,26980,26450,26550,948,26550
2016-01-28,26500,26900,26500,26720,740,26720
2016-01-29,26600,27460,26600,27040,757,27040
2016-02-01,28850,28850,27180,27300,1182,27300
2016-02-02,27530,27650,26920,27620,913,27620
2016-02-03,26850,27570,26800,26930,501,26930
2016-02-04,26830,27330,26830,27130,400,27130
2016-02-05,26700,27240,26600,27000,388,27000
2016-02-08,26900,26980,26560,26980,83,26980
2016-02-09,26470,26470,26000,26200,955,26200
2016-02-10,26470,26470,25000,25800,715,25800
2016-02-12,24300,24800,24010,24290,2788,24290
2016-02-15,25000,25850,25000,25130,1723,25130
2016-02-16,25630,26290,25130,26200,1324,26200
2016-02-17,25420,25860,25380,25420,3106,25420
2016-02-18,25700,25920,25530,25530,435,25530
2016-02-19,25280,25580,25120,25480,143,25480
2016-02-22,25580,26290,25580,26240,1571,26240
2016-02-23,26300,26490,25770,25850,497,25850
2016-02-24,25750,25750,25430,25610,223,25610
2016-02-25,25820,25890,25020,25150,677,25150
2016-02-26,25200,25230,24640,25000,719,25000
2016-02-29,25670,25700,24450,24450,482,24450
2016-03-01,24800,24980,24450,24840,408,24840
2016-03-02,25550,25710,25110,25690,1065,25690
2016-03-03,25750,26000,25620,25780,904,25780
2016-03-04,25980,26490,25850,26410,786,26410
2016-03-07,26730,26960,26520,26680,580,26680
2016-03-08,26710,26820,25620,26350,984,26350
2016-03-09,26480,26510,25770,25860,491,25860
2016-03-10,26320,26480,26130,26250,672,26250
2016-03-11,26010,26380,25790,26290,118,26290
2016-03-14,26600,26980,26460,26880,646,26880
2016-03-15,26780,26780,26200,26340,317,26340
2016-03-16,26250,26550,26170,26540,143,26540
2016-03-17,26580,26870,26500,26500,219,26500
2016-03-18,26860,26980,26500,26950,428,26950
2016-03-22,27320,27700,27150,27320,694,27320
2016-03-23,27250,27380,26910,26980,396,26980
2016-03-24,27080,27080,26750,26750,110,26750
2016-03-25,26310,27000,26310,27000,92,27000
2016-03-28,26650,27160,26220,26700,400,26700
2016-03-29,27070,27070,26450,26680,426,26680
2016-03-30,26680,26900,26500,26720,211,26720
2016-03-31,26930,27100,26650,26650,594,26650
2016-04-01,26750,26750,26200,26280,385,26280
2016-04-04,26100,26590,26100,26270,135,26270
2016-04-05,26040,26500,26040,26400,443,26400
2016-04-06,26150,26300,25700,25700,482,25700
2016-04-07,25550,26090,25310,25350,201,25350
2016-04-08,25170,25200,25060,25200,347,25200
2016-04-11,25660,25660,25050,25260,484,25260
2016-04-12,25450,25450,25150,25190,156,25190
2016-04-13,25350,26300,25350,25900,575,25900
2016-04-14,26400,26500,25660,26000,382,26000
2016-04-15,26380,26380,25770,26040,143,26040
2016-04-18,25550,25550,25150,25310,311,25310
2016-04-19,25810,25810,25200,25450,549,25450
2016-04-20,25550,25550,25090,25370,621,25370
2016-04-21,25270,25700,25270,25700,534,25700
2016-04-22,25490,25640,25200,25630,440,25630
2016-04-25,25130,25720,25130,25700,574,25700
2016-04-26,25390,25690,25310,25600,184,25600
2016-04-27,25600,25600,25320,25600,348,25600
2016-04-28,25600,25600,25050,25200,187,25200
2016-05-02,24700,24870,24580,24740,273,24740
2016-05-06,24600,24660,24500,24510,463,24510
2016-05-09,24260,24560,24220,24220,689,24220
2016-05-10,24160,24550,24160,24430,200,24430
2016-05-11,24250,24500,24250,24370,158,24370
2016-05-12,24210,24440,24000,24430,568,24430
2016-05-13,24430,24430,24250,24260,56,24260
2016-05-16,24170,24260,24000,24260,209,24260
2016-05-17,24270,24400,24050,24400,149,24400
2016-05-18,24200,24330,24000,24240,375,24240
2016-05-19,24240,24590,24170,24450,366,24450
2016-05-20,24150,24390,24100,24350,204,24350
2016-05-23,24020,24350,24000,24250,558,24250
2016-05-24,24250,24290,23910,24100,241,24100
2016-05-25,24140,24220,23990,24210,506,24210
2016-05-26,24100,24110,23880,24030,333,24030
2016-05-27,23950,24180,23950,24110,159,24110
2016-05-30,24110,24380,24040,24380,359,24380
2016-05-31,24370,24790,24190,24790,996,24790
2016-06-01,24760,24800,24500,24500,674,24500
2016-06-02,24210,24340,23750,24150,715,24150
2016-06-03,23930,24450,23930,24440,391,24440
2016-06-06,24150,24150,23950,23970,320,23970
2016-06-07,24070,24090,23910,24050,330,24050
2016-06-08,23920,24150,23830,23990,174,23990
2016-06-09,23990,24100,23900,24060,243,24060
2016-06-10,23930,24040,23930,24010,85,24010
2016-06-13,23730,23870,23360,23360,494,23360
2016-06-14,23250,23300,22650,23170,672,23170
2016-06-15,23170,23480,22600,23480,552,23480
2016-06-16,23480,23480,22670,22680,197,22680
2016-06-17,22670,23000,22650,23000,462,23000
2016-06-20,22770,23300,22770,22950,110,22950
2016-06-21,22780,23180,22770,22770,146,22770
2016-06-22,22770,23000,22760,23000,260,23000
2016-06-23,23000,23040,22610,23000,196,23000
2016-06-24,23040,23040,21600,22280,967,22280
2016-06-27,21820,22230,21820,22060,354,22060
2016-06-28,21990,22030,21700,22000,288,22000
2016-06-29,22200,22260,22120,22230,191,22230
2016-06-30,22310,22370,22080,22130,272,22130
2016-07-01,22210,22300,22000,22000,295,22000
2016-07-04,22000,22130,21820,22100,184,22100
2016-07-05,22190,22190,21910,21930,420,21930
2016-07-06,21650,21810,21230,21740,964,21740
2016-07-07,21510,21680,21500,21620,386,21620
2016-07-08,21460,21670,21350,21520,387,21520
2016-07-11,21520,21860,21500,21770,259,21770
2016-07-12,21750,22000,21750,21910,417,21910
2016-07-13,22350,22350,22180,22220,432,22220
2016-07-14,21830,22220,21830,22100,159,22100
2016-07-15,22450,22450,22200,22300,568,22300
2016-07-19,22450,22450,22150,22260,433,22260
2016-07-20,22310,22450,22160,22360,147,22360
2016-07-21,22380,22800,22380,22800,907,22800
2016-07-22,22520,22740,22510,22730,672,22730
2016-07-25,22730,22850,22690,22850,787,22850
2016-07-26,22420,22750,22420,22700,281,22700
2016-07-27,22880,22880,22320,22690,452,22690
2016-07-28,22650,22800,22530,22670,591,22670
2016-07-29,22370,22660,22250,22610,121,22610
2016-08-01,22120,22580,22120,22500,158,22500
2016-08-02,22260,22500,22260,22400,111,22400
2016-08-03,22020,22320,22010,22180,261,22180
2016-08-04,22390,22490,22220,22490,422,22490
2016-08-05,22310,22580,22310,22400,49,22400
2016-08-08,22510,22650,22500,22560,147,22560
2016-08-09,22450,23000,22450,22950,684,22950
2016-08-10,22680,22940,22680,22770,172,22770
2016-08-12,22630,23190,22630,23000,621,23000
2016-08-15,23010,23900,23000,23800,843,23800
2016-08-16,23950,24050,23630,23630,915,23630
2016-08-17,23250,23710,23250,23520,202,23520
2016-08-18,23830,23830,23470,23470,356,23470
2016-08-19,23260,23470,23260,23400,66,23400
2016-08-22,23300,23770,23300,23440,31,23440
2016-08-23,23240,24010,23240,23820,1941,23820
2016-08-24,24000,24050,23890,24000,210,24000
2016-08-25,24080,24090,23880,23880,334,23880
2016-08-26,23710,23950,23700,23750,337,23750
2016-08-29,23820,24100,23820,23870,381,23870
2016-08-30,24010,24040,23920,23940,62,23940
2016-08-31,24050,24140,24050,24120,307,24120
2016-09-01,24150,24300,24130,24250,494,24250
2016-09-02,24260,24300,24150,24180,296,24180
2016-09-05,24220,24500,24180,24500,774,24500
2016-09-06,24550,24550,24400,24460,122,24460
2016-09-07,24450,24520,24400,24500,174,24500
2016-09-08,24500,24530,24360,24450,229,24450
2016-09-09,24400,24560,24400,24520,155,24520
2016-09-12,24420,24420,24050,24060,414,24060
2016-09-13,24110,24300,24050,24050,377,24050
2016-09-14,23950,24190,23950,24000,73,24000
2016-09-15,24000,24000,23860,23860,9,23860
2016-09-16,23850,23850,23800,23800,43,23800
2016-09-20,23800,24330,23800,23870,365,23870
2016-09-21,23800,24250,23800,24090,178,24090
2016-09-23,24090,24300,24090,24270,207,24270
2016-09-26,24400,24600,24270,24350,698,24350
2016-09-27,24280,24420,24160,24420,133,24420
2016-09-28,24400,24560,24100,24560,306,24560
2016-09-29,24550,24640,24450,24640,222,24640
2016-09-30,24500,24770,24320,24380,261,24380
2016-10-03,24060,24470,24060,24470,281,24470
2016-10-04,24500,24500,24100,24420,208,24420
2016-10-05,24470,24470,24200,24340,151,24340
2016-10-06,24400,24440,24330,24440,126,24440
2016-10-07,24440,24750,24440,24690,908,24690
2016-10-11,24900,25130,24900,25040,740,25040
2016-10-12,25040,25330,25000,25150,761,25150
2016-10-13,25230,25430,25110,25180,364,25180
2016-10-17,25270,25340,25130,25190,522,25190
2016-10-19,25600,25850,25560,25850,701,25850
2016-10-20,25800,25890,25500,25650,227,25650
2016-10-21,25650,26200,25500,26190,408,26190
2016-10-24,26200,26430,26170,26190,720,26190
2016-10-25,26200,26400,26200,26300,139,26300
2016-10-26,26300,26370,26170,26170,192,26170
2016-10-27,26150,26280,26150,26160,493,26160
2016-10-28,26340,26340,26190,26210,204,26210
2016-10-31,26100,26310,26050,26060,226,26060
2016-11-01,26230,26230,26060,26130,781,26130
2016-11-02,26280,26280,26040,26100,206,26100
2016-11-04,26000,26040,25740,26040,617,26040
2016-11-07,26100,26600,26100,26590,982,26590
2016-11-08,26900,26900,26620,26620,170,26620
2016-11-09,26970,26970,25260,25900,829,25900
2016-11-10,26990,26990,26690,26760,420,26760
2016-11-11,26980,27230,26550,27230,1003,27230
2016-11-14,27230,27700,27190,27700,1342,27700
2016-11-15,27780,27780,27350,27450,372,27450
2016-11-16,27780,27840,27700,27700,353,27700
2016-11-17,27720,27760,27500,27570,358,27570
2016-11-18,27770,28090,27770,28090,1021,28090
2016-11-21,28050,28400,28040,28230,365,28230
2016-11-22,28350,28700,28300,28680,757,28680
2016-11-24,29050,29240,29050,29240,794,29240
2016-11-25,29310,29600,29310,29430,997,29430
2016-11-28,29380,29550,29380,29410,515,29410
2016-11-29,29530,29900,29430,29740,854,29740
2016-11-30,30000,30350,29800,30000,1405,30000
2016-12-01,30350,30600,30300,30550,931,30550
2016-12-02,30400,30500,30000,30050,947,30050
2016-12-05,29920,30100,29500,29510,835,29510
2016-12-06,29600,29900,29450,29460,655,29460
2016-12-07,29410,29780,29400,29480,560,29480
2016-12-08,29520,29830,29460,29600,775,29600
2016-12-09,29630,30300,29630,30100,1104,30100
2016-12-12,30250,30500,29420,29740,867,29740
2016-12-13,29520,29730,29520,29700,1245,29700
2016-12-14,29780,29830,29600,29680,395,29680
2016-12-15,29890,30100,29550,29570,792,29570
2016-12-16,29570,29690,29360,29360,875,29360
2016-12-19,29140,29340,29130,29130,916,29130
2016-12-20,29120,29400,28610,28800,793,28800
2016-12-21,28730,29350,28730,29220,1278,29220
2016-12-22,29150,29150,28920,28970,738,28970
2016-12-26,28620,28960,28170,28680,999,28680
2016-12-27,28470,28670,28110,28310,689,28310
2016-12-28,28530,28770,28420,28610,209,28610
2016-12-29,28770,28770,28500,28700,366,28700
2016-12-30,28680,28700,28500,28660,336,28660
2017-01-04,28810,29000,28520,28780,403,28780
2017-01-05,29000,29000,28560,28640,315,28640
2017-01-06,28600,28870,28600,28790,177,28790
2017-01-10,28780,28800,28550,28700,412,28700
2017-01-11,28700,28840,28360,28580,262,28580
2017-01-12,28450,28450,28230,28420,386,28420
2017-01-13,28150,28300,28150,28250,208,28250
2017-01-16,28000,28100,27820,27830,417,27830
2017-01-17,27840,28200,27390,27390,292,27390
2017-01-18,27430,27650,27200,27410,274,27410
2017-01-19,27500,27800,27500,27600,195,27600
2017-01-20,27500,27600,27410,27520,313,27520
2017-01-23,27680,27680,27400,27570,127,27570
2017-01-24,27030,27320,26950,27220,464,27220
2017-01-25,27400,27510,27300,27380,259,27380
2017-01-26,27560,27560,27400,27550,163,27550
2017-01-27,27470,27900,27470,27770,131,27770
2017-01-30,27700,27760,27470,27550,107,27550
2017-01-31,27500,27500,27200,27370,164,27370
2017-02-01,27320,27360,27100,27310,174,27310
2017-02-02,27100,27320,27100,27230,189,27230
2017-02-03,27230,27380,27200,27230,63,27230
2017-02-06,27400,27400,27220,27300,242,27300
2017-02-07,27060,27300,27000,27000,235,27000
2017-02-08,27360,27360,27000,27150,182,27150
2017-02-09,27050,27280,27050,27100,385,27100
2017-02-10,27310,27460,27220,27400,243,27400
2017-02-13,27780,28280,27400,28280,903,28280
2017-02-14,28200,28410,28200,28390,454,28390
2017-02-15,28890,29250,28800,29030,1120,29030
2017-02-16,29100,29300,29030,29300,513,29300
2017-02-17,29170,29220,29050,29050,419,29050
2017-02-20,29150,29370,29030,29110,467,29110
2017-02-21,29200,29350,29200,29290,298,29290
2017-02-22,29350,29390,29300,29370,266,29370
2017-02-23,29400,29400,29220,29220,134,29220
2017-02-24,29220,29220,29040,29220,137,29220
2017-02-27,29050,29300,29050,29300,286,29300
2017-02-28,29180,29250,29140,29140,170,29140
2017-03-01,29150,29330,29150,29310,105,29310
2017-03-02,29350,29490,29140,29240,363,29240
2017-03-03,29390,29390,29040,29040,346,29040
2017-03-06,29040,29270,29040,29270,95,29270
2017-03-07,29290,29290,29130,29140,51,29140
2017-03-08,29280,29280,29260,29260,63,29260
2017-03-09,29260,29300,29170,29270,126,29270
2017-03-10,29280,29660,29280,29660,872,29660
2017-03-13,29480,29650,29450,29630,221,29630
2017-03-14,29660,29680,29500,29600,119,29600
2017-03-15,29660,29660,29380,29490,235,29490
2017-03-16,29390,29600,29380,29500,360,29500
2017-03-17,29640,29640,29520,29610,171,29610
2017-03-21,29610,29610,29500,29580,62,29580
2017-03-22,29480,29500,29100,29290,253,29290
2017-03-23,29140,29590,29140,29340,169,29340
2017-03-24,29200,29350,29120,29350,100,29350
2017-03-27,29110,29280,28600,29100,307,29100
2017-03-28,29070,29280,29010,29100,166,29100
2017-03-29,29080,29170,29050,29170,172,29170
2017-03-30,29070,29100,28900,28940,147,28940
2017-03-31,28950,29090,28950,29080,119,29080
2017-04-03,29100,29120,28980,28980,118,28980
2017-04-04,29000,29000,28740,28830,234,28830
2017-04-05,28750,28890,28720,28730,441,28730
2017-04-06,28710,28820,28580,28630,390,28630
2017-04-07,28630,28750,28560,28580,298,28580
2017-04-10,28560,28770,28350,28550,544,28550
2017-04-11,28550,28550,28040,28160,203,28160
2017-04-12,27850,28060,27500,27530,596,27530
2017-04-13,27310,27800,27310,27580,411,27580
2017-04-14,27400,27690,27350,27360,241,27360
2017-04-17,27270,27350,27150,27330,84,27330
2017-04-18,27480,27480,27170,27240,188,27240
2017-04-19,27150,27210,27000,27210,415,27210
2017-04-20,27390,27440,27140,27360,132,27360
2017-04-21,27440,27720,27400,27530,437,27530
2017-04-24,27520,27780,27380,27390,85,27390
2017-04-25,27520,27520,27010,27490,80,27490
2017-04-26,27390,27710,27390,27570,335,27570
2017-04-27,27570,27570,27250,27470,119,27470
2017-04-28,27470,27500,27200,27370,175,27370
2017-05-01,27380,27580,27380,27410,152,27410
2017-05-02,27600,27750,27450,27500,292,27500
2017-05-08,27500,27680,27490,27490,289,27490
2017-05-09,27780,27780,27500,27510,633,27510
2017-05-10,27680,27690,27480,27480,578,27480
2017-05-11,27590,27590,27400,27530,289,27530
2017-05-12,27610,27620,27400,27540,115,27540
2017-05-15,27400,27670,27390,27670,273,27670
2017-05-16,27680,27680,27420,27460,368,27460
2017-05-17,27470,27680,27340,27400,316,27400
2017-05-18,27160,27300,27050,27210,455,27210
2017-05-19,27100,27100,26400,26630,1378,26630
2017-05-22,26380,26540,26250,26480,676,26480
2017-05-23,26340,26540,26340,26360,125,26360
2017-05-24,26500,26500,26100,26100,375,26100
2017-05-25,26200,26700,26170,26700,632,26700
2017-05-26,26690,26700,26550,26700,274,26700
2017-05-29,26730,26730,26400,26500,42,26500
2017-05-30,26500,26680,26450,26660,1857,26660
2017-05-31,26680,26980,26600,26970,401,26970
2017-06-01,26940,26950,26640,26660,231,26660
2017-06-02,26950,27020,26600,26710,318,26710
2017-06-05,26800,26850,26650,26660,213,26660
2017-06-06,26560,26790,26450,26450,172,26450
2017-06-07,26500,26740,26490,26620,302,26620
2017-06-08,26710,26710,26510,26620,156,26620
2017-06-09,26800,26850,26600,26840,583,26840
2017-06-12,26810,26980,26810,26860,186,26860
2017-06-13,26860,26960,26860,26950,138,26950
2017-06-14,26990,27100,26880,26890,157,26890
2017-06-15,27020,27090,26740,27040,344,27040
2017-06-16,27150,27270,27040,27160,466,27160
2017-06-19,27400,27550,27210,27550,151,27550
2017-06-20,27600,28000,27560,28000,885,28000
2017-06-21,28090,28500,28090,28210,936,28210
2017-06-22,28250,28650,28250,28650,589,28650
2017-06-23,28650,28690,28460,28550,448,28550
2017-06-26,28640,28830,28640,28830,893,28830
2017-06-27,28950,28970,28900,28930,444,28930
2017-06-28,28980,29050,28930,28950,586,28950
2017-06-29,29000,29050,28940,29000,189,29000
2017-06-30,28500,28990,28500,28730,374,28730
2017-07-03,28760,29050,28530,28750,186,28750
2017-07-04,28830,28960,28500,28520,346,28520
2017-07-05,28500,28890,28500,28690,190,28690
2017-07-06,28590,28850,28550,28830,193,28830
2017-07-07,28850,28980,28820,28830,308,28830
2017-07-10,29000,29080,29000,29010,410,29010
2017-07-11,29080,29680,28990,29680,837,29680
2017-07-12,29550,29790,29550,29610,448,29610
2017-07-13,29630,29870,29600,29710,433,29710
2017-07-14,29880,30200,29860,30150,861,30150
2017-07-18,30050,30200,30000,30050,614,30050
2017-07-19,30050,30300,30050,30250,334,30250
2017-07-20,30350,30750,30350,30750,689,30750
2017-07-21,30750,30850,30700,30750,457,30750
2017-07-24,30750,30800,30700,30700,685,30700
2017-07-25,30800,30800,30650,30650,271,30650
2017-07-26,30700,30750,30600,30700,467,30700
2017-07-27,30450,30600,30450,30500,231,30500
2017-07-28,30500,30800,30500,30700,257,30700
2017-07-31,30850,31200,30850,31200,835,31200
2017-08-01,31250,31550,31250,31550,332,31550
2017-08-02,31750,32100,31750,32000,1309,32000
2017-08-03,32250,32350,32100,32250,606,32250
2017-08-04,32150,32500,32150,32400,1474,32400
2017-08-07,32500,32700,32400,32600,732,32600
2017-08-08,32650,32650,32400,32500,537,32500
2017-08-09,32500,32600,32000,32000,601,32000
2017-08-10,32250,32250,31400,31500,870,31500
2017-08-14,31600,31700,31300,31500,315,31500
2017-08-15,31950,31950,31500,31700,142,31700
2017-08-16,31950,32100,31800,32100,829,32100
2017-08-17,32150,32250,32100,32150,225,32150
2017-08-18,32050,32150,31750,31800,1325,31800
2017-08-21,31950,32500,31900,32200,771,32200
2017-08-22,32150,32200,32100,32150,468,32150
2017-08-23,32450,32550,32250,32550,1593,32550
2017-08-24,32350,32500,32350,32350,548,32350
2017-08-25,32450,32600,32350,32600,549,32600
2017-08-28,32950,33600,32850,33600,2674,33600
2017-08-29,33650,33750,33500,33650,575,33650
2017-08-30,33800,34350,33800,34350,937,34350
2017-08-31,34400,34600,34000,34350,632,34350
2017-09-01,34600,34750,34400,34500,791,34500
2017-09-04,34500,34500,34300,34500,265,34500
2017-09-05,34500,34500,33950,33950,787,33950
2017-09-06,33600,33800,33300,33700,800,33700
2017-09-07,33500,33850,33500,33650,402,33650
2017-09-08,33650,33800,33650,33750,407,33750
2017-09-11,34000,34000,33800,34000,300,34000
2017-09-12,34100,34100,33850,33900,141,33900
2017-09-13,34000,34200,34000,34200,192,34200
2017-09-14,34300,34300,33900,34150,352,34150
2017-09-15,33700,33850,33350,33450,856,33450
2017-09-19,33800,34050,33750,33950,393,33950
2017-09-20,33900,33900,33600,33900,463,33900
2017-09-21,34200,34450,34050,34400,521,34400
2017-09-22,34250,34450,34100,34100,614,34100
2017-09-25,34250,34450,34200,34350,368,34350
2017-09-26,34200,34300,34150,34200,190,34200
2017-09-27,34200,34300,34100,34300,54,34300
2017-09-28,34200,34250,34150,34250,150,34250
2017-09-29,34200,34400,34150,34300,67,34300
2017-10-02,34300,34350,34200,34350,152,34350
2017-10-03,34400,34500,34000,34300,506,34300
2017-10-04,34550,34800,34550,34650,368,34650
2017-10-05,34550,34850,34550,34700,178,34700
2017-10-06,34900,34950,34700,34950,679,34950
2017-10-10,34500,34750,34050,34400,540,34400
2017-10-11,34400,34600,34400,34550,122,34550
2017-10-12,34600,34600,34400,34550,321,34550
2017-10-13,34650,34650,34400,34650,214,34650
2017-10-16,34400,34650,34350,34650,423,34650
2017-10-17,34700,34750,34550,34550,156,34550
2017-10-18,34400,34700,34400,34500,247,34500
2017-10-19,34750,34800,34500,34500,305,34500
2017-10-20,34450,34450,34200,34200,264,34200
2017-10-23,34300,34400,34000,34100,286,34100
2017-10-24,34000,34150,33750,34050,370,34050
2017-10-25,33900,34100,33750,33950,209,33950
2017-10-26,33900,34200,33900,34200,223,34200
2017-10-27,34050,34200,33950,34200,182,34200
2017-10-30,34300,34300,33800,34200,441,34200
2017-10-31,33850,34100,33850,33950,157,33950
2017-11-01,34050,34150,34050,34050,179,34050
2017-11-02,34200,34200,33750,34050,283,34050
2017-11-06,33850,33950,33700,33750,438,33750
2017-11-07,33750,33900,33600,33750,231,33750
2017-11-08,33500,33900,33450,33650,406,33650
2017-11-09,33550,33800,33500,33650,393,33650
2017-11-10,33650,33650,33400,33600,536,33600
2017-11-13,33600,33700,33400,33600,397,33600
2017-11-15,33900,33900,33450,33550,310,33550
2017-11-16,33150,33500,33150,33500,207,33500
2017-11-17,33800,33800,33400,33550,287,33550
2017-11-20,33700,33700,33450,33450,135,33450
2017-11-21,33600,34350,33550,34350,594,34350
2017-11-22,34350,34750,34350,34750,565,34750
2017-11-24,34250,34350,34150,34300,537,34300
2017-11-27,34450,34450,33900,34050,1007,34050
2017-11-28,34050,34050,33350,33350,256,33350
2017-11-29,33250,33900,33100,33450,444,33450
2017-11-30,33150,33550,33100,33250,137,33250
2017-12-01,33200,33600,33200,33200,172,33200
2017-12-04,33050,33200,33050,33100,364,33100
2017-12-05,33100,33250,33100,33250,210,33250
2017-12-06,33300,33800,33100,33150,485,33150
2017-12-07,33100,33150,32800,33050,728,33050
2017-12-08,32650,33250,32650,32950,246,32950
2017-12-11,32950,33050,32850,32850,435,32850
2017-12-12,33000,33250,32900,32950,389,32950
2017-12-13,33000,33000,32800,33000,169,33000
2017-12-14,32950,33250,32950,33250,466,33250
2017-12-15,33350,33400,33000,33400,223,33400
2017-12-18,33400,33400,32900,32900,398,32900
2017-12-19,32850,32950,32700,32900,190,32900
2017-12-20,32900,33150,32900,32950,452,32950
2017-12-21,33000,33200,32950,33050,406,33050
2017-12-22,33150,33200,32850,32850,404,32850
2017-12-25,32700,33550,32700,33200,981,33200
2017-12-26,32900,33650,32900,33650,581,33650
2017-12-27,33300,33400,32750,33350,432,33350
2017-12-28,34000,34000,33300,33500,653,33500
2017-12-29,33800,33900,33650,33700,407,33700
2018-01-04,34300,34350,34200,34250,294,34250
2018-01-05,34400,36400,34300,35300,1948,35300
2018-01-09,35650,35850,35250,35750,561,35750
2018-01-10,35800,35850,35700,35700,253,35700
2018-01-11,35800,35900,35100,35500,370,35500
2018-01-12,35750,36000,35700,35800,216,35800
2018-01-15,35950,37150,35900,36950,1125,36950
2018-01-16,36800,37000,36800,37000,287,37000
2018-01-17,37250,37250,36900,37200,218,37200
2018-01-18,37400,38000,37300,38000,783,38000
2018-01-19,37950,39100,37950,38700,1226,38700
2018-01-22,38900,39350,38750,39250,791,39250
2018-01-23,39300,39900,39300,39850,753,39850
2018-01-24,39850,40000,39700,39900,1126,39900
2018-01-25,39900,39900,39500,39550,881,39550
2018-01-26,39700,39900,39650,39750,478,39750
2018-01-29,39700,39800,38950,39150,748,39150
2018-01-30,38700,38700,37050,37500,1635,37500
2018-01-31,36800,37150,35650,36500,1317,36500
2018-02-01,36500,37600,36500,36800,276,36800
2018-02-02,36900,37300,36750,37050,312,37050
2018-02-05,36150,36950,35800,36650,764,36650
2018-02-06,35800,36600,35250,35950,1149,35950
2018-02-07,36100,37200,36050,36050,380,36050
2018-02-08,35600,36200,35450,35450,356,35450
2018-02-09,34750,34750,33700,34100,860,34100
2018-02-13,33800,34200,33500,33500,521,33500
2018-02-14,33750,35100,32950,34400,701,34400
2018-02-15,34400,35000,33500,34950,408,34950
2018-02-16,35150,35500,35000,35100,153,35100
2018-02-19,35250,35700,35200,35300,147,35300
2018-02-20,35300,35500,35200,35200,234,35200
2018-02-21,35200,35600,35150,35600,155,35600
2018-02-22,35500,35700,35300,35700,196,35700
2018-02-23,35250,35700,35050,35100,241,35100
2018-02-26,35600,35750,35100,35200,365,35200
2018-02-27,35750,35800,35250,35550,328,35550
2018-02-28,35850,35850,35150,35150,173,35150
2018-03-01,35100,35100,34700,34800,284,34800
2018-03-02,34350,34650,34200,34200,288,34200
2018-03-05,33150,33650,33150,33200,167,33200
2018-03-06,33450,33550,33350,33350,160,33350
2018-03-07,33100,33500,33000,33250,124,33250
2018-03-08,33200,33500,33050,33050,145,33050
2018-03-09,33250,33700,33200,33700,93,33700
2018-03-12,33800,33850,33600,33850,275,33850
2018-03-13,33700,33700,33350,33600,48,33600
2018-03-14,33450,33450,33250,33350,59,33350
2018-03-15,33250,33500,33200,33350,71,33350
2018-03-16,33350,33700,33200,33450,51,33450
2018-03-19,33200,33250,31750,32350,1428,32350
2018-03-20,32350,32500,31500,31850,441,31850
2018-03-22,32100,32400,31850,32100,58,32100
2018-03-23,31000,31050,30800,30950,403,30950
2018-03-26,30950,32150,30450,32000,327,32000
2018-03-27,32250,32550,32250,32500,194,32500
2018-03-28,32300,32300,31800,32100,120,32100
2018-03-29,32150,32500,31850,32000,49,32000
2018-03-30,32600,32600,32100,32150,41,32150
