Date,Open,High,Low,Close,Volume,Close2
2011-01-04,105,106,104,106,267500,106
2011-01-05,105,106,105,105,308700,105
2011-01-06,105,106,105,106,145300,106
2011-01-07,105,106,105,105,262600,105
2011-01-11,103,103,99,100,1438200,100
2011-01-12,101,103,101,101,270000,101
2011-01-13,103,103,102,102,233000,102
2011-01-14,101,101,100,101,514500,101
2011-01-17,100,100,98,100,762000,100
2011-01-18,99,100,99,100,185700,100
2011-01-19,100,101,100,100,254000,100
2011-01-20,99,100,98,98,629000,98
2011-01-21,99,100,99,100,163500,100
2011-01-24,99,100,98,99,165300,99
2011-01-25,100,100,99,99,96100,99
2011-01-26,98,99,98,99,320200,99
2011-01-27,99,100,99,99,271200,99
2011-01-28,99,99,98,98,230900,98
2011-01-31,96,96,94,95,1487700,95
2011-02-01,96,97,95,96,399800,96
2011-02-02,96,97,96,97,374600,97
2011-02-03,98,98,97,98,182000,98
2011-02-04,98,99,98,99,267500,99
2011-02-07,98,98,97,98,195200,98
2011-02-08,99,99,97,97,365000,97
2011-02-09,97,98,96,97,245400,97
2011-02-10,97,97,96,97,215300,97
2011-02-14,97,99,96,99,315600,99
2011-02-15,99,99,98,99,449400,99
2011-02-16,99,100,98,100,222000,100
2011-02-17,100,101,99,100,418800,100
2011-02-18,100,101,99,101,112000,101
2011-02-21,101,101,99,100,352100,100
2011-02-22,100,100,98,98,119200,98
2011-02-23,98,99,98,98,102500,98
2011-02-24,98,99,97,98,146900,98
2011-02-25,96,98,96,98,323200,98
2011-02-28,98,98,97,98,208000,98
2011-03-01,99,99,98,99,144100,99
2011-03-02,99,99,97,98,91800,98
2011-03-03,99,99,98,98,64500,98
2011-03-04,99,100,99,99,166700,99
2011-03-07,99,99,97,97,137700,97
2011-03-08,97,99,97,99,62800,99
2011-03-09,98,100,98,98,114800,98
2011-03-10,97,99,97,98,182400,98
2011-03-11,97,98,97,97,98800,97
2011-03-14,95,97,92,97,1229800,97
2011-03-15,95,96,91,95,1490700,95
2011-03-16,93,94,92,94,754200,94
2011-03-17,91,93,90,93,472400,93
2011-03-18,93,95,93,93,294400,93
2011-03-22,94,95,93,95,258700,95
2011-03-23,95,95,94,95,178300,95
2011-03-24,95,96,94,96,169100,96
2011-03-25,96,97,94,96,324800,96
2011-03-28,98,99,97,98,201100,98
2011-03-29,98,99,98,99,336100,99
2011-03-30,100,101,99,101,707600,101
2011-03-31,101,103,101,102,480400,102
2011-04-01,102,103,101,102,600200,102
2011-04-04,103,103,102,103,529900,103
2011-04-05,103,104,102,104,553700,104
2011-04-06,104,105,103,105,603500,105
2011-04-07,105,105,104,104,316800,104
2011-04-08,104,105,103,104,248400,104
2011-04-11,103,104,102,103,191500,103
2011-04-12,102,103,101,101,308300,101
2011-04-13,100,102,100,102,227800,102
2011-04-14,103,104,102,103,159700,103
2011-04-15,103,105,103,104,1235100,104
2011-04-18,103,105,102,104,115900,104
2011-04-19,102,103,101,102,138500,102
2011-04-20,103,103,102,102,46300,102
2011-04-21,103,104,102,103,111700,103
2011-04-22,102,103,102,103,21700,103
2011-04-25,102,104,102,102,127500,102
2011-04-26,102,102,100,101,442000,101
2011-04-27,102,103,101,103,108100,103
2011-04-28,102,103,101,102,106200,102
2011-05-02,101,102,100,100,173400,100
2011-05-06,97,97,94,96,1374300,96
2011-05-09,97,97,95,95,532300,95
2011-05-10,95,97,95,97,432400,97
2011-05-11,97,97,96,96,167200,96
2011-05-12,96,97,95,96,227700,96
2011-05-13,96,96,95,95,304900,95
2011-05-16,95,96,95,96,104300,96
2011-05-17,96,96,94,96,149300,96
2011-05-18,95,96,94,95,107700,95
2011-05-19,96,96,95,96,133100,96
2011-05-20,95,96,95,96,23600,96
2011-05-23,96,96,94,95,160100,95
2011-05-24,94,95,94,95,336000,95
2011-05-25,94,95,93,94,262100,94
2011-05-26,94,94,93,94,160900,94
2011-05-27,94,95,93,95,136500,95
2011-05-30,95,95,94,95,83800,95
2011-05-31,95,96,94,96,427500,96
2011-06-01,96,97,95,97,158000,97
2011-06-02,96,96,95,95,125800,95
2011-06-03,95,97,95,96,182200,96
2011-06-06,94,95,94,94,80900,94
2011-06-07,95,95,94,95,197400,95
2011-06-08,95,96,95,95,51300,95
2011-06-09,95,95,94,95,57900,95
2011-06-10,96,96,94,95,82000,95
2011-06-13,94,95,94,94,138500,94
2011-06-14,95,96,94,95,106100,95
2011-06-15,94,96,94,95,99900,95
2011-06-16,95,95,94,94,96300,94
2011-06-17,94,95,93,94,108300,94
2011-06-20,93,94,92,93,609400,93
2011-06-21,93,94,92,93,82400,93
2011-06-22,94,94,93,94,210400,94
2011-06-23,94,94,93,93,51300,93
2011-06-24,93,95,93,95,181500,95
2011-06-27,95,96,94,95,166400,95
2011-06-28,95,97,95,96,290300,96
2011-06-29,97,98,96,97,252000,97
2011-06-30,97,98,97,97,99800,97
2011-07-01,98,99,98,98,204100,98
2011-07-04,98,99,98,98,109800,98
2011-07-05,99,99,98,99,293900,99
2011-07-06,98,99,98,98,23700,98
2011-07-07,98,99,98,99,258100,99
2011-07-08,100,101,99,100,425100,100
2011-07-11,98,99,97,98,79500,98
2011-07-12,97,97,95,95,246100,95
2011-07-13,95,96,94,95,203100,95
2011-07-14,95,96,94,94,101000,94
2011-07-15,94,96,94,95,124200,95
2011-07-19,95,95,94,95,68600,95
2011-07-20,96,97,96,96,57700,96
2011-07-21,96,96,94,95,114800,95
2011-07-22,96,96,95,95,22500,95
2011-07-25,96,96,95,95,45800,95
2011-07-26,95,96,95,95,58700,95
2011-07-27,95,95,94,95,53400,95
2011-07-28,94,94,93,94,457700,94
2011-07-29,94,94,92,93,432600,93
2011-08-01,93,94,93,93,59800,93
2011-08-02,94,94,92,92,238400,92
2011-08-03,92,93,91,91,394700,91
2011-08-04,92,94,92,93,111000,93
2011-08-05,91,91,89,90,948000,90
2011-08-08,89,90,88,88,551800,88
2011-08-09,85,87,83,87,793700,87
2011-08-10,90,90,88,89,196500,89
2011-08-11,87,88,87,88,185800,88
2011-08-12,89,90,88,88,81300,88
2011-08-15,89,90,88,90,94200,90
2011-08-16,90,91,89,90,115100,90
2011-08-17,89,89,87,87,314300,87
2011-08-18,88,88,85,86,280200,86
2011-08-19,84,85,83,83,306900,83
2011-08-22,83,84,82,82,201100,82
2011-08-23,83,84,82,83,161500,83
2011-08-24,84,85,83,83,273000,83
2011-08-25,83,84,83,83,112800,83
2011-08-26,83,84,83,83,94300,83
2011-08-29,84,85,83,83,152200,83
2011-08-30,85,87,84,84,194800,84
2011-08-31,85,86,84,84,122800,84
2011-09-01,86,88,85,85,245100,85
2011-09-02,86,87,85,86,82800,86
2011-09-05,85,85,84,84,98800,84
2011-09-06,84,85,84,84,70900,84
2011-09-07,86,86,85,86,98100,86
2011-09-08,86,87,86,86,39600,86
2011-09-09,86,87,85,87,50800,87
2011-09-12,85,86,83,83,201400,83
2011-09-13,83,85,83,83,84300,83
2011-09-14,84,84,82,82,135500,82
2011-09-15,83,84,82,83,89200,83
2011-09-16,84,85,84,85,122700,85
2011-09-20,84,85,83,83,164600,83
2011-09-21,83,84,83,83,34900,83
2011-09-22,83,83,82,83,172900,83
2011-09-26,80,81,79,79,341900,79
2011-09-27,79,80,74,77,519800,77
2011-09-28,79,79,75,77,251600,77
2011-09-29,76,77,76,76,158600,76
2011-09-30,76,77,75,76,92800,76
2011-10-03,75,76,73,74,252100,74
2011-10-04,72,73,71,72,470800,72
2011-10-05,71,72,70,70,181400,70
2011-10-06,70,73,70,71,227600,71
2011-10-07,73,74,72,74,195500,74
2011-10-11,76,76,75,75,334200,75
2011-10-12,75,76,74,74,73800,74
2011-10-13,76,77,76,76,66400,76
2011-10-14,77,77,76,77,111700,77
2011-10-17,78,78,77,77,92400,77
2011-10-18,77,77,76,77,102400,77
2011-10-19,77,77,76,77,33900,77
2011-10-20,77,77,75,75,120600,75
2011-10-21,75,75,74,74,34900,74
2011-10-24,75,75,74,75,58900,75
2011-10-25,76,76,74,74,104300,74
2011-10-26,74,76,74,76,158900,76
2011-10-27,76,77,76,77,47400,77
2011-10-28,79,80,78,79,200400,79
2011-10-31,80,82,80,82,137700,82
2011-11-01,80,81,80,80,85900,80
2011-11-02,78,79,78,79,89600,79
2011-11-04,80,81,80,80,80000,80
2011-11-07,81,81,80,81,22800,81
2011-11-08,81,82,80,80,48500,80
2011-11-09,79,80,79,79,73500,79
2011-11-10,77,77,75,76,167200,76
2011-11-11,76,77,76,77,24600,77
2011-11-14,76,79,76,77,71300,77
2011-11-15,78,78,76,76,28600,76
2011-11-16,77,77,74,74,87900,74
2011-11-17,74,75,73,75,132300,75
2011-11-18,73,74,72,73,171500,73
2011-11-21,74,75,73,73,117500,73
2011-11-22,71,71,70,71,582200,71
2011-11-24,70,70,68,69,390300,69
2011-11-25,69,69,67,69,228000,69
2011-11-28,69,71,69,70,111400,70
2011-11-29,71,72,71,71,78600,71
2011-11-30,72,72,69,70,200000,70
2011-12-01,72,74,71,73,331700,73
2011-12-02,73,73,72,73,24800,73
2011-12-05,73,74,73,73,51100,73
2011-12-06,74,74,71,71,114100,71
2011-12-07,71,73,71,72,83200,72
2011-12-08,73,73,71,72,31700,72
2011-12-09,71,72,70,70,157800,70
2011-12-12,71,72,71,71,123400,71
2011-12-13,70,70,68,69,654300,69
2011-12-14,70,70,68,68,397700,68
2011-12-15,67,69,66,67,964500,67
2011-12-16,67,68,66,68,309700,68
2011-12-19,68,68,66,66,199400,66
2011-12-20,66,68,66,67,121500,67
2011-12-21,68,68,67,67,93400,67
2011-12-22,68,68,67,67,123000,67
2011-12-26,68,68,67,67,96300,67
2011-12-27,67,68,67,68,147100,68
2011-12-28,68,68,66,66,161400,66
2011-12-29,66,67,65,65,244300,65
2011-12-30,65,66,65,66,176200,66
2012-01-04,68,68,67,68,202100,68
2012-01-05,67,68,67,68,86300,68
2012-01-06,68,68,67,68,86000,68
2012-01-10,67,68,67,68,108500,68
2012-01-11,69,69,68,69,117700,69
2012-01-12,69,69,68,69,211300,69
2012-01-13,68,70,68,69,206800,69
2012-01-16,69,69,68,68,66800,68
2012-01-17,69,71,69,71,380500,71
2012-01-18,70,72,70,71,343600,71
2012-01-19,71,73,70,72,479800,72
2012-01-20,73,74,72,73,330800,73
2012-01-23,74,74,73,74,101400,74
2012-01-24,75,75,74,75,138700,75
2012-01-25,75,77,75,77,266400,77
2012-01-26,77,78,77,78,238400,78
2012-01-27,79,79,76,76,622100,76
2012-01-30,79,79,77,78,404700,78
2012-01-31,76,77,76,76,182900,76
2012-02-01,77,78,76,77,74500,77
2012-02-02,77,78,77,78,164200,78
2012-02-03,78,79,77,79,153000,79
2012-02-06,80,82,80,81,289400,81
2012-02-07,80,81,80,80,67500,80
2012-02-08,81,81,80,81,114500,81
2012-02-09,81,81,80,81,250700,81
2012-02-10,81,82,80,81,181300,81
2012-02-13,80,81,80,81,110500,81
2012-02-14,81,82,80,81,113500,81
2012-02-15,80,84,80,84,1135700,84
2012-02-16,83,84,83,83,95000,83
2012-02-17,85,86,84,85,383600,85
2012-02-20,86,88,86,88,383300,88
2012-02-21,88,89,87,88,355700,88
2012-02-22,88,89,87,88,306900,88
2012-02-23,88,88,86,87,288700,87
2012-02-24,87,87,85,86,284100,86
2012-02-27,88,88,86,87,273000,87
2012-02-28,85,85,83,85,523800,85
2012-02-29,85,86,85,85,413900,85
2012-03-01,85,86,84,84,151000,84
2012-03-02,84,85,84,85,152900,85
2012-03-05,85,85,82,82,452500,82
2012-03-06,82,84,81,84,320800,84
2012-03-07,80,81,79,81,586400,81
2012-03-08,81,82,81,82,149000,82
2012-03-09,83,84,82,83,190800,83
2012-03-12,85,85,84,84,266700,84
2012-03-13,85,86,84,85,279600,85
2012-03-14,87,88,87,87,287300,87
2012-03-15,87,88,86,86,254600,86
2012-03-16,86,87,85,86,104900,86
2012-03-19,86,86,84,85,237800,85
2012-03-21,84,84,83,84,196100,84
2012-03-22,85,85,84,84,92500,84
2012-03-23,82,82,81,81,218000,81
2012-03-26,81,82,79,80,438800,80
2012-03-27,82,82,81,82,146500,82
2012-03-28,81,82,81,82,44200,82
2012-03-29,81,82,80,81,105100,81
2012-03-30,80,81,79,81,240000,81
2012-04-02,82,83,82,82,194000,82
2012-04-03,83,83,82,82,144500,82
2012-04-04,82,83,82,82,58300,82
2012-04-05,81,82,80,81,129000,81
2012-04-06,81,82,81,81,29000,81
2012-04-09,81,81,79,79,176400,79
2012-04-10,79,80,79,79,100600,79
2012-04-11,78,79,77,78,172400,78
2012-04-12,79,80,78,80,73400,80
2012-04-13,80,81,79,80,140100,80
2012-04-16,78,79,77,78,98800,78
2012-04-17,78,79,77,79,153800,79
2012-04-18,81,81,80,80,126700,80
2012-04-19,80,81,79,79,147200,79
2012-04-20,80,80,79,80,35300,80
2012-04-23,80,80,80,80,24300,80
2012-04-24,78,78,76,77,329500,77
2012-04-25,78,78,77,78,53300,78
2012-04-26,78,78,77,78,109500,78
2012-04-27,77,78,76,77,129300,77
2012-05-01,77,77,76,77,113600,77
2012-05-02,77,78,77,78,179900,78
2012-05-07,74,74,72,72,638300,72
2012-05-08,73,75,73,74,206300,74
2012-05-09,72,73,71,73,134100,73
2012-05-10,72,73,71,73,95000,73
2012-05-11,72,73,71,72,89900,72
2012-05-14,71,72,71,71,89100,71
2012-05-15,70,71,69,70,200600,70
2012-05-16,70,71,69,70,71900,70
2012-05-17,70,71,69,71,76800,71
2012-05-18,69,70,68,68,279100,68
2012-05-21,70,70,69,69,81600,69
2012-05-22,71,72,70,71,49100,71
2012-05-23,70,71,69,69,127900,69
2012-05-24,70,71,70,70,75200,70
2012-05-25,70,71,70,71,44500,71
2012-05-28,70,71,69,70,93200,70
2012-05-29,70,71,70,71,35200,71
2012-05-30,70,71,69,70,84700,70
2012-05-31,69,70,69,70,59800,70
2012-06-01,69,69,68,68,183900,68
2012-06-04,68,68,67,67,221300,67
2012-06-05,67,69,67,69,120800,69
2012-06-06,69,70,68,70,78200,70
2012-06-07,71,72,71,71,112700,71
2012-06-08,72,73,70,70,167200,70
2012-06-11,72,72,71,71,57700,71
2012-06-12,71,72,70,70,75000,70
2012-06-13,72,72,71,72,33900,72
2012-06-14,72,72,71,72,21600,72
2012-06-15,72,72,70,70,62400,70
2012-06-18,73,74,73,73,225600,73
2012-06-19,72,73,71,72,47100,72
2012-06-20,72,73,72,72,26100,72
2012-06-21,72,74,72,73,16100,73
2012-06-22,72,73,72,73,36000,73
2012-06-25,73,73,72,73,85400,73
2012-06-26,72,73,71,72,50700,72
2012-06-27,72,73,71,72,67500,72
2012-06-28,73,73,72,73,109300,73
2012-06-29,72,73,72,73,69600,73
2012-07-02,75,75,74,74,158500,74
2012-07-03,75,75,74,75,52300,75
2012-07-04,75,76,75,76,98100,76
2012-07-05,76,76,74,75,203600,75
2012-07-06,75,75,74,74,32700,74
2012-07-09,74,74,74,74,38200,74
2012-07-10,74,74,73,74,7400,74
2012-07-11,73,74,73,74,44100,74
2012-07-12,73,74,72,72,25300,72
2012-07-13,72,73,72,72,14200,72
2012-07-17,73,73,72,73,11500,73
2012-07-18,72,73,72,72,55700,72
2012-07-19,72,72,72,72,87500,72
2012-07-20,71,72,71,72,30000,72
2012-07-23,72,72,70,70,55900,70
2012-07-24,70,70,69,69,97400,69
2012-07-25,68,69,68,68,132600,68
2012-07-26,69,70,68,69,114600,69
2012-07-27,69,70,69,70,38200,70
2012-07-30,70,71,70,71,62400,71
2012-07-31,70,71,70,71,16100,71
2012-08-01,71,71,70,70,19000,70
2012-08-02,71,71,70,70,9800,70
2012-08-03,70,70,69,69,34500,69
2012-08-06,70,72,70,72,148900,72
2012-08-07,72,72,70,72,194700,72
2012-08-08,72,73,72,72,60400,72
2012-08-09,72,73,72,72,57400,72
2012-08-10,72,73,71,71,30700,71
2012-08-13,72,72,71,72,20600,72
2012-08-14,71,73,71,71,24600,71
2012-08-15,72,73,72,73,15700,73
2012-08-16,72,73,72,72,18700,72
2012-08-17,73,73,72,73,124300,73
2012-08-20,74,74,73,73,28800,73
2012-08-21,73,74,72,73,35700,73
2012-08-22,74,74,73,73,24200,73
2012-08-23,73,74,73,73,26300,73
2012-08-24,73,73,73,73,26200,73
2012-08-27,72,74,72,73,92700,73
2012-08-28,73,73,71,71,40100,71
2012-08-29,71,72,71,71,17700,71
2012-08-30,71,71,70,70,42400,70
2012-08-31,70,71,70,70,8500,70
2012-09-03,70,71,70,70,38700,70
2012-09-04,70,71,69,70,34900,70
2012-09-05,69,71,69,70,30300,70
2012-09-06,71,71,69,69,22700,69
2012-09-07,70,72,70,71,74800,71
2012-09-10,71,72,71,72,8500,72
2012-09-11,72,72,71,72,8200,72
2012-09-12,71,73,71,72,79100,72
2012-09-13,72,73,72,72,17200,72
2012-09-14,73,76,73,75,410400,75
2012-09-18,76,78,76,76,360700,76
2012-09-19,77,78,76,77,62000,77
2012-09-20,78,78,76,76,67900,76
2012-09-21,75,78,75,78,230500,78
2012-09-24,78,79,77,79,532300,79
2012-09-25,78,79,78,78,39700,78
2012-09-26,78,78,77,77,52700,77
2012-09-27,76,78,76,78,81600,78
2012-09-28,79,79,78,78,203100,78
2012-10-01,78,79,77,79,267700,79
2012-10-02,79,80,79,79,404900,79
2012-10-03,80,81,80,81,259000,81
2012-10-04,81,82,80,82,404700,82
2012-10-05,82,83,82,82,189900,82
2012-10-09,81,81,80,80,107000,80
2012-10-10,79,80,79,79,27300,79
2012-10-11,79,79,77,78,74200,78
2012-10-12,78,80,78,79,149500,79
2012-10-15,79,79,78,78,23600,78
2012-10-16,79,80,78,80,34600,80
2012-10-17,79,79,79,79,72000,79
2012-10-18,79,80,79,79,78800,79
2012-10-19,79,80,79,79,17300,79
2012-10-22,79,79,78,79,39800,79
2012-10-23,80,80,79,79,19600,79
2012-10-24,79,79,78,79,22200,79
2012-10-25,79,79,78,79,35600,79
2012-10-26,79,80,79,79,46500,79
2012-10-29,78,79,78,78,29900,78
2012-10-30,78,79,78,78,28400,78
2012-10-31,78,78,77,77,60300,77
2012-11-01,77,78,77,78,51800,78
2012-11-02,79,80,79,79,153300,79
2012-11-05,79,81,79,81,76400,81
2012-11-06,80,81,79,79,36000,79
2012-11-07,80,81,79,80,43800,80
2012-11-08,80,80,79,79,19300,79
2012-11-09,80,80,79,79,11600,79
2012-11-12,78,79,78,78,7800,78
2012-11-13,79,79,78,78,14900,78
2012-11-14,78,79,78,79,22400,79
2012-11-15,78,79,78,79,4200,79
2012-11-16,79,79,78,79,12700,79
2012-11-19,78,79,78,78,28100,78
2012-11-20,79,79,78,79,28100,79
2012-11-21,79,79,78,78,16800,78
2012-11-22,79,80,79,80,102800,80
2012-11-26,80,81,79,80,63500,80
2012-11-27,80,81,79,80,29600,80
2012-11-28,80,81,79,79,23200,79
2012-11-29,80,81,79,81,133400,81
2012-11-30,82,84,81,83,587600,83
2012-12-03,83,84,83,84,283400,84
2012-12-04,84,84,82,83,67300,83
2012-12-05,83,84,83,84,88200,84
2012-12-06,85,85,84,84,243400,84
2012-12-07,85,86,85,86,286800,86
2012-12-10,85,86,85,85,104600,85
2012-12-11,86,86,85,85,179200,85
2012-12-12,85,86,85,85,101200,85
2012-12-13,86,87,85,86,78400,86
2012-12-14,86,87,85,86,71900,86
2012-12-17,86,87,85,87,74800,87
2012-12-18,87,87,85,86,90600,86
2012-12-19,87,87,86,86,42400,86
2012-12-20,86,87,86,86,97500,86
2012-12-21,87,87,85,85,168700,85
2012-12-25,87,87,85,85,116600,85
2012-12-26,85,87,85,87,55300,87
2012-12-27,87,88,86,87,184000,87
2012-12-28,87,88,87,88,135300,88
2013-01-04,90,92,90,91,382100,91
2013-01-07,91,92,91,91,127900,91
2013-01-08,91,91,90,90,58400,90
2013-01-09,89,91,89,91,155400,91
2013-01-10,91,92,91,91,49500,91
2013-01-11,92,93,91,93,234000,93
2013-01-15,93,94,93,94,196400,94
2013-01-16,94,94,92,92,61500,92
2013-01-17,92,93,91,92,258500,92
2013-01-18,94,96,94,95,570900,95
2013-01-21,96,96,95,95,95100,95
2013-01-22,95,96,95,95,180000,95
2013-01-23,95,95,94,94,98300,94
2013-01-24,94,95,94,95,57200,95
2013-01-25,95,96,95,95,107700,95
2013-01-28,97,97,96,97,210100,97
2013-01-29,97,98,96,98,98300,98
2013-01-30,97,98,96,98,96800,98
2013-01-31,97,98,97,97,59000,97
2013-02-01,97,99,97,98,178900,98
2013-02-04,98,100,98,99,263800,99
2013-02-05,97,98,97,98,120900,98
2013-02-06,99,100,98,99,180800,99
2013-02-07,98,99,98,98,61400,98
2013-02-08,98,99,98,99,85300,99
2013-02-12,98,99,98,98,68600,98
2013-02-13,99,99,97,97,58500,97
2013-02-14,97,98,97,97,40500,97
2013-02-15,96,98,96,96,209500,96
2013-02-18,95,97,95,96,106400,96
2013-02-19,96,97,95,96,52800,96
2013-02-20,96,98,96,97,94000,97
2013-02-21,97,98,96,96,65200,96
2013-02-22,96,96,94,94,100800,94
2013-02-25,95,96,95,96,135000,96
2013-02-26,95,96,94,94,92300,94
2013-02-27,94,94,93,94,40400,94
2013-02-28,95,96,93,95,101700,95
2013-03-01,93,93,91,92,142700,92
2013-03-04,91,92,91,92,121000,92
2013-03-05,92,92,91,91,52100,91
2013-03-06,92,93,92,93,113100,93
2013-03-07,94,94,93,94,28400,94
2013-03-08,95,97,95,97,490400,97
2013-03-11,99,99,98,98,183700,98
2013-03-12,98,99,98,99,438300,99
2013-03-13,98,98,97,97,24900,97
2013-03-14,97,97,95,97,76700,97
2013-03-15,97,99,96,98,323100,98
2013-03-18,97,98,95,97,128900,97
2013-03-19,95,97,95,95,117200,95
2013-03-21,95,96,94,95,104300,95
2013-03-22,94,94,93,93,49000,93
2013-03-25,93,95,93,93,46100,93
2013-03-26,94,94,92,93,176000,93
2013-03-27,93,93,92,93,53400,93
2013-03-28,92,93,91,92,110700,92
2013-03-29,93,93,91,92,43400,92
2013-04-01,92,93,91,91,24200,91
2013-04-02,91,92,90,91,45900,91
2013-04-03,91,93,91,92,72000,92
2013-04-04,90,91,90,90,48400,90
2013-04-05,91,92,91,92,71600,92
2013-04-08,91,93,91,93,166600,93
2013-04-09,92,94,92,92,188800,92
2013-04-10,93,94,93,93,44900,93
2013-04-11,93,95,93,94,101300,94
2013-04-12,94,95,93,94,177600,94
2013-04-15,93,93,91,92,140700,92
2013-04-16,90,93,90,93,77600,93
2013-04-17,94,96,94,95,269000,95
2013-04-18,95,95,94,94,96800,94
2013-04-19,96,96,95,96,148400,96
2013-04-22,97,99,97,97,414700,97
2013-04-23,97,99,97,99,321100,99
2013-04-24,99,100,98,100,607400,100
2013-04-25,99,101,99,100,144100,100
2013-04-26,100,101,99,100,183500,100
2013-04-30,100,100,99,99,45200,99
2013-05-01,99,100,99,99,76900,99
2013-05-02,100,100,99,100,102300,100
2013-05-07,101,101,99,101,189300,101
2013-05-08,102,103,101,102,311200,102
2013-05-09,102,104,102,104,422700,104
2013-05-10,104,105,103,105,147500,105
2013-05-13,105,106,104,104,154900,104
2013-05-14,104,104,102,104,124800,104
2013-05-15,104,106,103,106,188700,106
2013-05-16,105,107,105,106,283200,106
2013-05-17,106,107,106,106,336300,106
2013-05-20,107,108,106,107,109900,107
2013-05-21,107,107,106,106,48200,106
2013-05-22,107,107,106,107,37900,107
2013-05-23,106,107,103,103,145900,103
2013-05-24,103,104,101,103,179900,103
2013-05-27,102,103,90,103,182500,103
2013-05-28,103,103,102,103,48600,103
2013-05-29,104,105,104,105,84200,105
2013-05-30,103,103,102,102,46400,102
2013-05-31,103,103,101,101,56800,101
2013-06-03,98,99,98,98,93300,98
2013-06-04,98,99,98,99,32900,99
2013-06-05,99,100,98,98,16600,98
2013-06-06,97,98,96,96,122000,96
2013-06-07,93,95,92,94,223300,94
2013-06-10,95,97,94,97,30700,97
2013-06-11,97,97,95,95,86300,95
2013-06-12,92,92,91,92,192900,92
2013-06-13,90,91,88,89,111200,89
2013-06-14,89,91,89,90,63200,90
2013-06-17,88,90,88,90,29700,90
2013-06-18,91,91,89,90,33100,90
2013-06-19,92,92,91,91,13600,91
2013-06-20,89,91,89,90,54800,90
2013-06-21,88,90,87,89,141200,89
2013-06-24,88,89,86,86,89000,86
2013-06-25,86,87,85,87,132900,87
2013-06-26,88,88,86,86,56400,86
2013-06-27,88,88,87,87,62800,87
2013-06-28,87,89,85,89,398300,89
2013-07-01,89,92,89,92,132700,92
2013-07-02,92,93,91,92,24700,92
2013-07-03,92,92,91,91,22500,91
2013-07-04,90,91,90,90,45600,90
2013-07-05,91,92,90,91,40900,91
2013-07-08,91,92,90,90,94200,90
2013-07-09,90,92,90,91,62600,91
2013-07-10,91,92,91,91,21700,91
2013-07-11,91,92,91,92,16200,92
2013-07-12,93,93,92,93,31900,93
2013-07-16,93,94,92,92,317800,92
2013-07-17,91,94,91,94,56100,94
2013-07-18,93,94,93,93,29800,93
2013-07-19,93,95,93,94,90400,94
2013-07-22,94,95,94,95,34500,95
2013-07-23,95,95,94,94,32500,94
2013-07-24,95,95,94,94,36400,94
2013-07-25,94,94,93,93,29000,93
2013-07-26,92,93,91,92,43200,92
2013-07-29,91,91,90,90,40300,90
2013-07-30,90,91,90,91,12700,91
2013-07-31,89,89,87,87,208400,87
2013-08-01,88,89,88,88,32400,88
2013-08-02,89,90,88,89,30100,89
2013-08-05,88,89,87,88,70000,88
2013-08-06,88,88,85,86,159200,86
2013-08-07,85,86,84,86,187300,86
2013-08-08,85,85,84,84,360900,84
2013-08-09,84,86,84,86,22900,86
2013-08-12,86,86,85,85,21100,85
2013-08-13,86,87,85,87,10000,87
2013-08-14,87,87,85,87,40200,87
2013-08-15,87,87,86,86,5000,86
2013-08-16,86,86,85,85,115600,85
2013-08-19,84,84,82,82,159800,82
2013-08-20,82,82,79,80,288200,80
2013-08-21,82,83,80,82,143300,82
2013-08-22,81,81,80,81,77000,81
2013-08-23,81,83,80,81,92800,81
2013-08-26,82,82,80,81,29600,81
2013-08-27,81,81,80,80,77300,80
2013-08-28,79,80,78,78,143400,78
2013-08-29,79,80,77,78,78900,78
2013-08-30,79,80,78,79,58800,79
2013-09-02,78,80,78,80,21600,80
2013-09-03,81,82,80,81,38800,81
2013-09-04,79,81,79,81,36400,81
2013-09-05,81,82,81,82,77900,82
2013-09-06,82,82,81,81,15900,81
2013-09-09,81,84,81,83,529300,83
2013-09-10,85,86,84,85,90600,85
2013-09-11,86,88,86,87,115700,87
2013-09-12,88,88,86,86,90900,86
2013-09-13,87,87,86,87,29000,87
2013-09-17,87,87,86,86,38300,86
2013-09-18,87,88,86,87,43700,87
2013-09-19,87,91,87,90,397600,90
2013-09-20,92,93,90,90,308000,90
2013-09-24,89,89,88,89,92000,89
2013-09-25,88,88,87,87,63600,87
2013-09-26,86,88,86,87,28600,87
2013-09-27,87,88,87,88,45800,88
2013-09-30,87,87,85,86,74000,86
2013-10-01,87,87,85,85,66500,85
2013-10-02,85,89,85,86,113500,86
2013-10-03,86,87,85,87,54500,87
2013-10-04,87,89,87,87,63100,87
2013-10-07,87,87,86,87,32000,87
2013-10-08,87,88,86,88,33800,88
2013-10-09,88,88,87,87,9300,87
2013-10-10,87,89,87,89,69700,89
2013-10-11,90,92,90,91,187200,91
2013-10-15,91,92,91,92,100200,92
2013-10-16,91,92,91,91,16200,91
2013-10-17,91,92,90,91,25300,91
2013-10-18,91,92,90,92,46400,92
2013-10-21,92,93,92,93,25300,93
2013-10-22,92,93,92,92,74900,92
2013-10-23,92,93,91,91,280400,91
2013-10-24,92,92,91,92,83200,92
2013-10-25,92,92,90,90,194500,90
2013-10-28,91,92,90,92,49000,92
2013-10-29,91,91,90,91,21300,91
2013-10-30,92,94,92,93,140900,93
2013-10-31,93,94,92,94,108900,94
2013-11-01,94,94,92,93,59100,93
2013-11-05,93,95,93,93,71400,93
2013-11-06,94,94,93,93,41400,93
2013-11-07,93,93,91,92,196200,92
2013-11-08,90,92,90,92,158600,92
2013-11-11,93,93,90,90,118800,90
2013-11-12,90,91,89,90,16000,90
2013-11-13,89,90,88,89,49300,89
2013-11-14,89,91,88,91,42800,91
2013-11-15,91,92,90,92,69600,92
2013-11-18,91,92,91,92,133000,92
2013-11-19,93,94,92,94,71200,94
2013-11-20,93,94,93,93,30100,93
2013-11-21,92,93,91,92,177300,92
2013-11-22,91,92,91,91,40900,91
2013-11-25,91,93,91,92,67900,92
2013-11-26,92,93,92,93,181500,93
2013-11-27,92,93,92,92,7100,92
2013-11-28,93,94,92,94,149000,94
2013-11-29,93,96,93,94,475900,94
2013-12-02,95,96,94,96,76200,96
2013-12-03,95,96,95,96,268600,96
2013-12-04,94,96,94,95,303300,95
2013-12-05,95,97,95,96,512700,96
2013-12-06,97,97,96,96,105900,96
2013-12-09,98,100,97,99,667600,99
2013-12-10,100,101,99,100,191300,100
2013-12-11,99,100,98,98,98500,98
2013-12-12,98,99,96,97,551100,97
2013-12-13,96,97,96,96,550800,96
2013-12-16,96,96,95,95,99200,95
2013-12-17,96,96,95,95,25500,95
2013-12-18,95,96,94,96,107500,96
2013-12-19,98,98,95,95,187700,95
2013-12-20,95,97,95,96,119900,96
2013-12-24,98,99,98,98,515800,98
2013-12-25,96,99,96,98,252100,98
2013-12-26,99,99,98,98,100000,98
2013-12-27,98,99,98,99,16400,99
2013-12-30,99,100,98,99,177800,99
2014-01-06,98,98,97,97,134400,97
2014-01-07,98,98,96,96,26000,96
2014-01-08,98,98,96,98,11700,98
2014-01-09,97,97,96,96,7300,96
2014-01-10,96,97,96,97,108200,97
2014-01-14,97,98,97,97,18900,97
2014-01-15,98,100,97,99,49100,99
2014-01-16,100,100,99,99,15000,99
2014-01-17,99,100,98,100,49100,100
2014-01-20,99,99,98,98,7500,98
2014-01-21,98,99,97,98,17600,98
2014-01-22,98,99,98,99,34900,99
2014-01-23,99,99,98,98,6700,98
2014-01-24,97,98,96,97,63100,97
2014-01-27,95,95,93,95,129500,95
2014-01-28,93,93,92,93,100900,93
2014-01-29,93,95,93,95,21600,95
2014-01-30,92,93,91,92,98900,92
2014-01-31,93,93,92,93,8600,93
2014-02-03,91,92,91,92,43600,92
2014-02-04,91,91,87,87,188300,87
2014-02-05,89,90,89,90,109800,90
2014-02-06,90,90,89,90,13200,90
2014-02-07,92,92,91,92,22200,92
2014-02-10,92,93,91,93,41400,93
2014-02-12,93,94,92,93,37600,93
2014-02-13,92,93,92,92,32400,92
2014-02-14,92,92,91,91,30100,91
2014-02-17,92,92,91,91,27700,91
2014-02-18,93,93,93,93,7900,93
2014-02-19,92,93,92,93,7700,93
2014-02-20,93,94,91,93,56500,93
2014-02-21,92,94,92,92,88500,92
2014-02-24,93,93,93,93,5300,93
2014-02-25,93,94,92,94,19400,94
2014-02-26,93,94,93,93,26400,93
2014-02-27,94,95,93,94,76500,94
2014-02-28,95,95,94,94,33900,94
2014-03-03,93,94,93,94,39700,94
2014-03-04,92,95,92,95,41000,95
2014-03-05,95,95,94,95,54500,95
2014-03-06,95,97,95,97,103600,97
2014-03-07,97,100,97,100,238300,100
2014-03-10,99,101,98,101,225000,101
2014-03-11,100,102,99,100,318300,100
2014-03-12,101,101,99,99,94400,99
2014-03-13,99,100,99,99,44600,99
2014-03-14,98,99,97,97,43500,97
2014-03-17,98,99,98,99,42500,99
2014-03-18,98,100,98,100,76000,100
2014-03-19,100,100,99,99,11400,99
2014-03-20,99,100,99,99,57200,99
2014-03-24,100,101,99,101,143500,101
2014-03-25,100,102,100,102,142900,102
2014-03-26,102,103,102,103,266300,103
2014-03-27,103,103,101,103,78200,103
2014-03-28,103,104,103,104,38100,104
2014-03-31,104,106,103,105,560900,105
2014-04-01,105,106,103,105,81900,105
2014-04-02,106,108,105,107,341700,107
2014-04-03,107,108,107,107,90400,107
2014-04-04,105,106,105,105,65900,105
2014-04-07,104,106,104,104,226300,104
2014-04-08,104,106,104,105,55900,105
2014-04-09,105,106,105,105,19900,105
2014-04-10,106,106,104,105,29300,105
2014-04-11,104,104,103,104,67000,104
2014-04-14,104,105,104,104,28500,104
2014-04-15,105,106,104,105,40500,105
2014-04-16,104,105,103,105,51300,105
2014-04-17,104,104,103,103,33300,103
2014-04-18,104,105,104,105,44800,105
2014-04-21,105,106,105,106,37400,106
2014-04-22,106,106,105,105,46600,105
2014-04-23,105,106,105,106,34700,106
2014-04-24,104,105,104,105,51300,105
2014-04-25,104,105,104,104,52300,104
2014-04-28,105,105,104,104,32500,104
2014-04-30,105,106,104,104,52600,104
2014-05-01,104,104,104,104,56700,104
2014-05-02,105,105,104,105,75700,105
2014-05-07,104,104,103,104,77400,104
2014-05-08,104,104,103,103,42900,103
2014-05-09,103,104,103,103,31400,103
2014-05-12,105,109,105,108,476600,108
2014-05-13,109,111,109,111,540500,111
2014-05-14,111,112,110,112,167300,112
2014-05-15,112,112,110,111,109900,111
2014-05-16,110,122,110,118,853700,118
2014-05-19,119,119,116,118,342100,118
2014-05-20,118,120,117,118,548100,118
2014-05-21,118,118,116,117,163300,117
2014-05-22,118,120,118,119,843700,119
2014-05-23,120,123,120,123,648300,123
2014-05-26,124,133,124,130,1384700,130
2014-05-27,142,142,119,121,6773600,121
2014-05-28,122,122,120,121,1021900,121
2014-05-29,120,123,120,121,628900,121
2014-05-30,121,121,118,119,1156500,119
2014-06-02,120,120,118,120,275500,120
2014-06-03,122,123,121,122,426100,122
2014-06-04,124,124,122,122,539500,122
2014-06-05,122,123,121,121,255400,121
2014-06-06,123,124,122,123,284500,123
2014-06-09,124,125,124,125,387700,125
2014-06-10,126,128,124,127,1684500,127
2014-06-11,126,127,125,125,699400,125
2014-06-12,125,125,123,125,817400,125
2014-06-13,126,126,124,125,652900,125
2014-06-16,124,124,121,123,920500,123
2014-06-17,122,123,121,122,638200,122
2014-06-18,122,124,122,123,242800,123
2014-06-19,122,122,119,120,911900,120
2014-06-20,119,120,118,120,421300,120
2014-06-23,119,120,118,118,389600,118
2014-06-24,118,120,118,120,142100,120
2014-06-25,118,120,118,119,120400,119
2014-06-26,119,120,119,119,119700,119
2014-06-27,119,119,118,119,79600,119
2014-06-30,119,120,118,119,148700,119
2014-07-01,120,121,120,121,135200,121
2014-07-02,121,123,120,122,348300,122
2014-07-03,123,123,122,123,195300,123
2014-07-04,123,124,122,122,109600,122
2014-07-07,124,124,122,124,101800,124
2014-07-08,123,124,122,122,387700,122
2014-07-09,120,120,117,120,1229600,120
2014-07-10,120,120,118,118,337700,118
2014-07-11,118,119,117,117,846100,117
2014-07-14,115,117,115,117,1061500,117
2014-07-15,117,118,116,118,150800,118
2014-07-16,117,118,116,117,79900,117
2014-07-17,118,119,117,117,113000,117
2014-07-18,116,118,116,118,394200,118
2014-07-22,118,120,118,120,90800,120
2014-07-23,120,121,120,120,148800,120
2014-07-24,120,121,119,120,156400,120
2014-07-25,121,122,120,121,192000,121
2014-07-28,122,122,121,121,124900,121
2014-07-29,120,121,120,120,53300,120
2014-07-30,121,122,120,120,301100,120
2014-07-31,121,122,118,121,578400,121
2014-08-01,119,120,117,120,505300,120
2014-08-04,118,119,118,118,35700,118
2014-08-05,119,119,118,118,100400,118
2014-08-06,118,119,117,117,202300,117
2014-08-07,117,118,116,117,73800,117
2014-08-08,117,117,114,114,252700,114
2014-08-11,116,117,116,116,64500,116
2014-08-12,117,118,116,117,110400,117
2014-08-13,118,119,117,119,94900,119
2014-08-14,119,119,118,119,50300,119
2014-08-15,119,121,119,120,317900,120
2014-08-18,120,121,119,121,107400,121
2014-08-19,121,122,120,121,275500,121
2014-08-20,121,123,121,122,289900,122
2014-08-21,122,124,122,124,313300,124
2014-08-22,124,125,122,124,675600,124
2014-08-25,124,126,123,126,455500,126
2014-08-26,125,126,125,125,149100,125
2014-08-27,125,126,124,125,106800,125
2014-08-28,124,125,124,124,56300,124
2014-08-29,124,126,123,125,61600,125
2014-09-01,125,127,124,126,395900,126
2014-09-02,126,128,125,128,950900,128
2014-09-03,128,129,127,129,435100,129
2014-09-04,129,129,127,127,430800,127
2014-09-05,129,130,128,128,450800,128
2014-09-08,129,130,128,130,138400,130
2014-09-09,130,132,130,132,405600,132
2014-09-10,131,131,129,130,235200,130
2014-09-11,130,131,130,131,154700,131
2014-09-12,130,131,129,130,136800,130
2014-09-16,130,130,128,128,156100,128
2014-09-17,128,129,127,127,98300,127
2014-09-18,128,132,127,132,290600,132
2014-09-19,131,135,128,128,1570500,128
2014-09-22,132,133,131,133,485800,133
2014-09-24,132,132,131,131,186500,131
2014-09-25,132,133,130,132,200000,132
2014-09-26,129,131,128,130,195100,130
2014-09-29,130,132,130,132,167400,132
2014-09-30,131,131,128,128,433200,128
2014-10-01,129,130,128,128,234000,128
2014-10-02,128,128,127,127,120400,127
2014-10-03,127,128,126,128,173600,128
2014-10-06,128,129,127,128,83700,128
2014-10-07,128,128,127,127,52200,127
2014-10-08,126,127,125,127,192100,127
2014-10-09,127,128,127,127,287400,127
2014-10-10,126,128,125,128,214800,128
2014-10-14,126,127,125,127,377100,127
2014-10-15,127,127,125,126,65700,126
2014-10-16,124,125,123,123,296800,123
2014-10-17,125,125,121,122,200800,122
2014-10-20,125,127,124,126,250300,126
2014-10-21,128,128,125,127,113000,127
2014-10-22,128,129,128,129,86100,129
2014-10-23,128,129,128,128,117700,128
2014-10-24,129,129,128,128,197500,128
2014-10-27,129,129,128,128,70100,128
2014-10-28,128,129,128,129,64400,129
2014-10-29,129,130,129,129,131100,129
2014-10-30,130,132,129,132,306700,132
2014-10-31,131,133,130,133,1225500,133
2014-11-04,136,139,136,138,1733600,138
2014-11-05,137,139,137,139,530800,139
2014-11-06,140,140,138,138,679000,138
2014-11-07,139,141,139,140,460800,140
2014-11-10,140,140,139,139,68800,139
2014-11-11,139,141,139,139,383400,139
2014-11-12,140,142,139,139,471200,139
2014-11-13,141,142,140,141,251900,141
2014-11-14,141,142,140,141,133000,141
2014-11-17,141,142,140,140,148500,140
2014-11-18,141,144,141,144,288000,144
2014-11-19,143,146,143,144,254200,144
2014-11-20,144,146,143,144,193500,144
2014-11-21,145,147,144,147,155300,147
2014-11-25,148,152,148,150,574500,150
2014-11-26,151,151,149,149,248900,149
2014-11-27,150,151,149,149,253200,149
2014-11-28,150,152,149,152,143500,152
2014-12-01,152,154,151,153,203400,153
2014-12-02,153,154,151,154,544900,154
2014-12-03,155,155,152,152,488800,152
2014-12-04,152,154,152,153,133400,153
2014-12-05,154,154,153,154,92500,154
2014-12-08,155,157,154,156,257600,156
2014-12-09,155,156,151,151,671600,151
2014-12-10,149,149,146,148,394700,148
2014-12-11,143,146,142,146,400200,146
2014-12-12,148,149,146,148,264400,148
2014-12-15,145,145,143,144,207200,144
2014-12-16,141,143,138,138,706200,138
2014-12-17,135,138,135,137,286200,137
2014-12-18,143,143,141,142,516600,142
2014-12-19,145,146,144,145,401900,145
2014-12-22,145,146,144,146,247900,146
2014-12-24,146,147,145,146,423400,146
2014-12-25,145,146,144,144,187000,144
2014-12-26,144,145,144,144,126700,144
2014-12-29,143,145,143,144,186500,144
2014-12-30,144,145,143,144,261700,144
2015-01-05,145,147,145,145,162700,145
2015-01-06,145,146,139,139,397100,139
2015-01-07,137,142,137,141,258400,141
2015-01-08,143,144,141,143,428200,143
2015-01-09,144,147,143,145,153500,145
2015-01-13,146,146,143,145,92400,145
2015-01-14,144,144,143,143,54700,143
2015-01-15,144,150,143,150,848000,150
2015-01-16,151,151,145,146,686100,146
2015-01-19,148,149,147,148,271900,148
2015-01-20,149,151,149,151,173300,151
2015-01-21,153,154,151,153,247600,153
2015-01-22,154,155,153,155,309300,155
2015-01-23,155,156,153,155,850600,155
2015-01-26,154,156,154,155,381400,155
2015-01-27,155,157,155,156,440500,156
2015-01-28,156,157,155,157,213000,157
2015-01-29,156,157,155,156,98000,156
2015-01-30,157,158,156,157,238700,157
2015-02-02,155,155,153,153,372300,153
2015-02-03,153,155,153,153,166700,153
2015-02-04,154,155,154,155,103200,155
2015-02-05,152,154,152,153,279700,153
2015-02-06,154,154,153,154,82900,154
2015-02-09,154,154,151,152,395500,152
2015-02-10,152,152,149,152,360800,152
2015-02-12,153,154,152,154,145900,154
2015-02-13,155,155,154,155,114500,155
2015-02-16,154,155,153,153,639000,153
2015-02-17,152,154,152,152,739300,152
2015-02-18,152,154,152,152,878600,152
2015-02-19,152,154,152,152,819800,152
2015-02-20,153,155,153,154,264200,154
2015-02-23,154,155,152,152,848000,152
2015-02-24,151,153,150,151,857500,151
2015-02-25,151,152,151,151,995000,151
2015-02-26,151,152,150,150,688600,150
2015-02-27,150,152,150,151,799600,151
2015-03-02,152,157,152,155,1552100,155
2015-03-03,156,157,156,157,249200,157
2015-03-04,157,162,157,160,955100,160
2015-03-05,160,160,157,159,367900,159
2015-03-06,160,160,159,159,124400,159
2015-03-09,158,159,157,158,258300,158
2015-03-10,158,158,156,157,245000,157
2015-03-11,155,157,155,156,481700,156
2015-03-12,156,158,156,157,144100,157
2015-03-13,157,159,156,156,388700,156
2015-03-16,156,156,153,155,522200,155
2015-03-17,155,156,154,156,134500,156
2015-03-18,156,158,155,157,288700,157
2015-03-19,158,158,156,156,488000,156
2015-03-20,155,155,154,155,549100,155
2015-03-23,154,154,152,153,469200,153
2015-03-24,152,153,152,153,218300,153
2015-03-25,153,153,151,153,455200,153
2015-03-26,151,151,149,150,658100,150
2015-03-27,149,149,147,148,509500,148
2015-03-30,149,149,148,149,344700,149
2015-03-31,151,152,151,151,251700,151
2015-04-01,152,152,150,151,202000,151
2015-04-02,152,153,152,153,170900,153
2015-04-03,153,154,153,154,77600,154
2015-04-06,154,154,151,153,202800,153
2015-04-07,154,154,152,153,220700,153
2015-04-08,154,154,152,153,260400,153
2015-04-09,155,155,154,155,79200,155
2015-04-10,155,156,154,155,220800,155
2015-04-13,157,157,156,156,128200,156
2015-04-14,157,157,155,156,183200,156
2015-04-15,156,157,156,157,253500,157
2015-04-16,155,156,154,155,277500,155
2015-04-17,155,155,153,154,255700,154
2015-04-20,152,153,150,151,646300,151
2015-04-21,151,151,147,149,1577300,149
2015-04-22,150,150,147,150,866900,150
2015-04-23,150,151,148,148,517900,148
2015-04-24,149,150,147,147,486200,147
2015-04-27,147,147,145,145,913000,145
2015-04-28,145,148,144,148,525100,148
2015-04-30,145,146,144,146,494500,146
2015-05-01,145,145,144,144,289800,144
2015-05-07,143,143,142,142,457500,142
2015-05-08,141,144,141,144,337900,144
2015-05-11,147,148,146,148,435200,148
2015-05-12,148,148,145,145,378000,145
2015-05-13,145,145,142,143,553300,143
2015-05-14,143,144,142,144,273800,144
2015-05-15,145,145,144,145,69000,145
2015-05-18,147,147,145,146,130500,146
2015-05-19,147,149,147,149,269300,149
2015-05-20,149,150,148,148,190200,148
2015-05-21,149,150,148,148,109300,148
2015-05-22,150,150,148,149,88500,149
2015-05-25,150,151,150,151,158600,151
2015-05-26,150,151,149,150,257200,150
2015-05-27,149,150,148,148,122200,148
2015-05-28,150,151,150,150,261200,150
2015-05-29,150,152,150,151,173900,151
2015-06-01,152,153,151,153,630500,153
2015-06-02,153,154,152,153,327600,153
2015-06-03,150,151,148,148,558800,148
2015-06-04,148,148,147,147,345600,147
2015-06-05,147,147,146,146,167400,146
2015-06-08,147,148,147,147,163500,147
2015-06-09,146,146,145,145,212400,145
2015-06-10,145,147,145,146,290900,146
2015-06-11,147,148,145,145,355900,145
2015-06-12,145,145,143,144,348400,144
2015-06-15,144,145,143,145,116900,145
2015-06-16,145,145,144,144,98100,144
2015-06-17,145,147,145,147,170800,147
2015-06-18,147,148,146,148,245100,148
2015-06-19,148,149,148,149,110600,149
2015-06-22,149,150,149,150,288900,150
2015-06-23,151,152,150,152,313000,152
2015-06-24,150,152,150,152,256300,152
2015-06-25,150,151,149,151,145700,151
2015-06-26,151,151,150,150,82600,150
2015-06-29,146,148,145,147,329900,147
2015-06-30,146,149,146,147,104700,147
2015-07-01,148,150,148,149,232600,149
2015-07-02,151,151,150,150,363300,150
2015-07-03,151,152,150,151,359900,151
2015-07-06,150,151,147,150,395300,150
2015-07-07,151,152,150,151,311900,151
2015-07-08,150,151,147,147,219300,147
2015-07-09,144,147,143,147,456400,147
2015-07-10,149,150,147,148,91700,148
2015-07-13,149,150,148,149,48100,149
2015-07-14,151,151,150,150,260500,150
2015-07-15,150,153,150,151,539300,151
2015-07-16,151,153,151,152,725000,152
2015-07-17,154,155,153,155,664200,155
2015-07-21,155,155,154,154,86300,154
2015-07-22,153,154,153,154,92300,154
2015-07-23,155,155,153,153,94300,153
2015-07-24,152,154,152,152,97100,152
2015-07-27,152,152,150,150,105000,150
2015-07-28,149,149,147,149,149700,149
2015-07-29,150,150,149,150,66500,150
2015-07-30,151,151,149,150,157000,150
2015-07-31,150,151,149,151,89200,151
2015-08-03,151,152,151,151,136000,151
2015-08-04,151,152,150,152,34900,152
2015-08-05,152,153,151,153,245600,153
2015-08-06,153,153,152,153,184300,153
2015-08-07,152,153,152,153,71700,153
2015-08-10,154,154,152,154,168700,154
2015-08-11,154,154,152,153,155200,153
2015-08-12,151,152,150,150,310000,150
2015-08-13,148,150,147,148,235800,148
2015-08-14,148,149,147,148,156400,148
2015-08-17,150,151,148,149,183700,149
2015-08-18,149,149,148,149,22600,149
2015-08-19,148,150,147,150,166200,150
2015-08-20,148,149,147,148,226900,148
2015-08-21,146,147,142,143,468500,143
2015-08-24,141,141,132,133,649900,133
2015-08-25,123,133,123,127,970700,127
2015-08-26,125,132,125,132,583200,132
2015-08-27,137,137,132,132,447000,132
2015-08-28,137,138,135,136,346600,136
2015-08-31,137,137,133,136,427700,136
2015-09-01,135,135,132,132,336700,132
2015-09-02,130,132,129,129,425900,129
2015-09-03,129,131,129,131,210100,131
2015-09-04,131,131,126,127,367300,127
2015-09-07,127,128,124,125,297300,125
2015-09-08,125,125,124,124,208300,124
2015-09-09,128,131,127,131,178300,131
2015-09-10,128,130,127,130,103700,130
2015-09-11,132,132,130,131,111600,131
2015-09-14,132,133,130,131,122800,131
2015-09-15,132,132,131,131,133100,131
2015-09-16,132,133,131,131,84900,131
2015-09-17,133,135,133,135,165400,135
2015-09-18,135,135,132,135,166700,135
2015-09-24,132,132,130,130,80800,130
2015-09-25,130,133,130,132,99400,132
2015-09-28,132,133,131,133,23200,133
2015-09-29,130,131,127,129,166200,129
2015-09-30,131,133,131,133,79200,133
2015-10-01,135,135,133,135,56200,135
2015-10-02,134,135,133,134,42300,134
2015-10-05,135,136,135,136,88200,136
2015-10-06,138,139,137,138,189100,138
2015-10-07,137,139,137,139,77800,139
2015-10-08,139,139,138,139,34800,139
2015-10-09,139,141,139,141,118200,141
2015-10-13,140,140,139,139,62600,139
2015-10-14,138,138,136,137,103700,137
2015-10-15,137,139,136,139,87400,139
2015-10-16,138,139,137,138,77600,138
2015-10-19,139,140,139,139,129800,139
2015-10-20,140,140,139,139,51900,139
2015-10-21,140,141,139,141,94900,141
2015-10-22,140,140,139,139,53400,139
2015-10-23,142,143,141,142,233600,142
2015-10-26,143,144,142,142,99000,142
2015-10-27,142,142,141,141,49900,141
2015-10-28,140,142,140,142,44300,142
2015-10-29,142,142,141,142,63400,142
2015-10-30,141,141,137,140,339500,140
2015-11-02,140,140,136,137,130300,137
2015-11-04,139,140,138,139,58500,139
2015-11-05,138,138,136,136,161200,136
2015-11-06,136,137,135,136,95300,136
2015-11-09,137,137,134,136,228000,136
2015-11-10,135,136,134,135,107500,135
2015-11-11,135,135,134,134,70600,134
2015-11-12,134,135,134,134,49300,134
2015-11-13,135,135,133,134,70200,134
2015-11-16,133,134,131,133,197400,133
2015-11-17,134,137,134,134,126100,134
2015-11-18,136,136,135,135,51900,135
2015-11-19,137,137,133,136,220200,136
2015-11-20,137,137,135,137,89700,137
2015-11-24,135,136,135,136,58600,136
2015-11-25,135,136,134,135,64100,135
2015-11-26,135,135,134,135,53400,135
2015-11-27,134,136,134,135,119500,135
2015-11-30,135,135,134,134,82200,134
2015-12-01,135,137,135,136,190100,136
2015-12-02,136,137,135,135,140200,135
2015-12-03,134,135,134,134,85700,134
2015-12-04,133,134,132,133,191700,133
2015-12-07,134,135,133,133,80000,133
2015-12-08,133,133,131,132,136800,132
2015-12-09,132,132,129,130,246700,130
2015-12-10,129,129,127,129,181200,129
2015-12-11,130,130,129,129,71300,129
2015-12-14,128,129,127,129,233400,129
2015-12-15,128,129,127,128,317000,128
2015-12-16,130,131,129,130,383000,130
2015-12-17,132,133,131,132,296600,132
2015-12-18,132,133,132,132,112200,132
2015-12-21,131,131,130,131,49700,131
2015-12-22,133,133,131,131,36800,131
2015-12-24,133,134,132,132,141500,132
2015-12-25,130,132,130,131,165500,131
2015-12-28,132,133,131,132,53100,132
2015-12-29,132,133,132,133,64900,133
2015-12-30,133,134,132,133,167900,133
2016-01-04,133,134,130,131,244200,131
2016-01-05,132,132,130,131,134500,131
2016-01-06,130,130,128,129,198100,129
2016-01-07,129,129,126,126,375700,126
2016-01-08,125,126,123,125,459300,125
2016-01-12,125,125,121,122,310300,122
2016-01-13,122,125,122,124,233100,124
2016-01-14,123,123,121,122,160800,122
2016-01-15,123,124,121,121,149300,121
2016-01-18,120,121,118,121,324200,121
2016-01-19,120,120,118,120,123700,120
2016-01-20,120,120,118,118,154700,118
2016-01-21,117,119,116,116,188000,116
2016-01-22,117,121,117,119,139900,119
2016-01-25,122,123,121,122,130400,122
2016-01-26,121,122,119,119,48000,119
2016-01-27,122,122,120,121,51300,121
2016-01-28,119,121,119,121,51900,121
2016-01-29,122,123,119,123,128400,123
2016-02-01,125,126,124,125,94000,125
2016-02-02,126,126,123,125,106800,125
2016-02-03,123,123,120,122,88700,122
2016-02-04,123,123,119,120,98900,120
2016-02-05,119,120,118,119,110300,119
2016-02-08,118,120,118,120,145200,120
2016-02-09,120,120,116,116,303900,116
2016-02-10,116,116,114,114,142300,114
2016-02-12,107,110,107,108,641300,108
2016-02-15,111,112,110,111,242500,111
2016-02-16,112,114,112,113,113500,113
2016-02-17,112,112,109,111,170500,111
2016-02-18,112,113,111,112,170200,112
2016-02-19,113,113,111,113,84600,113
2016-02-22,113,113,110,112,232200,112
2016-02-23,112,114,112,112,111100,112
2016-02-24,111,112,109,110,102400,110
2016-02-25,110,110,108,110,73700,110
2016-02-26,110,111,110,110,83000,110
2016-02-29,110,110,109,110,59900,110
2016-03-01,110,111,109,111,74300,111
2016-03-02,113,116,113,115,643800,115
2016-03-03,116,118,116,117,116900,117
2016-03-04,119,120,118,119,257400,119
2016-03-07,121,122,120,121,244300,121
2016-03-08,122,122,119,120,177900,120
2016-03-09,119,119,117,117,82700,117
2016-03-10,119,120,119,119,99100,119
2016-03-11,119,120,118,120,108800,120
2016-03-14,120,121,120,120,79200,120
2016-03-15,120,120,119,120,61800,120
2016-03-16,120,120,118,119,79300,119
2016-03-17,120,121,119,119,128800,119
2016-03-18,120,122,120,121,83900,121
2016-03-22,123,124,122,123,72600,123
2016-03-23,123,124,122,123,46500,123
2016-03-24,123,123,122,123,17700,123
2016-03-25,124,125,123,123,220100,123
2016-03-28,124,125,124,124,70200,124
2016-03-29,123,124,123,124,45600,124
2016-03-30,124,124,123,123,54500,123
2016-03-31,124,124,123,123,13000,123
2016-04-01,124,124,121,121,351700,121
2016-04-04,121,123,121,121,83600,121
2016-04-05,121,122,121,121,54400,121
2016-04-06,119,120,118,119,142200,119
2016-04-07,120,120,117,118,72500,118
2016-04-08,116,117,115,117,99000,117
2016-04-11,115,116,115,115,46000,115
2016-04-12,116,119,116,118,69600,118
2016-04-13,119,121,119,120,121200,120
2016-04-14,121,122,120,122,209200,122
2016-04-15,122,123,121,121,100000,121
2016-04-18,121,122,121,122,73800,122
2016-04-19,123,124,123,124,138300,124
2016-04-20,125,126,124,126,109900,126
2016-04-21,128,128,126,126,142600,126
2016-04-22,127,127,123,124,150100,124
2016-04-25,125,125,123,123,75100,123
2016-04-26,123,124,122,122,82500,122
2016-04-27,124,127,124,126,69000,126
2016-04-28,126,127,123,123,131700,123
2016-05-02,122,122,121,122,74800,122
2016-05-06,121,122,119,119,138400,119
2016-05-09,119,121,119,120,23900,120
2016-05-10,122,123,122,122,72000,122
2016-05-11,123,124,121,123,66500,123
2016-05-12,122,123,121,122,33400,122
2016-05-13,121,123,121,122,54800,122
2016-05-16,121,121,120,120,32700,120
2016-05-17,122,122,121,121,38000,121
2016-05-18,123,123,122,122,40100,122
2016-05-19,122,123,121,123,57000,123
2016-05-20,123,123,121,122,58600,122
2016-05-23,122,122,121,121,12000,121
2016-05-24,120,121,120,120,42900,120
2016-05-25,121,122,121,122,48000,122
2016-05-26,122,123,121,122,87800,122
2016-05-27,123,126,123,126,214800,126
2016-05-30,127,128,126,127,173500,127
2016-05-31,128,128,126,126,111800,126
2016-06-01,126,128,126,128,118600,128
2016-06-02,128,128,126,127,104600,127
2016-06-03,127,128,126,128,63300,128
2016-06-06,127,128,126,127,41300,127
2016-06-07,128,128,126,127,36600,127
2016-06-08,126,127,126,127,36300,127
2016-06-09,127,128,127,127,52400,127
2016-06-10,127,127,125,125,91400,125
2016-06-13,125,125,122,123,149000,123
2016-06-14,123,123,121,121,132200,121
2016-06-15,121,123,121,121,59700,121
2016-06-16,121,125,120,121,175100,121
2016-06-17,121,122,121,121,47900,121
2016-06-20,121,122,120,122,105900,122
2016-06-21,122,122,120,122,105000,122
2016-06-22,122,123,122,122,84500,122
2016-06-23,123,124,122,122,24200,122
2016-06-24,124,124,115,117,417800,117
2016-06-27,117,119,117,118,72100,118
2016-06-28,120,121,118,120,77900,120
2016-06-29,122,122,120,121,49500,121
2016-06-30,122,123,121,121,41300,121
2016-07-01,122,122,121,122,33000,122
2016-07-04,123,123,122,123,15000,123
2016-07-05,122,124,122,123,22300,123
2016-07-06,122,123,121,121,36200,121
2016-07-07,121,122,121,121,13800,121
2016-07-08,122,122,120,120,101400,120
2016-07-11,121,122,121,122,72200,122
2016-07-12,122,125,122,123,236200,123
2016-07-13,126,127,125,125,231000,125
2016-07-14,125,126,125,126,56700,126
2016-07-15,127,129,126,127,367500,127
2016-07-19,128,128,126,126,30800,126
2016-07-20,128,128,127,128,81000,128
2016-07-21,129,130,129,129,72400,129
2016-07-22,128,128,125,127,102600,127
2016-07-25,128,128,127,127,131500,127
2016-07-26,128,128,126,128,55100,128
2016-07-27,128,128,125,126,178900,126
2016-07-28,128,128,126,128,41900,128
2016-07-29,128,128,126,128,15100,128
2016-08-01,128,128,126,127,37700,127
2016-08-02,127,127,125,125,82900,125
2016-08-03,125,125,123,124,61000,124
2016-08-04,124,125,122,124,79300,124
2016-08-05,124,125,124,125,36100,125
2016-08-08,126,127,126,126,30000,126
2016-08-09,127,128,127,127,34700,127
2016-08-10,127,128,126,126,67300,126
2016-08-12,126,127,125,126,56600,126
2016-08-15,126,127,125,126,15800,126
2016-08-16,127,127,126,127,23200,127
2016-08-17,126,128,126,128,41400,128
2016-08-18,127,127,125,125,202800,125
2016-08-19,125,127,125,126,14800,126
2016-08-22,127,128,126,126,17700,126
2016-08-23,125,126,125,125,29200,125
2016-08-24,126,126,125,125,2400,125
2016-08-25,126,127,125,126,14400,126
2016-08-26,126,127,125,126,38400,126
2016-08-29,125,127,124,124,83100,124
2016-08-30,124,126,124,125,174700,125
2016-08-31,126,128,126,128,181300,128
2016-09-01,128,129,127,128,168100,128
2016-09-02,129,129,127,128,57500,128
2016-09-05,129,130,128,128,218900,128
2016-09-06,128,128,127,128,116900,128
2016-09-07,127,127,126,127,35300,127
2016-09-08,127,127,126,127,45600,127
2016-09-09,127,128,126,128,20700,128
2016-09-12,127,127,126,127,63300,127
2016-09-13,127,127,126,127,13400,127
2016-09-14,126,127,125,126,40200,126
2016-09-15,125,127,125,126,22900,126
2016-09-16,127,127,126,126,17900,126
2016-09-20,126,127,126,126,22500,126
2016-09-21,127,128,126,128,152800,128
2016-09-23,128,128,126,126,124300,126
2016-09-26,126,127,126,126,33300,126
2016-09-27,126,126,123,125,141900,125
2016-09-28,124,126,124,125,18400,125
2016-09-29,125,126,125,125,6900,125
2016-09-30,125,125,123,123,109300,123
2016-10-03,124,125,123,123,39900,123
2016-10-04,125,126,125,125,52800,125
2016-10-05,125,126,125,125,17000,125
2016-10-06,126,126,125,125,28100,125
2016-10-07,126,126,125,125,12000,125
2016-10-11,125,126,125,125,18500,125
2016-10-12,125,126,125,125,13600,125
2016-10-13,126,126,125,126,4400,126
2016-10-17,124,126,124,125,22300,125
2016-10-19,125,126,124,126,49900,126
2016-10-20,125,126,125,125,14700,125
2016-10-21,125,126,124,124,65600,124
2016-10-24,124,125,124,124,9600,124
2016-10-25,124,126,123,125,157300,125
2016-10-26,125,126,124,126,88000,126
2016-10-27,125,125,124,124,23300,124
2016-10-28,124,125,124,124,18900,124
2016-10-31,123,126,123,125,75100,125
2016-11-01,127,127,124,125,57100,125
2016-11-02,124,125,124,125,59200,125
2016-11-04,123,124,122,123,154800,123
2016-11-07,123,125,122,123,140600,123
2016-11-08,124,124,122,122,131800,122
2016-11-09,124,124,117,118,297700,118
2016-11-10,124,126,123,126,330600,126
2016-11-11,126,126,125,125,40800,125
2016-11-14,123,123,121,122,165600,122
2016-11-15,121,122,121,121,117700,121
2016-11-16,121,125,121,122,229600,122
2016-11-17,121,121,119,120,299400,120
2016-11-18,122,123,121,121,152700,121
2016-11-21,121,122,121,121,42400,121
2016-11-22,121,121,119,120,145500,120
2016-11-24,120,121,120,120,281000,120
2016-11-25,122,123,121,122,164500,122
2016-11-28,123,123,122,123,51600,123
2016-11-29,123,123,122,123,50700,123
2016-11-30,124,124,122,124,52800,124
2016-12-01,125,126,124,125,409900,125
2016-12-02,126,126,124,125,45100,125
2016-12-05,125,125,123,125,68200,125
2016-12-06,124,125,124,124,65700,124
2016-12-07,125,126,124,125,64700,125
2016-12-08,125,126,124,126,59200,126
2016-12-09,126,128,126,126,210500,126
2016-12-12,128,129,126,127,692900,127
2016-12-13,127,127,126,126,95200,126
2016-12-14,126,127,125,125,93200,125
2016-12-15,126,128,126,128,231100,128
2016-12-16,128,128,127,127,68200,127
2016-12-19,126,128,126,126,86300,126
2016-12-20,127,127,126,126,47200,126
2016-12-21,125,127,125,126,156100,126
2016-12-22,125,126,125,125,135600,125
2016-12-26,125,126,124,125,116500,125
2016-12-27,124,126,124,125,181300,125
2016-12-28,125,126,124,124,34700,124
2016-12-29,125,125,124,124,20000,124
2016-12-30,125,126,124,125,84800,125
2017-01-04,126,128,126,126,261700,126
2017-01-05,127,128,127,127,117100,127
2017-01-06,127,128,127,127,52900,127
2017-01-10,127,127,126,127,140300,127
2017-01-11,127,128,126,128,65600,128
2017-01-12,128,128,127,127,52000,127
2017-01-13,128,129,127,128,129200,128
2017-01-16,128,128,126,127,98200,127
2017-01-17,128,128,127,127,16900,127
2017-01-18,127,127,126,127,84500,127
2017-01-19,127,128,127,127,63700,127
2017-01-20,127,128,126,127,35300,127
2017-01-23,127,127,126,126,88700,126
2017-01-24,126,127,126,127,50500,127
2017-01-25,128,128,127,128,42200,128
2017-01-26,128,130,128,130,145100,130
2017-01-27,130,131,129,131,135900,131
2017-01-30,131,131,129,129,88200,129
2017-01-31,129,131,128,129,100400,129
2017-02-01,128,130,128,130,53600,130
2017-02-02,132,132,129,129,265500,129
2017-02-03,131,132,130,132,154200,132
2017-02-06,132,133,131,132,168700,132
2017-02-07,133,133,131,133,151400,133
2017-02-08,133,133,131,132,134900,132
2017-02-09,132,133,132,133,63300,133
2017-02-10,133,135,133,135,171000,135
2017-02-13,135,136,134,136,187000,136
2017-02-14,136,136,134,135,80200,135
2017-02-15,136,136,134,134,108400,134
2017-02-16,135,135,133,133,172000,133
2017-02-17,134,136,133,136,133100,136
2017-02-20,136,136,134,136,127300,136
2017-02-21,136,137,135,136,31800,136
2017-02-22,136,137,136,136,52600,136
2017-02-23,137,137,136,136,56300,136
2017-02-24,137,137,136,137,93100,137
2017-02-27,137,137,135,136,223200,136
2017-02-28,136,137,135,136,125300,136
2017-03-01,136,137,135,136,33800,136
2017-03-02,137,139,137,137,178800,137
2017-03-03,137,138,136,136,117700,136
2017-03-06,137,138,136,137,175300,137
2017-03-07,137,138,136,138,54100,138
2017-03-08,138,138,137,137,53700,137
2017-03-09,137,138,136,137,93200,137
2017-03-10,138,139,137,138,147500,138
2017-03-13,139,142,139,141,616700,141
2017-03-14,142,144,142,143,390400,143
2017-03-15,144,145,143,145,201600,145
2017-03-16,145,145,143,144,176700,144
2017-03-17,144,144,143,144,135300,144
2017-03-21,143,144,142,143,164500,143
2017-03-22,140,141,137,139,367600,139
2017-03-23,139,140,139,140,78500,140
2017-03-24,139,140,139,140,23100,140
2017-03-27,139,140,138,138,106900,138
2017-03-28,139,140,139,139,33500,139
2017-03-29,140,141,140,140,70200,140
2017-03-30,142,142,141,142,134500,142
2017-03-31,143,143,142,143,82300,143
2017-04-03,143,143,142,143,179200,143
2017-04-04,144,144,142,142,94100,142
2017-04-05,143,143,142,143,297700,143
2017-04-06,141,143,141,142,128100,142
2017-04-07,143,144,141,142,208400,142
2017-04-10,142,144,142,143,121200,143
2017-04-11,142,143,141,141,109100,141
2017-04-12,141,141,140,141,79800,141
2017-04-13,140,140,138,139,241700,139
2017-04-14,138,140,137,140,136600,140
2017-04-17,138,139,138,139,106000,139
2017-04-18,140,140,138,138,134300,138
2017-04-19,137,139,137,137,133600,137
2017-04-20,137,138,137,137,63900,137
2017-04-21,138,140,138,139,97800,139
2017-04-24,140,141,139,139,115200,139
2017-04-25,140,142,140,141,40300,141
2017-04-26,144,146,143,145,389800,145
2017-04-27,145,146,144,145,73500,145
2017-04-28,146,146,144,146,185800,146
2017-05-01,146,146,145,145,56900,145
2017-05-02,146,147,145,146,214800,146
2017-05-08,147,147,146,147,90200,147
2017-05-09,146,147,145,146,236400,146
2017-05-10,146,148,146,147,246400,147
2017-05-11,149,150,149,150,248600,150
2017-05-12,150,150,148,148,405100,148
2017-05-15,149,150,149,150,135900,150
2017-05-16,151,151,150,150,106100,150
2017-05-17,150,150,149,150,172500,150
2017-05-18,147,147,145,146,381100,146
2017-05-19,145,147,145,146,259500,146
2017-05-22,147,149,146,147,205700,147
2017-05-23,146,148,145,146,270600,146
2017-05-24,146,146,145,145,142600,145
2017-05-25,146,148,145,146,149200,146
2017-05-26,148,149,147,148,120900,148
2017-05-29,148,149,147,148,198600,148
2017-05-30,148,148,146,147,168200,147
2017-05-31,148,149,147,149,89000,149
2017-06-01,149,150,148,149,109100,149
2017-06-02,150,150,148,150,195600,150
2017-06-05,150,150,149,150,160600,150
2017-06-06,149,149,148,149,75500,149
2017-06-07,149,149,147,148,79800,148
2017-06-08,149,149,147,148,144800,148
2017-06-09,149,149,147,149,158500,149
2017-06-12,149,149,147,148,32200,148
2017-06-13,147,148,146,147,113500,147
2017-06-14,147,148,147,148,87700,148
2017-06-15,147,147,146,146,81200,146
2017-06-16,147,148,146,146,159900,146
2017-06-19,147,148,146,147,64700,147
2017-06-20,149,150,149,149,230700,149
2017-06-21,148,149,148,148,90600,148
2017-06-22,148,149,148,148,45800,148
2017-06-23,149,149,148,149,77500,149
2017-06-26,149,149,147,148,138000,148
2017-06-27,147,150,147,147,215900,147
2017-06-28,147,148,146,146,218900,146
2017-06-29,148,149,147,148,161200,148
2017-06-30,147,147,145,145,323700,145
2017-07-03,147,149,147,148,160000,148
2017-07-04,149,150,148,148,202900,148
2017-07-05,148,150,148,149,129400,149
2017-07-06,150,150,148,149,69600,149
2017-07-07,148,150,148,149,79200,149
2017-07-10,150,152,150,151,733900,151
2017-07-11,153,154,152,154,407500,154
2017-07-12,154,154,152,153,130700,153
2017-07-13,153,154,153,154,190600,154
2017-07-14,155,156,154,154,563600,154
2017-07-18,155,155,153,154,260000,154
2017-07-19,154,154,153,154,77200,154
2017-07-20,153,155,153,153,52800,153
2017-07-21,154,154,154,154,54000,154
2017-07-24,153,154,152,153,231900,153
2017-07-25,154,155,153,155,67300,155
2017-07-26,155,155,153,154,36600,154
2017-07-27,154,156,154,154,185700,154
2017-07-28,155,155,153,153,89300,153
2017-07-31,155,155,153,154,118800,154
2017-08-01,154,156,154,155,91900,155
2017-08-02,156,156,155,155,146700,155
2017-08-03,156,156,155,156,103600,156
2017-08-04,155,155,154,155,206100,155
2017-08-07,155,157,155,156,107500,156
2017-08-08,155,156,154,155,182800,155
2017-08-09,155,155,153,153,178800,153
2017-08-10,154,154,151,153,299900,153
2017-08-14,149,151,148,150,231200,150
2017-08-15,152,152,151,152,87300,152
2017-08-16,151,152,151,151,120700,151
2017-08-17,152,153,151,153,71200,153
2017-08-18,152,152,150,150,335800,150
2017-08-21,150,151,149,151,304100,151
2017-08-22,150,150,149,150,163900,150
2017-08-23,150,151,149,149,117200,149
2017-08-24,150,151,150,150,128700,150
2017-08-25,151,152,151,151,45700,151
2017-08-28,152,153,150,152,96200,152
2017-08-29,151,151,150,150,95800,150
2017-08-30,151,153,151,153,113700,153
2017-08-31,153,153,152,152,141300,152
2017-09-01,152,154,152,153,116800,153
2017-09-04,154,154,153,153,157300,153
2017-09-05,153,153,151,151,127900,151
2017-09-06,151,151,150,151,113700,151
2017-09-07,152,152,151,151,55700,151
2017-09-08,151,152,150,150,74500,150
2017-09-11,152,152,151,151,21400,151
2017-09-12,153,154,153,153,135500,153
2017-09-13,155,156,154,154,450000,154
2017-09-14,155,156,154,154,182200,154
2017-09-15,155,155,154,154,66100,154
2017-09-19,157,158,155,158,464000,158
2017-09-20,156,157,155,156,201000,156
2017-09-21,157,158,156,157,222900,157
2017-09-22,157,157,154,154,148400,154
2017-09-25,154,155,153,153,380300,153
2017-09-26,152,152,150,150,694600,150
2017-09-27,152,152,151,151,208600,151
2017-09-28,150,151,149,151,494800,151
2017-09-29,151,152,150,152,433800,152
2017-10-02,152,153,151,153,151600,153
2017-10-03,152,153,151,151,202300,151
2017-10-04,152,153,152,152,46100,152
2017-10-05,153,155,153,153,458000,153
2017-10-06,155,155,153,155,160300,155
2017-10-10,155,155,154,155,86900,155
2017-10-11,155,155,154,155,83900,155
2017-10-12,154,155,153,155,271800,155
2017-10-13,155,157,155,156,529200,156
2017-10-16,157,158,157,158,269600,158
2017-10-17,158,159,157,157,356400,157
2017-10-18,157,158,156,156,113700,156
2017-10-19,157,158,157,157,121200,157
2017-10-20,157,158,156,157,149200,157
2017-10-23,158,159,158,158,202700,158
2017-10-24,158,159,158,158,239100,158
2017-10-25,159,160,159,159,698600,159
2017-10-26,160,160,159,160,230800,160
2017-10-27,160,162,160,161,445100,161
2017-10-30,161,162,160,161,236900,161
2017-10-31,161,161,160,160,201600,160
2017-11-01,161,163,161,162,190400,162
2017-11-02,164,164,163,163,242900,163
2017-11-06,164,165,163,165,284900,165
2017-11-07,165,165,162,163,337400,163
2017-11-08,162,162,160,161,334100,161
2017-11-09,160,162,160,160,285300,160
2017-11-10,160,160,159,159,323900,159
2017-11-13,160,160,158,159,264600,159
2017-11-15,157,157,155,156,411100,156
2017-11-16,156,157,155,156,112900,156
2017-11-17,159,160,158,160,300800,160
2017-11-20,159,159,157,158,303400,158
2017-11-21,158,160,158,160,117100,160
2017-11-22,161,161,159,160,246300,160
2017-11-24,160,160,159,160,80700,160
2017-11-27,160,161,158,159,344600,159
2017-11-28,159,160,159,159,314900,159
2017-11-29,160,161,160,160,50800,160
2017-11-30,159,160,159,159,90500,159
2017-12-01,159,160,158,159,160000,159
2017-12-04,158,159,158,159,180000,159
2017-12-05,158,159,157,157,186300,157
2017-12-06,159,159,157,157,310800,157
2017-12-07,157,158,156,158,123300,158
2017-12-08,158,160,158,160,174200,160
2017-12-11,161,162,160,162,178400,162
2017-12-12,161,162,161,161,127100,161
2017-12-13,161,162,160,162,242500,162
2017-12-14,161,161,159,159,168100,159
2017-12-15,160,162,160,161,412700,161
2017-12-18,162,163,158,161,760900,161
2017-12-19,162,162,161,162,59300,162
2017-12-20,162,163,162,163,374000,163
2017-12-21,163,164,163,163,86200,163
2017-12-22,164,164,163,163,71700,163
2017-12-25,164,165,163,165,297300,165
2017-12-26,165,165,164,164,256000,164
2017-12-27,165,166,164,165,92300,165
2017-12-28,165,165,164,164,203100,164
2017-12-29,164,164,163,164,167900,164
2018-01-04,165,166,164,164,267200,164
2018-01-05,166,167,165,167,282200,167
2018-01-09,169,169,168,169,506000,169
2018-01-10,168,168,167,168,438000,168
2018-01-11,166,167,166,167,105300,167
2018-01-12,167,168,167,167,159300,167
2018-01-15,168,169,167,168,303900,168
2018-01-16,168,168,167,168,198200,168
2018-01-17,166,167,166,167,398400,167
2018-01-18,169,170,168,170,451200,170
2018-01-19,168,170,168,169,186000,169
2018-01-22,170,170,169,170,98300,170
2018-01-23,172,174,172,173,586100,173
2018-01-24,173,174,172,173,314900,173
2018-01-25,172,173,172,173,189800,173
2018-01-26,173,174,173,174,315200,174
2018-01-29,175,178,174,178,452400,178
2018-01-30,178,179,177,177,376200,177
2018-01-31,176,177,175,176,285300,176
2018-02-01,178,179,177,179,277500,179
2018-02-02,179,179,176,178,465400,178
2018-02-05,172,174,171,173,593600,173
2018-02-06,165,167,163,165,967200,165
2018-02-07,173,173,169,169,346500,169
2018-02-08,169,172,169,171,333200,171
2018-02-09,165,169,165,169,434100,169
2018-02-13,171,173,170,171,146200,171
2018-02-14,171,172,169,169,149900,169
2018-02-15,170,170,169,169,125200,169
2018-02-16,170,171,169,171,133800,171
2018-02-19,170,171,170,171,171300,171
2018-02-20,170,171,169,170,189100,170
2018-02-21,170,171,170,171,86200,171
2018-02-22,170,171,170,171,109800,171
2018-02-23,171,172,171,172,85200,172
2018-02-26,173,173,171,171,218100,171
2018-02-27,172,174,172,174,163400,174
2018-02-28,173,173,170,170,234600,170
2018-03-01,170,170,169,170,164600,170
2018-03-02,170,170,169,170,233200,170
2018-03-05,170,170,169,169,80600,169
2018-03-06,170,170,169,169,71100,169
2018-03-07,169,169,166,167,341300,167
2018-03-08,168,169,167,168,135900,168
2018-03-09,168,171,168,169,149500,169
2018-03-12,170,171,170,170,111000,170
2018-03-13,171,172,171,171,131500,171
2018-03-14,171,171,170,170,64500,170
2018-03-15,170,171,169,170,64400,170
2018-03-16,170,170,168,168,127000,168
2018-03-19,168,169,168,168,63900,168
2018-03-20,168,168,167,167,119300,167
2018-03-22,168,170,167,169,87200,169
2018-03-23,166,167,165,167,202600,167
2018-03-26,165,166,164,165,133400,165
2018-03-27,166,168,166,167,199300,167
2018-03-28,168,168,167,168,55900,168
2018-03-29,168,169,166,166,127700,166
2018-03-30,168,168,167,167,37000,167
