Date,Open,High,Low,Close,Volume,Close2
2011-01-04,2850,2855,2823,2833,1807500,2833
2011-01-05,2875,2876,2801,2814,2329500,2814
2011-01-06,2832,2852,2801,2842,4138600,2842
2011-01-07,2843,2861,2827,2835,2209500,2835
2011-01-11,2855,2929,2844,2907,4159700,2907
2011-01-12,2923,2931,2890,2895,2107100,2895
2011-01-13,2913,2926,2887,2906,1358200,2906
2011-01-14,2888,2896,2860,2864,1980600,2864
2011-01-17,2865,2868,2812,2827,2027400,2827
2011-01-18,2804,2806,2762,2787,2948300,2787
2011-01-19,2785,2788,2743,2761,2264400,2761
2011-01-20,2753,2763,2723,2741,2252400,2741
2011-01-21,2742,2758,2647,2674,5126300,2674
2011-01-24,2683,2688,2650,2667,1691700,2667
2011-01-25,2659,2693,2630,2670,2970200,2670
2011-01-26,2664,2698,2653,2668,2548800,2668
2011-01-27,2670,2745,2670,2732,3479900,2732
2011-01-28,2722,2723,2613,2643,5358200,2643
2011-01-31,2593,2660,2588,2635,3106200,2635
2011-02-01,2635,2645,2612,2635,2151800,2635
2011-02-02,2659,2709,2658,2667,2345500,2667
2011-02-03,2669,2716,2668,2685,1992400,2685
2011-02-04,2830,2852,2738,2742,9123700,2742
2011-02-07,2792,2793,2720,2742,3162900,2742
2011-02-08,2760,2780,2741,2750,1478000,2750
2011-02-09,2763,2798,2732,2738,2011400,2738
2011-02-10,2723,2754,2712,2747,2018500,2747
2011-02-14,2775,2782,2725,2741,1507500,2741
2011-02-15,2749,2754,2731,2735,1731400,2735
2011-02-16,2731,2790,2731,2764,2619900,2764
2011-02-17,2774,2787,2758,2776,1758600,2776
2011-02-18,2740,2760,2713,2728,2729200,2728
2011-02-21,2700,2703,2667,2672,3878600,2672
2011-02-22,2650,2658,2606,2620,3807500,2620
2011-02-23,2600,2620,2592,2592,2446200,2592
2011-02-24,2585,2589,2550,2563,2332800,2563
2011-02-25,2571,2595,2557,2571,2876100,2571
2011-02-28,2545,2587,2505,2575,3185600,2575
2011-03-01,2559,2572,2548,2571,2354600,2571
2011-03-02,2545,2545,2497,2512,3896500,2512
2011-03-03,2518,2560,2509,2556,2938900,2556
2011-03-04,2575,2578,2515,2529,3117000,2529
2011-03-07,2505,2520,2476,2502,2544700,2502
2011-03-08,2500,2538,2494,2517,3366000,2517
2011-03-09,2527,2549,2519,2525,1981700,2525
2011-03-10,2528,2529,2483,2503,2339200,2503
2011-03-11,2503,2546,2493,2493,4993900,2493
2011-03-14,2243,2433,2242,2347,6101800,2347
2011-03-15,2274,2277,1847,2025,5782200,2025
2011-03-16,2085,2215,2078,2175,5782600,2175
2011-03-17,2079,2220,2072,2170,4445800,2170
2011-03-18,2180,2263,2180,2248,3763700,2248
2011-03-22,2348,2499,2302,2489,7585600,2489
2011-03-23,2445,2477,2402,2433,3886000,2433
2011-03-24,2417,2440,2380,2382,3022100,2382
2011-03-25,2418,2423,2329,2364,2569500,2364
2011-03-28,2385,2432,2380,2399,2236600,2399
2011-03-29,2404,2424,2368,2414,2436500,2414
2011-03-30,2424,2473,2375,2472,3137200,2472
2011-03-31,2470,2471,2417,2434,2268500,2434
2011-04-01,2444,2446,2372,2378,3382600,2378
2011-04-04,2374,2399,2352,2363,2081600,2363
2011-04-05,2356,2356,2317,2341,1976800,2341
2011-04-06,2330,2332,2250,2262,3710500,2262
2011-04-07,2269,2304,2265,2267,1747900,2267
2011-04-08,2261,2305,2228,2289,2415600,2289
2011-04-11,2281,2304,2273,2287,1027400,2287
2011-04-12,2251,2271,2235,2255,1353700,2255
2011-04-13,2229,2252,2221,2248,1762000,2248
2011-04-14,2243,2268,2227,2262,1966900,2262
2011-04-15,2246,2249,2210,2218,1783200,2218
2011-04-18,2200,2203,2167,2178,1924600,2178
2011-04-19,2155,2171,2136,2152,1598800,2152
2011-04-20,2167,2183,2156,2173,1538000,2173
2011-04-21,2186,2263,2170,2249,6121800,2249
2011-04-22,2210,2211,2156,2186,5951000,2186
2011-04-25,2213,2235,2180,2197,2464100,2197
2011-04-26,2185,2188,2138,2146,2208900,2146
2011-04-27,2171,2211,2171,2180,2874300,2180
2011-04-28,2187,2209,2175,2206,2341300,2206
2011-05-02,2272,2298,2257,2288,2864800,2288
2011-05-06,2270,2279,2253,2270,1788000,2270
2011-05-09,2270,2277,2247,2277,1880600,2277
2011-05-10,2278,2307,2256,2286,2160800,2286
2011-05-11,2299,2310,2255,2261,2103000,2261
2011-05-12,2248,2250,2185,2186,2987000,2186
2011-05-13,2187,2191,2129,2150,3167100,2150
2011-05-16,2121,2129,2081,2087,2421900,2087
2011-05-17,2070,2122,2061,2113,2000400,2113
2011-05-18,2143,2155,2117,2146,1740100,2146
2011-05-19,2158,2161,2108,2111,1308600,2111
2011-05-20,2089,2113,2062,2066,2302500,2066
2011-05-23,2045,2045,2018,2032,1547300,2032
2011-05-24,1990,2028,1981,2019,2307600,2019
2011-05-25,2020,2031,2004,2010,1216600,2010
2011-05-26,2012,2034,2006,2022,1872400,2022
2011-05-27,2007,2037,1996,2026,1600400,2026
2011-05-30,2014,2016,1995,2002,1454000,2002
2011-05-31,1995,2030,1995,2030,3554700,2030
2011-06-01,2029,2041,2011,2018,2070800,2018
2011-06-02,1988,1990,1970,1988,1749000,1988
2011-06-03,1988,1995,1958,1958,1598700,1958
2011-06-06,1950,1968,1933,1941,1575800,1941
2011-06-07,1941,1960,1933,1951,1352900,1951
2011-06-08,1940,1945,1921,1937,1272800,1937
2011-06-09,1928,1943,1915,1926,1535200,1926
2011-06-10,1933,1960,1932,1948,2799200,1948
2011-06-13,1930,1940,1915,1933,1329600,1933
2011-06-14,1931,1984,1925,1975,1737900,1975
2011-06-15,1991,1994,1965,1971,1162800,1971
2011-06-16,1970,2052,1962,2007,4188600,2007
2011-06-17,2034,2056,1999,2012,3451300,2012
2011-06-20,2007,2017,1989,2006,1865500,2006
2011-06-21,2007,2046,2002,2042,1535900,2042
2011-06-22,2051,2055,2029,2045,1742900,2045
2011-06-23,2031,2090,2027,2066,3440600,2066
2011-06-24,2090,2109,2070,2103,2522300,2103
2011-06-27,2120,2157,2112,2141,3992700,2141
2011-06-28,2154,2170,2110,2118,3274100,2118
2011-06-29,2157,2179,2150,2173,2429000,2173
2011-06-30,2215,2218,2186,2204,2658900,2204
2011-07-01,2213,2228,2190,2196,1762800,2196
2011-07-04,2221,2236,2212,2218,1455700,2218
2011-07-05,2225,2255,2219,2247,1633800,2247
2011-07-06,2250,2272,2233,2271,1685900,2271
2011-07-07,2260,2260,2204,2218,3766200,2218
2011-07-08,2240,2245,2192,2198,3308900,2198
2011-07-11,2185,2202,2162,2180,2757000,2180
2011-07-12,2145,2166,2141,2148,2373900,2148
2011-07-13,2144,2184,2139,2162,1628300,2162
2011-07-14,2165,2171,2131,2135,1770800,2135
2011-07-15,2130,2151,2126,2147,1337100,2147
2011-07-19,2137,2140,2093,2096,2209900,2096
2011-07-20,2116,2121,2091,2102,1733000,2102
2011-07-21,2089,2090,2066,2072,2380200,2072
2011-07-22,2107,2136,2101,2124,2882900,2124
2011-07-25,2113,2113,2091,2107,2125300,2107
2011-07-26,2115,2177,2115,2161,2485300,2161
2011-07-27,2137,2177,2112,2129,4820400,2129
2011-07-28,2097,2120,2069,2080,2953900,2080
2011-07-29,2087,2127,2079,2100,2521400,2100
2011-08-01,2110,2155,2105,2134,2189700,2134
2011-08-02,2124,2124,2083,2093,1955600,2093
2011-08-03,2043,2055,2007,2023,2204700,2023
2011-08-04,2023,2040,2000,2004,1939500,2004
2011-08-05,1927,1949,1914,1932,2466900,1932
2011-08-08,1903,1910,1866,1876,2211500,1876
2011-08-09,1813,1818,1760,1818,3870100,1818
2011-08-10,1858,1859,1828,1831,1993600,1831
2011-08-11,1785,1815,1782,1811,2826100,1811
2011-08-12,1838,1845,1789,1804,1642400,1804
2011-08-15,1828,1840,1811,1826,1497000,1826
2011-08-16,1832,1845,1816,1826,1028900,1826
2011-08-17,1822,1834,1805,1824,1209600,1824
2011-08-18,1825,1834,1800,1802,1696800,1802
2011-08-19,1774,1784,1750,1757,2220600,1757
2011-08-22,1756,1777,1742,1743,1618500,1743
2011-08-23,1739,1739,1658,1686,5217300,1686
2011-08-24,1695,1697,1655,1661,3090500,1661
2011-08-25,1677,1728,1674,1700,2406500,1700
2011-08-26,1685,1705,1676,1702,1810200,1702
2011-08-29,1715,1738,1692,1715,2095100,1715
2011-08-30,1749,1812,1746,1783,3313800,1783
2011-08-31,1772,1772,1748,1767,2034100,1767
2011-09-01,1777,1827,1776,1816,2225500,1816
2011-09-02,1796,1819,1788,1798,1471700,1798
2011-09-05,1771,1776,1719,1728,1727500,1728
2011-09-06,1717,1717,1676,1687,2084800,1687
2011-09-07,1722,1745,1707,1743,1330300,1743
2011-09-08,1758,1786,1755,1769,1311400,1769
2011-09-09,1765,1772,1745,1750,1766900,1750
2011-09-12,1710,1713,1691,1696,1754500,1696
2011-09-13,1722,1730,1708,1721,2014700,1721
2011-09-14,1733,1762,1726,1731,1716000,1731
2011-09-15,1780,1817,1778,1806,3187900,1806
2011-09-16,1820,1885,1807,1880,2687200,1880
2011-09-20,1840,1848,1794,1800,2168600,1800
2011-09-21,1808,1815,1784,1792,1672600,1792
2011-09-22,1791,1798,1720,1727,2539800,1727
2011-09-26,1728,1728,1574,1592,5161300,1592
2011-09-27,1630,1640,1596,1618,2839000,1618
2011-09-28,1593,1620,1568,1620,4224900,1620
2011-09-29,1575,1596,1547,1595,4057500,1595
2011-09-30,1581,1597,1565,1577,4105400,1577
2011-10-03,1534,1549,1483,1511,3083800,1511
2011-10-04,1462,1463,1428,1461,2912900,1461
2011-10-05,1461,1463,1411,1420,3660300,1420
2011-10-06,1432,1452,1422,1429,2908000,1429
2011-10-07,1429,1453,1402,1422,4624800,1422
2011-10-11,1448,1468,1437,1463,2830800,1463
2011-10-12,1449,1449,1412,1426,3707000,1426
2011-10-13,1451,1508,1451,1479,4333800,1479
2011-10-14,1486,1538,1481,1501,4320000,1501
2011-10-17,1524,1534,1491,1517,2424600,1517
2011-10-18,1465,1486,1459,1466,1732300,1466
2011-10-19,1483,1489,1447,1450,1410100,1450
2011-10-20,1422,1427,1380,1421,3427700,1421
2011-10-21,1418,1418,1395,1402,1271400,1402
2011-10-24,1422,1452,1413,1442,1750000,1442
2011-10-25,1443,1443,1392,1397,2607700,1397
2011-10-26,1403,1493,1303,1459,6787800,1459
2011-10-27,1399,1477,1371,1469,4677300,1469
2011-10-28,1499,1561,1499,1546,4488900,1546
2011-10-31,1510,1534,1495,1512,3067100,1512
2011-11-01,1484,1484,1444,1458,2291100,1458
2011-11-02,1436,1436,1393,1415,2507200,1415
2011-11-04,1427,1442,1396,1439,2332600,1439
2011-11-07,1429,1430,1387,1418,1777400,1418
2011-11-08,1400,1409,1313,1319,5207700,1319
2011-11-09,1339,1387,1333,1383,3157900,1383
2011-11-10,1323,1344,1307,1344,2482600,1344
2011-11-11,1344,1344,1308,1319,2366400,1319
2011-11-14,1355,1384,1343,1365,2401200,1365
2011-11-15,1350,1350,1330,1335,1267800,1335
2011-11-16,1332,1332,1291,1297,2539700,1297
2011-11-17,1274,1311,1257,1295,2318400,1295
2011-11-18,1255,1268,1241,1265,2233500,1265
2011-11-21,1260,1266,1237,1246,1203900,1246
2011-11-22,1230,1283,1217,1274,1979200,1274
2011-11-24,1229,1268,1221,1253,2582800,1253
2011-11-25,1270,1322,1266,1303,4314900,1303
2011-11-28,1333,1355,1323,1325,3174700,1325
2011-11-29,1349,1405,1345,1399,4238800,1399
2011-11-30,1358,1390,1352,1389,3519100,1389
2011-12-01,1479,1534,1456,1512,7007100,1512
2011-12-02,1513,1538,1478,1519,4673600,1519
2011-12-05,1518,1528,1501,1526,1670300,1526
2011-12-06,1514,1527,1457,1463,3162800,1463
2011-12-07,1476,1536,1459,1526,2946500,1526
2011-12-08,1505,1527,1483,1523,3058200,1523
2011-12-09,1475,1485,1456,1472,4580900,1472
2011-12-12,1506,1538,1493,1525,2171400,1525
2011-12-13,1485,1516,1483,1501,2246900,1501
2011-12-14,1495,1495,1464,1487,2986800,1487
2011-12-15,1468,1468,1435,1438,2523700,1438
2011-12-16,1441,1451,1422,1440,1911000,1440
2011-12-19,1428,1430,1380,1384,2857800,1384
2011-12-20,1380,1391,1360,1379,2415000,1379
2011-12-21,1409,1428,1399,1414,1897600,1414
2011-12-22,1412,1413,1378,1387,1706800,1387
2011-12-26,1412,1412,1397,1407,1056200,1407
2011-12-27,1390,1407,1380,1400,965900,1400
2011-12-28,1395,1408,1387,1391,925200,1391
2011-12-29,1381,1381,1350,1378,1997900,1378
2011-12-30,1371,1403,1371,1394,1486200,1394
2012-01-04,1421,1437,1412,1418,2185700,1418
2012-01-05,1412,1412,1377,1387,2822300,1387
2012-01-06,1383,1385,1338,1352,3785200,1352
2012-01-10,1352,1355,1331,1345,2570800,1345
2012-01-11,1346,1362,1337,1353,1439100,1353
2012-01-12,1345,1347,1318,1321,2052400,1321
2012-01-13,1338,1365,1335,1345,3537400,1345
2012-01-16,1327,1328,1299,1311,2245900,1311
2012-01-17,1315,1343,1313,1336,2348000,1336
2012-01-18,1324,1326,1288,1318,3943400,1318
2012-01-19,1336,1350,1322,1326,2708000,1326
2012-01-20,1351,1425,1350,1419,6030600,1419
2012-01-23,1409,1471,1388,1460,5892600,1460
2012-01-24,1456,1475,1436,1444,3806000,1444
2012-01-25,1459,1467,1436,1460,3175500,1460
2012-01-26,1465,1515,1457,1464,4173300,1464
2012-01-27,1450,1455,1406,1408,4280000,1408
2012-01-30,1378,1410,1365,1397,3783100,1397
2012-01-31,1402,1447,1354,1360,5362800,1360
2012-02-01,1340,1352,1323,1335,3645500,1335
2012-02-02,1350,1377,1345,1364,3765400,1364
2012-02-03,1348,1357,1331,1338,2670200,1338
2012-02-06,1364,1376,1347,1366,2240000,1366
2012-02-07,1358,1412,1357,1409,3659000,1409
2012-02-08,1450,1508,1450,1503,7582600,1503
2012-02-09,1518,1539,1484,1504,5354100,1504
2012-02-10,1505,1516,1480,1485,2728300,1485
2012-02-13,1480,1523,1478,1496,3172100,1496
2012-02-14,1482,1490,1448,1486,3756200,1486
2012-02-15,1500,1551,1488,1524,4292300,1524
2012-02-16,1513,1542,1497,1519,3818000,1519
2012-02-17,1559,1599,1552,1580,4773300,1580
2012-02-20,1700,1725,1665,1712,7870300,1712
2012-02-21,1683,1711,1663,1679,4745700,1679
2012-02-22,1663,1698,1637,1695,5464500,1695
2012-02-23,1698,1733,1677,1724,4060000,1724
2012-02-24,1724,1786,1715,1775,4815700,1775
2012-02-27,1838,1868,1788,1796,5692100,1796
2012-02-28,1756,1774,1718,1767,5718000,1767
2012-02-29,1800,1831,1746,1751,4637600,1751
2012-03-01,1752,1772,1682,1696,4658600,1696
2012-03-02,1725,1734,1689,1707,3473100,1707
2012-03-05,1692,1692,1636,1642,5010500,1642
2012-03-06,1632,1644,1581,1592,6023600,1592
2012-03-07,1550,1593,1539,1574,6374100,1574
2012-03-08,1600,1623,1590,1600,3609900,1600
2012-03-09,1650,1718,1640,1687,6967800,1687
2012-03-12,1727,1755,1680,1683,5908200,1683
2012-03-13,1686,1735,1685,1697,3868000,1697
2012-03-14,1776,1810,1775,1801,6449600,1801
2012-03-15,1820,1858,1796,1814,5760100,1814
2012-03-16,1816,1829,1785,1825,4447900,1825
2012-03-19,1865,1875,1835,1871,4847200,1871
2012-03-21,1865,1865,1810,1832,4651800,1832
2012-03-22,1798,1821,1770,1793,4433700,1793
2012-03-23,1748,1772,1741,1751,3460200,1751
2012-03-26,1754,1805,1753,1792,3063700,1792
2012-03-27,1845,1855,1831,1846,3652200,1846
2012-03-28,1851,1856,1813,1831,2827200,1831
2012-03-29,1812,1825,1755,1777,3614300,1777
2012-03-30,1766,1809,1765,1778,3894100,1778
2012-04-02,1799,1828,1780,1786,3577000,1786
2012-04-03,1779,1802,1768,1801,2379000,1801
2012-04-04,1810,1817,1759,1760,4007600,1760
2012-04-05,1706,1747,1678,1725,4707300,1725
2012-04-06,1700,1709,1684,1698,2427300,1698
2012-04-09,1657,1683,1641,1647,2956100,1647
2012-04-10,1642,1682,1614,1621,4176900,1621
2012-04-11,1591,1592,1555,1578,4776500,1578
2012-04-12,1578,1624,1557,1616,4060400,1616
2012-04-13,1655,1672,1601,1617,3494700,1617
2012-04-16,1587,1642,1585,1601,3740300,1601
2012-04-17,1617,1630,1561,1571,3830700,1571
2012-04-18,1610,1634,1602,1618,2502600,1618
2012-04-19,1597,1647,1586,1610,3523300,1610
2012-04-20,1570,1575,1531,1557,7263200,1557
2012-04-23,1609,1624,1572,1597,6804000,1597
2012-04-24,1568,1591,1564,1576,2955500,1576
2012-04-25,1593,1599,1553,1560,3603400,1560
2012-04-26,1560,1564,1496,1508,6244400,1508
2012-04-27,1519,1559,1496,1511,6215900,1511
2012-05-01,1500,1506,1441,1450,3693500,1450
2012-05-02,1458,1470,1446,1451,2542300,1451
2012-05-07,1410,1414,1374,1385,4006800,1385
2012-05-08,1400,1421,1387,1400,2793600,1400
2012-05-09,1380,1389,1350,1361,3707200,1361
2012-05-10,1353,1397,1352,1371,4092100,1371
2012-05-11,1366,1374,1326,1343,4546900,1343
2012-05-14,1340,1369,1309,1318,4409900,1318
2012-05-15,1294,1300,1267,1287,3590300,1287
2012-05-16,1299,1329,1276,1297,3859900,1297
2012-05-17,1292,1377,1287,1368,5429000,1368
2012-05-18,1315,1316,1272,1291,4345700,1291
2012-05-21,1297,1314,1273,1296,2477800,1296
2012-05-22,1320,1347,1314,1330,2928400,1330
2012-05-23,1341,1343,1289,1298,2768000,1298
2012-05-24,1288,1314,1274,1307,2229900,1307
2012-05-25,1307,1307,1247,1256,4334500,1256
2012-05-28,1261,1265,1227,1240,2577500,1240
2012-05-29,1239,1283,1222,1278,3920800,1278
2012-05-30,1279,1286,1246,1284,2677900,1284
2012-05-31,1255,1276,1227,1272,3501000,1272
2012-06-01,1250,1260,1217,1226,3119900,1226
2012-06-04,1196,1203,1163,1175,4260700,1175
2012-06-05,1178,1231,1175,1223,3213500,1223
2012-06-06,1232,1269,1213,1258,3368600,1258
2012-06-07,1290,1306,1284,1289,2932800,1289
2012-06-08,1304,1305,1245,1254,4917700,1254
2012-06-11,1284,1310,1264,1291,2864700,1291
2012-06-12,1255,1271,1228,1269,3667200,1269
2012-06-13,1284,1297,1265,1277,3163800,1277
2012-06-14,1269,1288,1260,1280,2046300,1280
2012-06-15,1310,1320,1279,1286,3228800,1286
2012-06-18,1334,1353,1331,1335,3171900,1335
2012-06-19,1324,1326,1296,1304,2996300,1304
2012-06-20,1326,1345,1325,1342,2858700,1342
2012-06-21,1356,1371,1344,1348,2848100,1348
2012-06-22,1319,1336,1308,1321,3591200,1321
2012-06-25,1345,1349,1303,1308,1660300,1308
2012-06-26,1291,1291,1246,1277,4554400,1277
2012-06-27,1279,1286,1263,1282,1977100,1282
2012-06-28,1312,1319,1295,1305,2518200,1305
2012-06-29,1294,1337,1281,1318,3239700,1318
2012-07-02,1348,1349,1310,1318,2028000,1318
2012-07-03,1301,1322,1282,1295,3669500,1295
2012-07-04,1300,1304,1214,1227,11288700,1227
2012-07-05,1238,1259,1225,1237,4602700,1237
2012-07-06,1232,1237,1206,1221,4956900,1221
2012-07-09,1201,1203,1181,1197,3545000,1197
2012-07-10,1227,1228,1184,1187,3556300,1187
2012-07-11,1182,1192,1170,1179,3559900,1179
2012-07-12,1175,1189,1136,1142,4664900,1142
2012-07-13,1138,1175,1136,1153,3473300,1153
2012-07-17,1155,1159,1086,1090,5591100,1090
2012-07-18,1091,1106,1083,1087,3953900,1087
2012-07-19,1093,1110,1084,1093,4331500,1093
2012-07-20,1079,1081,1041,1058,4111500,1058
2012-07-23,1018,1052,1015,1025,4457000,1025
2012-07-24,1020,1035,1006,1018,3502300,1018
2012-07-25,1012,1012,956,969,5186100,969
2012-07-26,984,1039,962,991,9877400,991
2012-07-27,1036,1090,1030,1061,9417900,1061
2012-07-30,1080,1089,1011,1029,6539800,1029
2012-07-31,999,1050,985,1039,4946600,1039
2012-08-01,1022,1022,997,1009,3850200,1009
2012-08-02,1019,1052,1015,1027,3350800,1027
2012-08-03,998,1004,965,988,4130100,988
2012-08-06,1024,1027,989,995,3463900,995
2012-08-07,988,1050,986,1044,4999300,1044
2012-08-08,1062,1113,1053,1066,8107500,1066
2012-08-09,1057,1121,1052,1109,8107100,1109
2012-08-10,1109,1141,1093,1103,5796700,1103
2012-08-13,1088,1113,1073,1100,3998300,1100
2012-08-14,1102,1122,1069,1090,4640200,1090
2012-08-15,1097,1100,1028,1047,5770800,1047
2012-08-16,1052,1101,1050,1098,4990200,1098
2012-08-17,1114,1160,1112,1144,5879900,1144
2012-08-20,1160,1175,1127,1142,3902200,1142
2012-08-21,1136,1144,1125,1135,2454900,1135
2012-08-22,1123,1124,1090,1103,4731200,1103
2012-08-23,1092,1116,1074,1111,3611300,1111
2012-08-24,1083,1090,1066,1072,4168100,1072
2012-08-27,1081,1092,1064,1072,2566000,1072
2012-08-28,1092,1092,1039,1046,4977900,1046
2012-08-29,1054,1078,1053,1069,3299700,1069
2012-08-30,1063,1064,1022,1039,5103200,1039
2012-08-31,1016,1016,987,988,6146100,988
2012-09-03,989,1001,941,984,8259900,984
2012-09-04,993,1020,992,1007,5912600,1007
2012-09-05,992,995,963,976,5120600,976
2012-09-06,976,984,943,956,5938300,956
2012-09-07,999,1058,991,1058,10242200,1058
2012-09-10,1060,1096,1050,1074,5341100,1074
2012-09-11,1070,1089,1036,1051,5572700,1051
2012-09-12,1062,1093,1055,1092,5126700,1092
2012-09-13,1091,1123,1074,1113,4160100,1113
2012-09-14,1150,1187,1146,1170,7491200,1170
2012-09-18,1146,1165,1117,1156,4685600,1156
2012-09-19,1153,1200,1141,1180,5781800,1180
2012-09-20,1160,1201,1146,1164,6405100,1164
2012-09-21,1162,1162,1112,1125,6249700,1125
2012-09-24,1103,1105,1063,1070,5726600,1070
2012-09-25,1055,1080,1037,1072,6503900,1072
2012-09-26,1042,1055,1030,1039,3881500,1039
2012-09-27,1030,1057,1022,1037,4905800,1037
2012-09-28,1061,1070,1024,1030,5654300,1030
2012-10-01,1010,1017,985,1004,5047100,1004
2012-10-02,1020,1047,1015,1022,4955000,1022
2012-10-03,1030,1030,998,1010,4699900,1010
2012-10-04,1020,1040,998,1018,3336200,1018
2012-10-05,1030,1041,1013,1037,3967700,1037
2012-10-09,1030,1046,1007,1013,4361000,1013
2012-10-10,990,1000,968,994,5692600,994
2012-10-11,979,1010,972,985,4825700,985
2012-10-12,985,1014,984,1003,5400500,1003
2012-10-15,996,1060,996,1039,6116200,1039
2012-10-16,1061,1079,1052,1069,4571400,1069
2012-10-17,1082,1093,1077,1080,5246600,1080
2012-10-18,1093,1120,1087,1100,5425500,1100
2012-10-19,1093,1117,1088,1096,3990800,1096
2012-10-22,1070,1105,1056,1098,4831100,1098
2012-10-23,1124,1127,1068,1078,4397700,1078
2012-10-24,1048,1100,1045,1079,9826600,1079
2012-10-25,1128,1139,1102,1136,6633100,1136
2012-10-26,1136,1172,1124,1128,9723600,1128
2012-10-29,1115,1127,1080,1091,5940200,1091
2012-10-30,1092,1114,1070,1072,3732200,1072
2012-10-31,1085,1130,1084,1125,5544400,1125
2012-11-01,1132,1134,1108,1130,3724400,1130
2012-11-02,1158,1159,1138,1155,3742900,1155
2012-11-05,1135,1154,1131,1152,2413400,1152
2012-11-06,1142,1144,1123,1136,3011500,1136
2012-11-07,1155,1168,1140,1149,4081300,1149
2012-11-08,1121,1130,1104,1117,3024500,1117
2012-11-09,1091,1095,1076,1092,3866500,1092
2012-11-12,1082,1090,1071,1071,2643600,1071
2012-11-13,1076,1090,1068,1086,2826100,1086
2012-11-14,1085,1085,1055,1066,2802400,1066
2012-11-15,1070,1157,1051,1143,8133300,1143
2012-11-16,1173,1210,1172,1202,7027900,1202
2012-11-19,1262,1263,1208,1224,5802100,1224
2012-11-20,1241,1248,1203,1213,3691100,1213
2012-11-21,1230,1242,1210,1238,4527500,1238
2012-11-22,1280,1289,1263,1286,6134500,1286
2012-11-26,1316,1330,1301,1306,5107700,1306
2012-11-27,1294,1294,1256,1267,6610700,1267
2012-11-28,1249,1262,1216,1218,4823900,1218
2012-11-29,1260,1267,1240,1261,3872700,1261
2012-11-30,1271,1287,1246,1277,4777700,1277
2012-12-03,1290,1320,1265,1305,5317800,1305
2012-12-04,1296,1299,1274,1280,4087100,1280
2012-12-05,1267,1305,1262,1282,4051500,1282
2012-12-06,1300,1310,1288,1298,3523400,1298
2012-12-07,1301,1317,1295,1310,2994700,1310
2012-12-10,1318,1347,1303,1307,3336900,1307
2012-12-11,1306,1327,1302,1321,3072100,1321
2012-12-12,1338,1355,1333,1344,3717800,1344
2012-12-13,1370,1383,1361,1362,4658200,1362
2012-12-14,1357,1377,1337,1374,5456000,1374
2012-12-17,1422,1448,1400,1419,6490500,1419
2012-12-18,1435,1458,1415,1447,4531600,1447
2012-12-19,1475,1527,1470,1520,5471700,1520
2012-12-20,1480,1536,1470,1514,6465100,1514
2012-12-21,1544,1548,1495,1505,5120800,1505
2012-12-25,1543,1555,1513,1519,2307600,1519
2012-12-26,1550,1589,1535,1584,3903600,1584
2012-12-27,1624,1638,1587,1600,5032300,1600
2012-12-28,1597,1622,1582,1602,3324200,1602
2013-01-04,1683,1687,1642,1650,4635900,1650
2013-01-07,1662,1667,1628,1634,3514000,1634
2013-01-08,1599,1609,1538,1544,7547900,1544
2013-01-09,1500,1566,1497,1548,7201200,1548
2013-01-10,1577,1647,1574,1625,7289000,1625
2013-01-11,1700,1701,1661,1678,7409900,1678
2013-01-15,1685,1698,1664,1672,5376700,1672
2013-01-16,1670,1672,1613,1626,5348700,1626
2013-01-17,1656,1656,1567,1598,6558600,1598
2013-01-18,1665,1699,1656,1694,5648300,1694
2013-01-21,1697,1743,1664,1707,5223600,1707
2013-01-22,1707,1724,1666,1696,5007100,1696
2013-01-23,1664,1682,1627,1634,4379500,1634
2013-01-24,1600,1693,1599,1688,4803900,1688
2013-01-25,1734,1753,1726,1747,4996000,1747
2013-01-28,1765,1804,1762,1765,4839900,1765
2013-01-29,1770,1833,1768,1815,4778500,1815
2013-01-30,1815,1875,1792,1859,5814700,1859
2013-01-31,1899,1967,1867,1949,8595200,1949
2013-02-01,1999,2093,1994,2045,9944300,2045
2013-02-04,2145,2275,2130,2272,13307000,2272
2013-02-05,2184,2256,2148,2151,10811100,2151
2013-02-06,2257,2260,2203,2216,6357400,2216
2013-02-07,2200,2219,2135,2182,6326000,2182
2013-02-08,2155,2194,2115,2119,4816200,2119
2013-02-12,2219,2219,2162,2162,4602500,2162
2013-02-13,2140,2148,2080,2094,4334900,2094
2013-02-14,2080,2112,2050,2056,5799100,2056
2013-02-15,2055,2088,2003,2083,6447600,2083
2013-02-18,2086,2092,2037,2054,5068700,2054
2013-02-19,2031,2118,2016,2071,7043800,2071
2013-02-20,2085,2097,2028,2036,5436800,2036
2013-02-21,2015,2016,1938,1946,6648800,1946
2013-02-22,1940,1978,1900,1939,6919600,1939
2013-02-25,2017,2116,2008,2105,9631300,2105
2013-02-26,2030,2076,2008,2014,7477300,2014
2013-02-27,2040,2042,1970,1976,4968900,1976
2013-02-28,2009,2022,1965,1987,5274400,1987
2013-03-01,1983,2045,1974,2012,5832900,2012
2013-03-04,2025,2033,1936,1945,5795000,1945
2013-03-05,1910,1944,1878,1887,7583500,1887
2013-03-06,1925,1950,1867,1904,6558800,1904
2013-03-07,1905,1966,1880,1886,8185700,1886
2013-03-08,1900,1928,1899,1927,6543000,1927
2013-03-11,1953,2035,1950,1986,6953600,1986
2013-03-12,2040,2076,1989,2007,8372600,2007
2013-03-13,1998,2044,1991,2015,4448100,2015
2013-03-14,2016,2016,1947,1958,8057900,1958
2013-03-15,1969,1997,1917,1952,6774200,1952
2013-03-18,1902,1915,1871,1876,5719400,1876
2013-03-19,1888,1917,1886,1905,3804900,1905
2013-03-21,1931,1966,1895,1906,5797700,1906
2013-03-22,1891,1894,1837,1837,5085900,1837
2013-03-25,1867,1870,1826,1838,3998200,1838
2013-03-26,1831,1835,1788,1789,4785500,1789
2013-03-27,1810,1864,1801,1854,5872000,1854
2013-03-28,1855,1868,1804,1805,5705900,1805
2013-03-29,1790,1831,1767,1767,4374100,1767
2013-04-01,1751,1791,1741,1756,3305500,1756
2013-04-02,1729,1749,1691,1694,6503900,1694
2013-04-03,1640,1649,1603,1646,8911800,1646
2013-04-04,1617,1735,1615,1733,8979600,1733
2013-04-05,1893,1896,1749,1753,9560700,1753
2013-04-08,1828,1884,1814,1869,8811600,1869
2013-04-09,1901,1940,1891,1900,6701300,1900
2013-04-10,1897,2013,1896,1977,8201800,1977
2013-04-11,2010,2030,1961,1996,5159700,1996
2013-04-12,2018,2034,1992,2030,5281100,2030
2013-04-15,1990,1991,1923,1952,4615200,1952
2013-04-16,1897,1937,1883,1891,5686000,1891
2013-04-17,1912,1943,1899,1932,3253100,1932
2013-04-18,1905,1949,1870,1909,4653000,1909
2013-04-19,1917,1936,1879,1925,3467600,1925
2013-04-22,1965,1989,1950,1955,3590600,1955
2013-04-23,1943,2037,1933,1964,8880600,1964
2013-04-24,2035,2108,2033,2094,11510900,2094
2013-04-25,2131,2150,2093,2099,5244800,2099
2013-04-26,2125,2130,2059,2077,4319300,2077
2013-04-30,2082,2123,2065,2108,3542700,2108
2013-05-01,2102,2113,2073,2084,2427500,2084
2013-05-02,2027,2031,1972,1985,6509500,1985
2013-05-07,2043,2054,2024,2046,3463300,2046
2013-05-08,2055,2098,2035,2063,3550500,2063
2013-05-09,2089,2134,2071,2071,4234600,2071
2013-05-10,2130,2198,2125,2149,5221300,2149
2013-05-13,2192,2215,2165,2177,4410100,2177
2013-05-14,2200,2225,2141,2179,4685700,2179
2013-05-15,2205,2270,2165,2181,4885000,2181
2013-05-16,2198,2228,2157,2177,4152400,2177
2013-05-17,2177,2190,2146,2171,3217300,2171
2013-05-20,2203,2354,2197,2324,7867400,2324
2013-05-21,2374,2548,2374,2510,9992200,2510
2013-05-22,2550,2626,2497,2521,7383900,2521
2013-05-23,2550,2759,2400,2408,14147100,2408
2013-05-24,2470,2526,2287,2382,8831400,2382
2013-05-27,2326,2420,2239,2245,6499800,2245
2013-05-28,2246,2331,2228,2280,5195300,2280
2013-05-29,2380,2382,2263,2268,4885500,2268
2013-05-30,2211,2249,2084,2126,9466800,2126
2013-05-31,2141,2190,2121,2145,4254900,2145
2013-06-03,2114,2124,2028,2055,6070800,2055
2013-06-04,2040,2151,2020,2128,4979500,2128
2013-06-05,2125,2144,2058,2066,3917300,2066
2013-06-06,2016,2093,1992,2039,5550700,2039
2013-06-07,1991,1999,1857,1909,8723900,1909
2013-06-10,1980,2069,1957,2064,5976600,2064
2013-06-11,2069,2084,1972,1999,5724400,1999
2013-06-12,1945,2041,1928,2014,3910300,2014
2013-06-13,1955,1990,1922,1941,4100200,1941
2013-06-14,2016,2037,1948,1954,5107600,1954
2013-06-17,1935,2033,1933,2023,3464700,2023
2013-06-18,2035,2149,2018,2048,4491900,2048
2013-06-19,2148,2196,2125,2179,7173400,2179
2013-06-20,2205,2274,2201,2216,8044000,2216
2013-06-21,2127,2164,2051,2153,7570900,2153
2013-06-24,2201,2214,2081,2106,4392100,2106
2013-06-25,2107,2107,2006,2065,4946600,2065
2013-06-26,2130,2149,2059,2062,5169700,2062
2013-06-27,2092,2142,2085,2110,4428300,2110
2013-06-28,2180,2215,2166,2177,5271900,2177
2013-07-01,2214,2244,2142,2237,4537600,2237
2013-07-02,2252,2348,2250,2308,5765400,2308
2013-07-03,2332,2347,2298,2316,3473500,2316
2013-07-04,2279,2285,2234,2254,4104500,2254
2013-07-05,2275,2344,2273,2325,3564200,2325
2013-07-08,2374,2383,2288,2290,4400500,2290
2013-07-09,2335,2385,2326,2366,4438000,2366
2013-07-10,2374,2408,2369,2392,4569000,2392
2013-07-11,2368,2430,2368,2425,4233500,2425
2013-07-12,2434,2520,2432,2483,5678600,2483
2013-07-16,2523,2562,2522,2542,4227800,2542
2013-07-17,2518,2585,2510,2561,4027200,2561
2013-07-18,2561,2573,2504,2531,5080700,2531
2013-07-19,2553,2580,2487,2535,3899300,2535
2013-07-22,2541,2557,2509,2536,2955100,2536
2013-07-23,2558,2633,2554,2621,5817100,2621
2013-07-24,2604,2629,2571,2620,4112600,2620
2013-07-25,2632,2639,2565,2577,4853900,2577
2013-07-26,2527,2537,2302,2363,13304400,2363
2013-07-29,2250,2282,2206,2222,8179600,2222
2013-07-30,2223,2307,2222,2295,5473700,2295
2013-07-31,2249,2268,2206,2217,5144900,2217
2013-08-01,2222,2272,2180,2247,5628900,2247
2013-08-02,2312,2378,2291,2373,5096800,2373
2013-08-05,2370,2379,2316,2321,3153700,2321
2013-08-06,2336,2357,2305,2357,3007100,2357
2013-08-07,2310,2321,2260,2296,3710300,2296
2013-08-08,2273,2307,2229,2248,3620000,2248
2013-08-09,2272,2311,2261,2281,3529600,2281
2013-08-12,2280,2299,2255,2282,2337800,2282
2013-08-13,2311,2364,2305,2346,3638600,2346
2013-08-14,2388,2437,2364,2416,4998500,2416
2013-08-15,2382,2423,2347,2353,2997800,2353
2013-08-16,2333,2365,2314,2328,2845500,2328
2013-08-19,2320,2326,2276,2311,2239700,2311
2013-08-20,2287,2320,2250,2257,2597700,2257
2013-08-21,2246,2246,2190,2218,2945400,2218
2013-08-22,2193,2199,2136,2153,3976800,2153
2013-08-23,2203,2243,2185,2207,4092500,2207
2013-08-26,2228,2243,2201,2214,2191000,2214
2013-08-27,2200,2239,2187,2210,1984300,2210
2013-08-28,2171,2177,2125,2161,2656200,2161
2013-08-29,2150,2184,2134,2179,1780800,2179
2013-08-30,2200,2240,2157,2178,3184300,2178
2013-09-02,2179,2234,2179,2222,2251600,2222
2013-09-03,2256,2322,2256,2314,3199300,2314
2013-09-04,2310,2363,2298,2358,2514700,2358
2013-09-05,2375,2446,2373,2416,4693400,2416
2013-09-06,2425,2473,2414,2438,4573800,2438
2013-09-09,2527,2544,2494,2537,4939100,2537
2013-09-10,2547,2639,2541,2614,5033000,2614
2013-09-11,2643,2647,2586,2613,5088300,2613
2013-09-12,2612,2642,2589,2641,3489000,2641
2013-09-13,2623,2666,2581,2595,5000000,2595
2013-09-17,2613,2680,2611,2635,3507800,2635
2013-09-18,2639,2658,2601,2602,2646000,2602
2013-09-19,2658,2740,2642,2740,5826600,2740
2013-09-20,2720,2788,2700,2733,4672000,2733
2013-09-24,2730,2802,2710,2757,4182500,2757
2013-09-25,2740,2757,2659,2668,4936900,2668
2013-09-26,2649,2695,2617,2694,3529400,2694
2013-09-27,2713,2762,2660,2680,3937600,2680
2013-09-30,2612,2630,2539,2543,5734500,2543
2013-10-01,2552,2560,2508,2509,5170100,2509
2013-10-02,2519,2550,2442,2458,4998000,2458
2013-10-03,2474,2523,2467,2481,3610900,2481
2013-10-04,2432,2438,2403,2422,3541500,2422
2013-10-07,2420,2440,2386,2402,2617600,2402
2013-10-08,2372,2412,2347,2405,3256300,2405
2013-10-09,2380,2467,2359,2465,3238900,2465
2013-10-10,2470,2494,2426,2487,4172700,2487
2013-10-11,2550,2568,2537,2553,4063900,2553
2013-10-15,2554,2565,2495,2507,3530300,2507
2013-10-16,2508,2542,2495,2516,2260000,2516
2013-10-17,2555,2569,2519,2544,2330800,2544
2013-10-18,2508,2522,2432,2474,6169400,2474
2013-10-21,2493,2497,2454,2459,2902900,2459
2013-10-22,2468,2473,2444,2457,2950700,2457
2013-10-23,2482,2484,2428,2440,5321100,2440
2013-10-24,2400,2462,2386,2454,2908800,2454
2013-10-25,2462,2463,2332,2350,7485400,2350
2013-10-28,2350,2356,2255,2320,9913700,2320
2013-10-29,2300,2300,2270,2275,4138200,2275
2013-10-30,2292,2308,2265,2270,4574900,2270
2013-10-31,2283,2284,2219,2222,4121200,2222
2013-11-01,2236,2245,2175,2198,3811500,2198
2013-11-05,2205,2238,2175,2193,3683500,2193
2013-11-06,2182,2248,2177,2230,5118800,2230
2013-11-07,2211,2234,2179,2200,4217400,2200
2013-11-08,2166,2198,2160,2191,3375400,2191
2013-11-11,2219,2228,2194,2205,2922100,2205
2013-11-12,2214,2302,2210,2301,6216900,2301
2013-11-13,2290,2338,2287,2302,4329400,2302
2013-11-14,2311,2339,2287,2318,4820700,2318
2013-11-15,2332,2380,2332,2368,4985700,2368
2013-11-18,2410,2420,2365,2375,4170700,2375
2013-11-19,2369,2382,2348,2361,2800900,2361
2013-11-20,2362,2372,2342,2357,2479000,2357
2013-11-21,2355,2378,2345,2366,3193400,2366
2013-11-22,2375,2380,2313,2324,4361400,2324
2013-11-25,2334,2336,2280,2298,3850400,2298
2013-11-26,2287,2293,2250,2254,4090800,2254
2013-11-27,2252,2300,2238,2278,3076300,2278
2013-11-28,2300,2327,2292,2308,2686100,2308
2013-11-29,2292,2306,2272,2302,3787000,2302
2013-12-02,2340,2344,2307,2322,3148900,2322
2013-12-03,2337,2347,2310,2310,2876000,2310
2013-12-04,2289,2332,2280,2311,3981400,2311
2013-12-05,2310,2316,2245,2253,4120200,2253
2013-12-06,2253,2259,2220,2251,3864100,2251
2013-12-09,2280,2298,2277,2292,2536600,2292
2013-12-10,2292,2341,2289,2321,3078300,2321
2013-12-11,2316,2345,2310,2335,3425300,2335
2013-12-12,2325,2327,2275,2303,2981200,2303
2013-12-13,2319,2353,2301,2330,6161200,2330
2013-12-16,2318,2337,2286,2325,4577100,2325
2013-12-17,2315,2372,2313,2365,4083600,2365
2013-12-18,2349,2385,2348,2385,3882900,2385
2013-12-19,2401,2427,2391,2410,5455400,2410
2013-12-20,2418,2449,2388,2395,4484100,2395
2013-12-24,2401,2415,2376,2387,2551100,2387
2013-12-25,2384,2406,2374,2397,2457400,2397
2013-12-26,2406,2454,2400,2431,3540800,2431
2013-12-27,2440,2519,2434,2510,5564100,2510
2013-12-30,2512,2531,2494,2502,4207600,2502
2014-01-06,2500,2504,2441,2470,4519900,2470
2014-01-07,2460,2482,2422,2434,3615500,2434
2014-01-08,2443,2448,2411,2433,3967200,2433
2014-01-09,2416,2416,2359,2374,5950000,2374
2014-01-10,2354,2392,2347,2359,4303500,2359
2014-01-14,2320,2320,2281,2295,5077300,2295
2014-01-15,2312,2324,2285,2311,4486600,2311
2014-01-16,2322,2335,2306,2320,4863600,2320
2014-01-17,2322,2344,2307,2333,4676000,2333
2014-01-20,2343,2399,2336,2378,5630400,2378
2014-01-21,2391,2428,2387,2388,3565200,2388
2014-01-22,2396,2433,2396,2420,4409700,2420
2014-01-23,2420,2420,2354,2357,4740200,2357
2014-01-24,2332,2344,2296,2310,4031400,2310
2014-01-27,2255,2259,2231,2243,3812800,2243
2014-01-28,2258,2265,2230,2232,2851500,2232
2014-01-29,2250,2288,2243,2264,2575000,2264
2014-01-30,2242,2246,2197,2235,3871400,2235
2014-01-31,2252,2279,2150,2160,7200800,2160
2014-02-03,2132,2136,2062,2066,5403300,2066
2014-02-04,1991,2015,1966,1969,6275000,1969
2014-02-05,2014,2035,1977,2027,6826100,2027
2014-02-06,2028,2043,2002,2012,3340300,2012
2014-02-07,2046,2097,2045,2080,3447600,2080
2014-02-10,2134,2137,2086,2103,2879500,2103
2014-02-12,2131,2133,2099,2108,3387100,2108
2014-02-13,2113,2125,2073,2080,3019800,2080
2014-02-14,2080,2088,2012,2027,3905500,2027
2014-02-17,2027,2059,1997,2050,3343300,2050
2014-02-18,2081,2154,2081,2140,5552000,2140
2014-02-19,2121,2124,2081,2093,3329600,2093
2014-02-20,2070,2106,2048,2059,4344300,2059
2014-02-21,2075,2117,2074,2105,2899700,2105
2014-02-24,2114,2142,2072,2094,3461200,2094
2014-02-25,2122,2133,2115,2126,2987500,2126
2014-02-26,2118,2142,2104,2118,2746300,2118
2014-02-27,2110,2120,2072,2089,3500400,2089
2014-02-28,2084,2088,2056,2070,2511600,2070
2014-03-03,2049,2060,2005,2054,3338400,2054
2014-03-04,2032,2072,2023,2062,2259300,2062
2014-03-05,2075,2078,2052,2056,2268200,2056
2014-03-06,2069,2116,2058,2102,4324200,2102
2014-03-07,2115,2126,2051,2075,4272200,2075
2014-03-10,2062,2069,2019,2028,3955900,2028
2014-03-11,2030,2037,1990,2007,4695500,2007
2014-03-12,1986,1990,1937,1952,5300100,1952
2014-03-13,1953,1962,1933,1947,3031000,1947
2014-03-14,1928,1933,1896,1911,4876200,1911
2014-03-17,1910,1910,1870,1892,3239400,1892
2014-03-18,1921,1927,1889,1902,2698300,1902
2014-03-19,1910,1924,1878,1899,3303600,1899
2014-03-20,1903,1907,1851,1863,4289800,1863
2014-03-24,1864,1907,1820,1847,5420400,1847
2014-03-25,1842,1850,1785,1845,6654100,1845
2014-03-26,1851,1866,1827,1851,3758500,1851
2014-03-27,1826,1884,1806,1879,4560200,1879
2014-03-28,1876,1908,1851,1902,3127800,1902
2014-03-31,1926,1956,1917,1943,4215800,1943
2014-04-01,1940,1968,1912,1952,4117800,1952
2014-04-02,1966,1998,1957,1976,4204800,1976
2014-04-03,1983,1997,1960,1972,2763900,1972
2014-04-04,1969,1993,1960,1979,2139700,1979
2014-04-07,1959,1964,1935,1954,2475800,1954
2014-04-08,1943,1954,1926,1931,2897200,1931
2014-04-09,1900,1906,1874,1889,3246300,1889
2014-04-10,1916,1962,1912,1917,3855600,1917
2014-04-11,1882,1900,1869,1884,3465200,1884
2014-04-14,1866,1893,1856,1876,2135500,1876
2014-04-15,1888,1932,1888,1911,3153600,1911
2014-04-16,1916,1972,1915,1965,3434700,1965
2014-04-17,1966,1979,1935,1965,3131600,1965
2014-04-18,1965,1980,1951,1962,1676900,1962
2014-04-21,1965,1987,1946,1953,1773700,1953
2014-04-22,1952,1954,1902,1905,3484700,1905
2014-04-23,1904,1911,1878,1911,2875800,1911
2014-04-24,1916,1951,1888,1917,4402900,1917
2014-04-25,1917,1927,1875,1913,2894500,1913
2014-04-28,1914,1917,1884,1907,1931800,1907
2014-04-30,1919,1935,1884,1890,2412200,1890
2014-05-01,1880,1910,1878,1907,2463500,1907
2014-05-02,1905,1916,1880,1895,1739200,1895
2014-05-07,1880,1881,1833,1842,3329800,1842
2014-05-08,1855,1888,1842,1866,3232000,1866
2014-05-09,1851,1879,1844,1860,3021600,1860
2014-05-12,1861,1873,1842,1849,2171500,1849
2014-05-13,1868,1909,1862,1893,3065200,1893
2014-05-14,1899,1910,1876,1902,1584400,1902
2014-05-15,1886,1897,1874,1894,1843400,1894
2014-05-16,1876,1879,1853,1876,2522900,1876
2014-05-19,1875,1879,1847,1858,2155300,1858
2014-05-20,1863,1865,1836,1850,2799100,1850
2014-05-21,1838,1854,1830,1845,2410400,1845
2014-05-22,1854,1898,1854,1891,3239000,1891
2014-05-23,1894,1900,1875,1877,3342500,1877
2014-05-26,1905,1936,1901,1905,3091800,1905
2014-05-27,1908,1962,1907,1945,4217400,1945
2014-05-28,1946,1960,1931,1936,2259800,1936
2014-05-29,1931,1941,1909,1934,2072200,1934
2014-05-30,1940,1947,1915,1931,2503100,1931
2014-06-02,1945,1974,1945,1967,2804300,1967
2014-06-03,1993,1999,1968,1970,2681100,1970
2014-06-04,2000,2050,1987,2032,5815700,2032
2014-06-05,2039,2048,2016,2030,3061200,2030
2014-06-06,2033,2056,2033,2045,2685000,2045
2014-06-09,2061,2070,2034,2036,1984700,2036
2014-06-10,2041,2064,2031,2033,2351200,2033
2014-06-11,2008,2033,1993,2032,3029100,2032
2014-06-12,2016,2045,2002,2035,2400200,2035
2014-06-13,2025,2047,2018,2043,2885500,2043
2014-06-16,2031,2036,2008,2027,2153800,2027
2014-06-17,2025,2035,2013,2017,2374600,2017
2014-06-18,2017,2026,2005,2018,2147400,2018
2014-06-19,2025,2082,2024,2058,5383300,2058
2014-06-20,2065,2087,2063,2086,4960500,2086
2014-06-23,2100,2129,2094,2117,4542000,2117
2014-06-24,2107,2112,2081,2100,2493000,2100
2014-06-25,2100,2109,2089,2097,2261600,2097
2014-06-26,2107,2123,2099,2105,2403000,2105
2014-06-27,2114,2125,2066,2089,3337900,2089
2014-06-30,2085,2097,2077,2091,1977200,2091
2014-07-01,2097,2138,2085,2122,3668300,2122
2014-07-02,2136,2150,2130,2144,2618500,2144
2014-07-03,2138,2145,2123,2129,1918000,2129
2014-07-04,2140,2153,2135,2141,1985700,2141
2014-07-07,2137,2141,2120,2128,2072000,2128
2014-07-08,2114,2116,2085,2108,2778000,2108
2014-07-09,2091,2108,2077,2096,2747100,2096
2014-07-10,2119,2123,2077,2084,3106500,2084
2014-07-11,2067,2074,2052,2072,2542400,2072
2014-07-14,2063,2097,2062,2088,2551800,2088
2014-07-15,2099,2119,2095,2099,2783400,2099
2014-07-16,2100,2139,2099,2121,3836200,2121
2014-07-17,2115,2132,2106,2110,2732500,2110
2014-07-18,2074,2081,2058,2076,3435200,2076
2014-07-22,2087,2134,2087,2127,4256400,2127
2014-07-23,2135,2152,2118,2124,2662300,2124
2014-07-24,2119,2131.5,2095.5,2103.5,2518200,2103.5
2014-07-25,2106.5,2138,2092,2134.5,2482900,2134.5
2014-07-28,2134.5,2182,2132,2166,3490400,2166
2014-07-29,2169.5,2208,2167.5,2189.5,4194700,2189.5
2014-07-30,2186,2206.5,2135.5,2180,6005700,2180
2014-07-31,2210,2242,2184,2187,4821700,2187
2014-08-01,2160,2193,2150,2170,3471000,2170
2014-08-04,2153.5,2153.5,2126,2130,3563500,2130
2014-08-05,2125,2128.5,2078,2086.5,4467400,2086.5
2014-08-06,2066,2070,2040,2057,3239000,2057
2014-08-07,2059,2066.5,2019.5,2051.5,3133500,2051.5
2014-08-08,2030,2037.5,1989.5,2008.5,4144100,2008.5
2014-08-11,2032,2036,2014,2027,3343200,2027
2014-08-12,2036.5,2074,2034.5,2039.5,3229500,2039.5
2014-08-13,2024,2065,2022,2057,2180200,2057
2014-08-14,2081.5,2127,2079,2098,4606500,2098
2014-08-15,2091.5,2118.5,2091.5,2107.5,2352900,2107.5
2014-08-18,2106.5,2119,2090,2105.5,1939700,2105.5
2014-08-19,2132.5,2158.5,2125,2141.5,3506800,2141.5
2014-08-20,2147.5,2178,2142.5,2150.5,3291600,2150.5
2014-08-21,2167,2181.5,2164,2175,3076300,2175
2014-08-22,2176,2178.5,2140.5,2148,3325300,2148
2014-08-25,2161.5,2163,2130.5,2146,2475300,2146
2014-08-26,2139.5,2149.5,2114.5,2126,2403500,2126
2014-08-27,2130,2156,2130,2146.5,2414400,2146.5
2014-08-28,2133,2134.5,2107,2116.5,2570300,2116.5
2014-08-29,2109,2113,2095,2104,2066800,2104
2014-09-01,2115,2140.5,2108.5,2115,2060500,2115
2014-09-02,2115,2143.5,2098,2130.5,2399100,2130.5
2014-09-03,2150,2164,2143.5,2148,3210200,2148
2014-09-04,2146.5,2148,2116,2125,3001500,2125
2014-09-05,2144.5,2145,2126.5,2128,2014500,2128
2014-09-08,2136.5,2140,2116,2123.5,2476700,2123.5
2014-09-09,2142,2157,2129.5,2129.5,1966300,2129.5
2014-09-10,2120,2142.5,2112.5,2133.5,2066200,2133.5
2014-09-11,2165.5,2173,2151.5,2159,2536200,2159
2014-09-12,2159,2166,2143.5,2151.5,2565900,2151.5
2014-09-16,2157.5,2160,2128.5,2149.5,2645700,2149.5
2014-09-17,2163,2224,2160,2162,4240600,2162
2014-09-18,2202.5,2211,2183,2197,4065000,2197
2014-09-19,2224,2277.5,2215,2270,7446700,2270
2014-09-22,2295,2318.5,2248.5,2257,3341600,2257
2014-09-24,2225.5,2241,2221,2232.5,2766200,2232.5
2014-09-25,2253,2265,2242,2252.5,2795300,2252.5
2014-09-26,2211,2239.5,2202,2234,1840900,2234
2014-09-29,2250.5,2255,2216,2223.5,2082600,2223.5
2014-09-30,2220,2221,2166.5,2188.5,3433500,2188.5
2014-10-01,2183,2186.5,2145,2148,4401200,2148
2014-10-02,2117.5,2122,2084.5,2090,4055800,2090
2014-10-03,2076,2083.5,2051,2074.5,3149100,2074.5
2014-10-06,2113,2120,2079.5,2079.5,2277900,2079.5
2014-10-07,2071,2075,2056,2065,2408800,2065
2014-10-08,2047,2064.5,2045.5,2055.5,2902800,2055.5
2014-10-09,2057.5,2069.5,2033,2040,2471700,2040
2014-10-10,2011,2020,1988.5,2015.5,3381200,2015.5
2014-10-14,1985,1985,1951.5,1973.5,3914100,1973.5
2014-10-15,1993,1993,1950,1975,3410000,1975
2014-10-16,1940,1940,1905,1919,4055700,1919
2014-10-17,1915,1918,1885,1893,3173900,1893
2014-10-20,1930.5,1947,1918,1933.5,3058900,1933.5
2014-10-21,1956.5,1960.5,1908,1921,2910000,1921
2014-10-22,1949.5,1963,1932,1954,2720000,1954
2014-10-23,1953.5,1970.5,1941,1956.5,1942300,1956.5
2014-10-24,1981,1988.5,1956.5,1959,1945000,1959
2014-10-27,1962.5,1978,1958,1965,2566900,1965
2014-10-28,1948,2045.5,1937.5,2013.5,6900300,2013.5
2014-10-29,2079,2136,2072,2119,8614100,2119
2014-10-30,2120,2143.5,2104,2118.5,4311100,2118.5
2014-10-31,2140.5,2186,2113.5,2176,5523500,2176
2014-11-04,2369.5,2370,2260,2261,8249500,2261
2014-11-05,2297,2309,2270.5,2285,4140800,2285
2014-11-06,2290.5,2293.5,2259,2268.5,3579400,2268.5
2014-11-07,2295.5,2300,2277,2287.5,3068600,2287.5
2014-11-10,2293.5,2341.5,2285.5,2326,3812200,2326
2014-11-11,2346.5,2365,2335,2343,3855500,2343
2014-11-12,2367,2379.5,2342.5,2343,3898000,2343
2014-11-13,2350,2386,2347.5,2377.5,3766700,2377.5
2014-11-14,2400,2409,2373,2393,4400600,2393
2014-11-17,2378.5,2412.5,2345.5,2351.5,3915000,2351.5
2014-11-18,2385.5,2387,2353.5,2362,2697200,2362
2014-11-19,2388.5,2417,2379,2385.5,3168500,2385.5
2014-11-20,2384.5,2415.5,2367,2377.5,2617300,2377.5
2014-11-21,2397,2454,2381.5,2445.5,5373700,2445.5
2014-11-25,2481.5,2527,2478,2494,4869000,2494
2014-11-26,2489.5,2520,2486.5,2505,2928500,2505
2014-11-27,2486,2495,2461,2472.5,2920600,2472.5
2014-11-28,2498.5,2530,2481,2525.5,3524200,2525.5
2014-12-01,2600,2610,2571,2588,4900600,2588
2014-12-02,2595.5,2634,2587.5,2617.5,3456400,2617.5
2014-12-03,2652,2672,2632,2653.5,2998500,2653.5
2014-12-04,2690,2750,2688,2746,4574200,2746
2014-12-05,2771.5,2799,2746.5,2772.5,3855200,2772.5
2014-12-08,2775,2793,2746.5,2771,3177800,2771
2014-12-09,2750,2819,2748,2769.5,3961300,2769.5
2014-12-10,2750.5,2750.5,2622.5,2639,5807100,2639
2014-12-11,2574,2650,2546.5,2635,3672100,2635
2014-12-12,2645,2657,2605,2612.5,4368100,2612.5
2014-12-15,2552,2564,2511,2527.5,5001000,2527.5
2014-12-16,2489,2508.5,2472,2485,3036500,2485
2014-12-17,2475,2534,2457.5,2522,2955400,2522
2014-12-18,2572,2644,2572,2602,3821400,2602
2014-12-19,2677,2685,2636,2681,3121300,2681
2014-12-22,2686.5,2710,2685,2700,2548200,2700
2014-12-24,2711,2765,2711,2731.5,3332700,2731.5
2014-12-25,2707,2716.5,2678,2713,1612400,2713
2014-12-26,2710,2733.5,2691.5,2716,1289100,2716
2014-12-29,2730,2737,2688,2717,1435300,2717
2014-12-30,2719.5,2734.5,2693.5,2696,1521700,2696
2015-01-05,2671,2714,2634.5,2687,2307000,2687
2015-01-06,2624,2634.5,2558,2562.5,3612300,2562.5
2015-01-07,2527,2586,2515,2563.5,2966300,2563.5
2015-01-08,2628,2639,2557,2564.5,2733800,2564.5
2015-01-09,2570,2596,2558,2575,1925600,2575
2015-01-13,2570,2597,2524,2573.5,3122200,2573.5
2015-01-14,2546,2552,2427.5,2436.5,4630600,2436.5
2015-01-15,2434.5,2447,2382,2409.5,4925200,2409.5
2015-01-16,2360,2394.5,2350,2393.5,3852300,2393.5
2015-01-19,2422,2430,2394.5,2418,3164700,2418
2015-01-20,2435,2478.5,2421.5,2461.5,3797200,2461.5
2015-01-21,2476,2479.5,2421,2442.5,3968900,2442.5
2015-01-22,2456,2475,2433.5,2439,2873200,2439
2015-01-23,2478,2527,2470.5,2515.5,3802800,2515.5
2015-01-26,2480,2501.5,2453,2498,2874300,2498
2015-01-27,2560,2640.5,2551.5,2640,4865100,2640
2015-01-28,2599.5,2641.5,2590,2623.5,2630100,2623.5
2015-01-29,2599.5,2660,2572,2585,3101000,2585
2015-01-30,2595.5,2699.5,2570,2611.5,4903000,2611.5
2015-02-02,2511.5,2562.5,2477,2544.5,3879500,2544.5
2015-02-03,2555,2574.5,2465,2479,4184100,2479
2015-02-04,2560,2602.5,2550.5,2591.5,4101400,2591.5
2015-02-05,2638.5,2713,2549.5,2576,4110000,2576
2015-02-06,2617,2666.5,2608,2662,3696700,2662
2015-02-09,2720,2734.5,2666,2683,2897000,2683
2015-02-10,2665.5,2690,2608.5,2637,3085400,2637
2015-02-12,2691.5,2709.5,2673,2698.5,3794900,2698.5
2015-02-13,2712.5,2724.5,2682,2710.5,2881000,2710.5
2015-02-16,2739,2762.5,2730,2743.5,2148800,2743.5
2015-02-17,2730,2873,2710.5,2853,4374100,2853
2015-02-18,2849,2896,2810.5,2885.5,4896600,2885.5
2015-02-19,2867,2915,2856.5,2900.5,3214100,2900.5
2015-02-20,2886,2890,2820,2833,3180700,2833
2015-02-23,2882,2954,2882,2929.5,4311300,2929.5
2015-02-24,2924,2993,2914.5,2984,3735500,2984
2015-02-25,2986.5,2997,2929.5,2934,2090200,2934
2015-02-26,2947,3038.5,2941.5,3037.5,4071700,3037.5
2015-02-27,3021,3027.5,2958.5,2987.5,3298200,2987.5
2015-03-02,3005,3024.5,2959,2968.5,2356200,2968.5
2015-03-03,2927,2936,2825.5,2862.5,5472400,2862.5
2015-03-04,2845.5,2871,2788.5,2860.5,3808000,2860.5
2015-03-05,2855.5,2894.5,2829,2861.5,3325700,2861.5
2015-03-06,2872.5,2877.5,2815,2833.5,3974000,2833.5
2015-03-09,2813.5,2815,2784.5,2790.5,2515400,2790.5
2015-03-10,2823.5,2831.5,2766.5,2786,2554300,2786
2015-03-11,2785.5,2822.5,2761,2803,2330300,2803
2015-03-12,2836.5,2867.5,2812.5,2855,2912800,2855
2015-03-13,2915.5,2921,2880.5,2887,3554200,2887
2015-03-16,2875,2878.5,2845.5,2856.5,1981100,2856.5
2015-03-17,2873,2873.5,2768.5,2776,4896400,2776
2015-03-18,2790.5,2814.5,2722,2740.5,5662700,2740.5
2015-03-19,2727.5,2769,2687,2754.5,4842100,2754.5
2015-03-20,2776,2784,2735,2761,2328000,2761
2015-03-23,2760,2764,2721,2742,2410400,2742
2015-03-24,2732,2777,2720.5,2744.5,3007000,2744.5
2015-03-25,2782,2789.5,2748,2783,2932600,2783
2015-03-26,2758.5,2768,2722,2749.5,2277100,2749.5
2015-03-27,2681.5,2713,2620,2659,3866200,2659
2015-03-30,2634,2685.5,2631,2679,2032100,2679
2015-03-31,2713.5,2722,2648.5,2654,2543400,2654
2015-04-01,2644,2677,2632,2638,2397100,2638
2015-04-02,2655,2689,2632,2662.5,2612600,2662.5
2015-04-03,2651,2668,2631.5,2663,1412100,2663
2015-04-06,2632,2650.5,2611,2638,1522400,2638
2015-04-07,2644,2738.5,2643.5,2726.5,2858000,2726.5
2015-04-08,2752,2754,2702,2720,2686100,2720
2015-04-09,2725,2741.5,2708.5,2740.5,2147000,2740.5
2015-04-10,2740,2744,2691,2700.5,1987600,2700.5
2015-04-13,2685,2714,2670.5,2708,1169100,2708
2015-04-14,2700,2758,2686,2757.5,1810400,2757.5
2015-04-15,2773,2773,2735,2747.5,1588300,2747.5
2015-04-16,2759,2818.5,2751.5,2814.5,2615000,2814.5
2015-04-17,2813,2849,2781,2841.5,2530000,2841.5
2015-04-20,2813,2837.5,2787.5,2828.5,1748100,2828.5
2015-04-21,2840,2864,2825,2863.5,2406700,2863.5
2015-04-22,2865,2865,2731,2780.5,5948900,2780.5
2015-04-23,2780.5,2830,2675,2733,6952600,2733
2015-04-24,2763.5,2809,2738,2740,4421300,2740
2015-04-27,2727,2747.5,2692.5,2704,2986300,2704
2015-04-28,2701.5,2753.5,2701,2743.5,2739900,2743.5
2015-04-30,2730,2730,2687.5,2710,2644900,2710
2015-05-01,2680,2698,2666,2691,1653400,2691
2015-05-07,2701,2716,2675.5,2680,2161600,2680
2015-05-08,2694,2736.5,2657,2727.5,2126400,2727.5
2015-05-11,2767,2776,2724.5,2726.5,2090400,2726.5
2015-05-12,2733,2773.5,2717.5,2773,1991700,2773
2015-05-13,2779,2808,2755.5,2806.5,2389900,2806.5
2015-05-14,2781.5,2793.5,2768.5,2789.5,1405800,2789.5
2015-05-15,2789.5,2805,2755.5,2778.5,1364600,2778.5
2015-05-18,2780,2829.5,2780,2829.5,1854500,2829.5
2015-05-19,2820,2838,2812,2820.5,1878500,2820.5
2015-05-20,2832,2837,2803.5,2809,2314800,2809
2015-05-21,2796,2836,2787.5,2818.5,2525700,2818.5
2015-05-22,2819.5,2863.5,2818.5,2859,2198200,2859
2015-05-25,2853.5,2894,2835,2885,1955900,2885
2015-05-26,2894,3019.5,2894,3015.5,5484300,3015.5
2015-05-27,3015.5,3039,2975,2983,3574700,2983
2015-05-28,2983.5,3021,2961,2975.5,2679900,2975.5
2015-05-29,2974,3045,2965.5,3036.5,3933100,3036.5
2015-06-01,2954.5,3025.5,2953.5,3015,2136300,3015
2015-06-02,3014,3030,2978,2996,1926900,2996
2015-06-03,2991,3074,2978.5,3048.5,2786200,3048.5
2015-06-04,3078.5,3081,3008.5,3045,2764300,3045
2015-06-05,3011.5,3021.5,2982,3015.5,2032200,3015.5
2015-06-08,3030,3043.5,2968.5,2973.5,1982400,2973.5
2015-06-09,2932,2962,2904.5,2909,3548000,2909
2015-06-10,2909,2965,2885,2889.5,3068200,2889.5
2015-06-11,2919.5,2956,2890,2904.5,3893700,2904.5
2015-06-12,2944,2945,2887,2913,2684200,2913
2015-06-15,2863,2939.5,2845,2929.5,2676200,2929.5
2015-06-16,2940,2980.5,2884,2904,2224000,2904
2015-06-17,2904,2905,2839,2848,1952400,2848
2015-06-18,2828,2833,2796.5,2796.5,1798900,2796.5
2015-06-19,2821,2850,2807.5,2849,2515500,2849
2015-06-22,2828,2867,2824,2853.5,1582900,2853.5
2015-06-23,2888,2913,2865.5,2909.5,1708200,2909.5
2015-06-24,2924,2987,2918,2955,2730400,2955
2015-06-25,2946.5,2964.5,2927.5,2952,1321400,2952
2015-06-26,2928.5,2929,2842,2851.5,2903400,2851.5
2015-06-29,2785,2818.5,2760,2798.5,2177500,2798.5
2015-06-30,2771.5,2772,2708,2716.5,3984700,2716.5
2015-07-01,2730,2741,2709.5,2719,1977300,2719
2015-07-02,2710,2716.5,2675,2675.5,3469000,2675.5
2015-07-03,2661,2663,2624,2643.5,3196300,2643.5
2015-07-06,2603,2604.5,2559,2562.5,3327000,2562.5
2015-07-07,2591,2593.5,2560.5,2565,2616600,2565
2015-07-08,2550,2560,2419.5,2419.5,5115500,2419.5
2015-07-09,2352,2417.5,2341,2417.5,4954900,2417.5
2015-07-10,2447,2469,2402,2429,3795200,2429
2015-07-13,2442,2465.5,2425.5,2430.5,2320300,2430.5
2015-07-14,2478,2534,2470,2517,3283500,2517
2015-07-15,2540.5,2550,2477.5,2498.5,2989900,2498.5
2015-07-16,2489.5,2490,2438,2464,2965500,2464
2015-07-17,2463,2467,2442,2461,1685100,2461
2015-07-21,2455,2459,2376.5,2397.5,3879900,2397.5
2015-07-22,2380,2427,2379,2415,2738300,2415
2015-07-23,2432.5,2449,2363,2397,2793100,2397
2015-07-24,2380,2384.5,2339,2348.5,3121000,2348.5
2015-07-27,2330,2366,2322,2358,2434400,2358
2015-07-28,2325.5,2343,2303,2316.5,2086500,2316.5
2015-07-29,2340,2358,2311,2315.5,2356700,2315.5
2015-07-30,2314,2447,2313,2418.5,5582400,2418.5
2015-07-31,2371,2385.5,2312,2325.5,5198000,2325.5
2015-08-03,2332,2339.5,2266.5,2273.5,3917400,2273.5
2015-08-04,2260,2299.5,2247,2258,3112900,2258
2015-08-05,2240,2313,2225,2296,3793100,2296
2015-08-06,2339.5,2358.5,2305,2333.5,2238500,2333.5
2015-08-07,2333,2390,2321,2374.5,2814000,2374.5
2015-08-10,2334,2343,2270.5,2293,4101700,2293
2015-08-11,2355,2424,2346.5,2362.5,5824400,2362.5
2015-08-12,2299,2299.5,2188,2196,9105800,2196
2015-08-13,2205.5,2229.5,2186,2207.5,5129500,2207.5
2015-08-14,2194,2199,2126,2137,5311600,2137
2015-08-17,2152,2164.5,2132,2144,3081900,2144
2015-08-18,2144,2185,2144,2168,2514600,2168
2015-08-19,2147.5,2179.5,2135,2137.5,3318800,2137.5
2015-08-20,2120,2126,2046,2047,6210000,2047
2015-08-21,1990,2056.5,1989,2010,5253000,2010
2015-08-24,1960,1966,1864,1866,7493200,1866
2015-08-25,1824.5,1880,1733.5,1771,8853900,1771
2015-08-26,1801.5,1865.5,1775,1859,7593300,1859
2015-08-27,1890.5,1892,1812,1813,5195300,1813
2015-08-28,1896,1972,1895,1947,7594800,1947
2015-08-31,1907,1933,1871,1882.5,5093800,1882.5
2015-09-01,1859,1870,1786,1786,6212100,1786
2015-09-02,1754,1789.5,1724.5,1737.5,6896400,1737.5
2015-09-03,1768,1834.5,1767.5,1782,4232800,1782
2015-09-04,1800,1840,1731.5,1744.5,4874500,1744.5
2015-09-07,1728,1775.5,1701.5,1756,4166700,1756
2015-09-08,1766,1837.5,1760.5,1790,5795400,1790
2015-09-09,1847.5,1881,1803,1881,6256500,1881
2015-09-10,1841,1874,1812.5,1868,4674200,1868
2015-09-11,1867,1867,1827,1840,3867900,1840
2015-09-14,1845,1852,1791,1797,2601800,1797
2015-09-15,1810,1843,1781.5,1783.5,3234500,1783.5
2015-09-16,1815,1842.5,1795,1832,2992000,1832
2015-09-17,1868,1906,1851,1882.5,3652500,1882.5
2015-09-18,1842.5,1850,1777,1781,6392300,1781
2015-09-24,1745,1745,1671.5,1674.5,6799900,1674.5
2015-09-25,1678.5,1731,1654.5,1730.5,5041800,1730.5
2015-09-28,1693,1697.5,1638.5,1656,3897600,1656
2015-09-29,1600.5,1604,1538.5,1538.5,7075800,1538.5
2015-09-30,1551,1587.5,1534,1562.5,6417700,1562.5
2015-10-01,1592,1633.5,1583.5,1625.5,5409300,1625.5
2015-10-02,1593.5,1616,1556.5,1605,4063000,1605
2015-10-05,1629,1715.5,1620,1667,5153200,1667
2015-10-06,1701.5,1748.5,1692.5,1715,5122700,1715
2015-10-07,1715,1810,1691,1800,5936100,1800
2015-10-08,1784,1855,1781.5,1817.5,5354800,1817.5
2015-10-09,1853,1921.5,1853,1921.5,6746600,1921.5
2015-10-13,1890,1933.5,1836,1906.5,4563000,1906.5
2015-10-14,1851,1874.5,1791.5,1807.5,5768500,1807.5
2015-10-15,1786,1861,1780,1830.5,3714000,1830.5
2015-10-16,1840.5,1856.5,1786.5,1841.5,4418900,1841.5
2015-10-19,1833,1838.5,1774,1783.5,3740600,1783.5
2015-10-20,1804,1813,1765,1801.5,2958400,1801.5
2015-10-21,1780,1909.5,1761,1901.5,6914600,1901.5
2015-10-22,1880,1975,1873,1957.5,7312700,1957.5
2015-10-23,2010,2018.5,1966.5,1984,5013500,1984
2015-10-26,2001.5,2016,1974.5,1998,2914700,1998
2015-10-27,1985,2004,1905.5,1913.5,5432100,1913.5
2015-10-28,1901,1921.5,1870,1884,4322600,1884
2015-10-29,1893,1907,1841,1872,7426000,1872
2015-10-30,1800,1944.5,1800,1916,8085800,1916
2015-11-02,1870,1881,1804.5,1809,5867300,1809
2015-11-04,1839,1865,1831.5,1836,4637200,1836
2015-11-05,1820.5,1883.5,1810,1876,3300900,1876
2015-11-06,1890.5,1905,1861.5,1875,2587900,1875
2015-11-09,1889,1931,1870,1921,3645100,1921
2015-11-10,1893.5,1913.5,1877.5,1907,2931800,1907
2015-11-11,1890.5,1900,1847,1851,4343300,1851
2015-11-12,1838,1868,1829,1853,4322500,1853
2015-11-13,1823,1826,1791,1818.5,4147200,1818.5
2015-11-16,1785,1820,1781,1801,3109200,1801
2015-11-17,1839.5,1933,1838.5,1923,8458900,1923
2015-11-18,1923,1932,1875.5,1912,4692500,1912
2015-11-19,1937,2000,1936,1969,5636400,1969
2015-11-20,1963.5,1979.5,1931,1971.5,3870600,1971.5
2015-11-24,1964,2044,1932,1966.5,4218500,1966.5
2015-11-25,1942,1994,1942,1970.5,2828000,1970.5
2015-11-26,1960.5,1979.5,1947.5,1973,2662200,1973
2015-11-27,1979,2008.5,1965,1967,3181100,1967
2015-11-30,1961,1967,1905.5,1942,4234900,1942
2015-12-01,1948,2015,1946,2015,4610000,2015
2015-12-02,2045,2084.5,2013,2038,4249600,2038
2015-12-03,2012.5,2066.5,2003,2052,3581100,2052
2015-12-04,1994,2030.5,1988,2008.5,3677200,2008.5
2015-12-07,2030,2044.5,2010,2013,2405500,2013
2015-12-08,2010,2016,1929,1932,4463400,1932
2015-12-09,1892,1903.5,1860,1875,5797900,1875
2015-12-10,1854.5,1876.5,1847.5,1848,4416000,1848
2015-12-11,1836.5,1879.5,1836.5,1865,4853800,1865
2015-12-14,1805,1811,1763.5,1800,5216300,1800
2015-12-15,1796,1801.5,1756,1757.5,3708400,1757.5
2015-12-16,1800,1833.5,1794,1815.5,3962100,1815.5
2015-12-17,1860,1861.5,1810,1815,5573700,1815
2015-12-18,1849.5,1957.5,1827.5,1858,12428500,1858
2015-12-21,1850,1910,1837.5,1897,5982000,1897
2015-12-22,1899.5,1958.5,1876,1944.5,5213700,1944.5
2015-12-24,1990,2027,1969,1986,6498200,1986
2015-12-25,1969,1983,1911.5,1933.5,3282200,1933.5
2015-12-28,1915,1970.5,1895.5,1961,4292900,1961
2015-12-29,1940,1949,1883,1939.5,4130700,1939.5
2015-12-30,1950,1969.5,1913.5,1920,2944100,1920
2016-01-04,1906,1985,1900.5,1921,5488900,1921
2016-01-05,1900.5,1923.5,1865,1883.5,4517000,1883.5
2016-01-06,1901.5,1919,1834,1842,4222200,1842
2016-01-07,1818.5,1849,1754,1756,4956800,1756
2016-01-08,1734,1803.5,1721,1756,5822400,1756
2016-01-12,1728,1753.5,1690.5,1694.5,5023600,1694.5
2016-01-13,1725.5,1751.5,1701,1746.5,4095200,1746.5
2016-01-14,1690,1707.5,1653,1697.5,4002200,1697.5
2016-01-15,1720.5,1749.5,1664,1678.5,4413800,1678.5
2016-01-18,1624,1648,1593.5,1641.5,4600600,1641.5
2016-01-19,1640,1700,1633.5,1696.5,5500700,1696.5
2016-01-20,1706.5,1719.5,1600.5,1609,5382400,1609
2016-01-21,1615.5,1664,1567,1567,5261700,1567
2016-01-22,1641,1682.5,1627.5,1680.5,4594900,1680.5
2016-01-25,1717,1740.5,1664,1703.5,4632400,1703.5
2016-01-26,1644,1652,1611,1619.5,4491100,1619.5
2016-01-27,1655,1667.5,1610,1648,6646500,1648
2016-01-28,1610.5,1614.5,1546,1548,7010900,1548
2016-01-29,1548,1633,1540,1606,11004600,1606
2016-02-01,1686,1688,1597.5,1662,8775000,1662
2016-02-02,1613,1613,1503,1524.5,9349100,1524.5
2016-02-03,1452.5,1454.5,1396,1411.5,7854800,1411.5
2016-02-04,1430,1504.5,1418.5,1438,7871700,1438
2016-02-05,1411.5,1471,1398,1446.5,5324900,1446.5
2016-02-08,1416.5,1457,1390,1445.5,4129200,1445.5
2016-02-09,1362,1372,1322.5,1334.5,7420000,1334.5
2016-02-10,1355,1364,1300.5,1320,7924600,1320
2016-02-12,1250,1281.5,1233.5,1240,9648700,1240
2016-02-15,1308,1355,1282.5,1339.5,6807700,1339.5
2016-02-16,1331,1432,1308.5,1397.5,9267000,1397.5
2016-02-17,1379,1417,1320,1349.5,6346600,1349.5
2016-02-18,1420,1455,1406.5,1429,6699000,1429
2016-02-19,1403,1405,1351,1372,4596000,1372
2016-02-22,1340,1342,1288,1292.5,7866700,1292.5
2016-02-23,1350,1403.5,1349,1366,10026700,1366
2016-02-24,1330,1363.5,1312,1360.5,5457300,1360.5
2016-02-25,1385.5,1422,1375.5,1393.5,4285800,1393.5
2016-02-26,1414.5,1446,1405.5,1408.5,4257200,1408.5
2016-02-29,1419,1424.5,1352,1352,5338600,1352
2016-03-01,1373,1387.5,1328,1356,4488800,1356
2016-03-02,1420,1493,1406.5,1491,8165600,1491
2016-03-03,1509.5,1596.5,1508.5,1590.5,11052300,1590.5
2016-03-04,1561,1622.5,1552.5,1600,5485200,1600
2016-03-07,1618,1637.5,1589,1600,5258600,1600
2016-03-08,1622,1681,1582.5,1596,7906100,1596
2016-03-09,1532.5,1551.5,1491,1540,6807000,1540
2016-03-10,1560,1563.5,1491.5,1555,6455100,1555
2016-03-11,1536.5,1593.5,1528.5,1585,5671500,1585
2016-03-14,1616,1650.5,1597.5,1643,4360600,1643
2016-03-15,1627,1641.5,1605,1617.5,4518300,1617.5
2016-03-16,1536.5,1561,1523.5,1539,7048100,1539
2016-03-17,1570,1592.5,1503.5,1525,6813100,1525
2016-03-18,1527.5,1554,1509,1530.5,5107700,1530.5
2016-03-22,1581,1588.5,1514,1543,3588800,1543
2016-03-23,1564,1587.5,1536,1540,2847200,1540
2016-03-24,1508.5,1538.5,1465.5,1491.5,4191400,1491.5
2016-03-25,1511.5,1556.5,1504,1548.5,3510700,1548.5
2016-03-28,1549,1578.5,1540.5,1578.5,3082100,1578.5
2016-03-29,1548.5,1583,1546.5,1581.5,3144600,1581.5
2016-03-30,1575.5,1584.5,1533.5,1540.5,3644200,1540.5
2016-03-31,1553.5,1575.5,1508,1516,6167900,1516
2016-04-01,1506,1510.5,1430,1432.5,5431400,1432.5
2016-04-04,1430,1485,1427.5,1458.5,3466600,1458.5
2016-04-05,1438.5,1453,1410,1414.5,3749600,1414.5
2016-04-06,1400.5,1463,1399,1440,5360700,1440
2016-04-07,1445,1499,1427,1458,4531600,1458
2016-04-08,1423.5,1549,1413.5,1525.5,6228400,1525.5
2016-04-11,1514.5,1519.5,1478,1512.5,4937000,1512.5
2016-04-12,1509,1622,1509,1597,6250500,1597
2016-04-13,1629.5,1684,1613.5,1675,6784900,1675
2016-04-14,1750,1809.5,1738,1771.5,12466000,1771.5
2016-04-15,1727.5,1765,1727.5,1740.5,5454500,1740.5
2016-04-18,1650,1709,1643,1683.5,6034600,1683.5
2016-04-19,1754.5,1790,1730.5,1754,5427900,1754
2016-04-20,1789,1817.5,1728.5,1742,5992900,1742
2016-04-21,1822,1826.5,1778.5,1823.5,6423700,1823.5
2016-04-22,1790,1873.5,1786,1870,6044300,1870
2016-04-25,1885,1892,1835.5,1849.5,5497400,1849.5
2016-04-26,1828,1855,1744,1759,7351400,1759
2016-04-27,1726,1736.5,1655.5,1696,10220600,1696
2016-04-28,1696.5,1727,1576,1579.5,10151200,1579.5
2016-05-02,1500.5,1576,1500,1562.5,7564900,1562.5
2016-05-06,1557,1583,1526.5,1536,5885700,1536
2016-05-09,1543.5,1554.5,1432,1449.5,10219900,1449.5
2016-05-10,1435,1474,1390,1464,10814200,1464
2016-05-11,1491,1496.5,1437,1444,6849400,1444
2016-05-12,1436.5,1467.5,1432.5,1465.5,4202200,1465.5
2016-05-13,1473.5,1482.5,1418,1418,4473100,1418
2016-05-16,1423.5,1465.5,1418,1443.5,4105400,1443.5
2016-05-17,1449.5,1483.5,1443,1461,4032700,1461
2016-05-18,1453,1489,1440,1478.5,5068500,1478.5
2016-05-19,1497,1506,1425,1441,5023300,1441
2016-05-20,1436,1460.5,1421,1455.5,4427900,1455.5
2016-05-23,1445,1464,1427.5,1456.5,3259600,1456.5
2016-05-24,1449,1449,1414,1420,3532800,1420
2016-05-25,1453.5,1473.5,1448.5,1465.5,3535700,1465.5
2016-05-26,1490,1495,1439,1441.5,3278500,1441.5
2016-05-27,1448,1452.5,1428,1451.5,2995400,1451.5
2016-05-30,1470,1472,1434,1457.5,2118100,1457.5
2016-05-31,1460,1499.5,1447,1491.5,6262000,1491.5
2016-06-01,1496.5,1514.5,1476,1480,4675000,1480
2016-06-02,1457,1459,1405.5,1407.5,5189300,1407.5
2016-06-03,1424,1438,1398.5,1410.5,3207100,1410.5
2016-06-06,1381,1470.5,1373.5,1466,6384500,1466
2016-06-07,1474.5,1501.5,1457,1474,4063700,1474
2016-06-08,1471,1471,1434.5,1465,3375200,1465
2016-06-09,1452.5,1484.5,1448.5,1467,3185500,1467
2016-06-10,1459.5,1462,1403.5,1421,4401700,1421
2016-06-13,1375,1377.5,1337,1339,4053700,1339
2016-06-14,1359.5,1377.5,1318,1329,4145200,1329
2016-06-15,1311.5,1357,1302,1337,4324100,1337
2016-06-16,1352,1356,1276.5,1285.5,4645900,1285.5
2016-06-17,1305.5,1336,1305.5,1317.5,5484000,1317.5
2016-06-20,1347.5,1385,1330.5,1376,4490200,1376
2016-06-21,1365,1389,1331.5,1381,3674700,1381
2016-06-22,1373.5,1373.5,1330,1339.5,3673000,1339.5
2016-06-23,1347,1418,1338.5,1414.5,5163300,1414.5
2016-06-24,1444,1447,1260.5,1277,6737900,1277
2016-06-27,1279.5,1280,1209,1239.5,4785300,1239.5
2016-06-28,1229.5,1251,1198.5,1242,5612400,1242
2016-06-29,1290,1348,1288.5,1320,6178200,1320
2016-06-30,1343.5,1351,1308,1315,4461700,1315
2016-07-01,1328.5,1335.5,1290.5,1300.5,3860000,1300.5
2016-07-04,1298.5,1355,1296,1344.5,4874500,1344.5
2016-07-05,1330.5,1358,1320,1336,2599300,1336
2016-07-06,1300.5,1305,1241,1266,5068100,1266
2016-07-07,1266,1288,1243.5,1251,3666500,1251
2016-07-08,1254.5,1274,1238,1242.5,2931000,1242.5
2016-07-11,1300,1348.5,1286,1334.5,5454600,1334.5
2016-07-12,1375,1404.5,1372.5,1384,4593100,1384
2016-07-13,1430,1456.5,1425.5,1428,6439000,1428
2016-07-14,1435.5,1461,1415,1453.5,4889400,1453.5
2016-07-15,1464,1571,1462,1515.5,8390100,1515.5
2016-07-19,1528,1540.5,1473,1480,6786700,1480
2016-07-20,1440.5,1441,1386,1421,7945200,1421
2016-07-21,1449,1472.5,1419.5,1442.5,4647600,1442.5
2016-07-22,1412.5,1443,1406.5,1424.5,3340500,1424.5
2016-07-25,1433,1441,1407,1418,2820200,1418
2016-07-26,1404.5,1405,1334,1362,5910200,1362
2016-07-27,1380,1400.5,1363.5,1389,6001300,1389
2016-07-28,1378,1388.5,1363.5,1376.5,3452200,1376.5
2016-07-29,1362,1376.5,1311.5,1356.5,7391600,1356.5
2016-08-01,1353,1437.5,1341,1401,6962200,1401
2016-08-02,1380,1380,1342.5,1349,4886200,1349
2016-08-03,1318.5,1322.5,1300,1310,4112500,1310
2016-08-04,1321.5,1397,1316.5,1390,7399200,1390
2016-08-05,1396,1415,1367,1401,4523600,1401
2016-08-08,1400,1462,1400,1455,6114100,1455
2016-08-09,1460,1475,1441.5,1469.5,3448200,1469.5
2016-08-10,1449.5,1473,1435,1468.5,3396400,1468.5
2016-08-12,1476,1482,1454.5,1468,2119000,1468
2016-08-15,1467,1467,1416,1439,3187200,1439
2016-08-16,1450.5,1484.5,1400.5,1401,3810100,1401
2016-08-17,1422,1478,1417,1459.5,5810600,1459.5
2016-08-18,1434,1468.5,1425,1450,3769700,1450
2016-08-19,1466,1543,1461.5,1525,7037200,1525
2016-08-22,1516.5,1523,1489.5,1512.5,3127600,1512.5
2016-08-23,1500,1500,1450.5,1470,4633600,1470
2016-08-24,1481,1500,1463,1468,2720600,1468
2016-08-25,1495,1504.5,1455.5,1483,4355900,1483
2016-08-26,1508,1564.5,1508,1523,7660700,1523
2016-08-29,1547.5,1596,1545,1572.5,5086900,1572.5
2016-08-30,1566.5,1603,1560,1588.5,3694400,1588.5
2016-08-31,1605,1643,1605,1606.5,5572300,1606.5
2016-09-01,1626,1654,1610.5,1634.5,5254300,1634.5
2016-09-02,1627,1648.5,1599.5,1638.5,4594400,1638.5
2016-09-05,1670,1687,1652.5,1662,4155600,1662
2016-09-06,1645.5,1648,1598.5,1616.5,5536900,1616.5
2016-09-07,1568,1587,1551,1584,6893900,1584
2016-09-08,1590,1590,1545,1555,4900400,1555
2016-09-09,1566,1589.5,1560,1566,4607700,1566
2016-09-12,1530,1540.5,1492.5,1513.5,4751200,1513.5
2016-09-13,1530,1535,1493,1494.5,3360900,1494.5
2016-09-14,1471,1497,1450.5,1477,4953500,1477
2016-09-15,1466,1468.5,1442.5,1459,3162200,1459
2016-09-16,1470.5,1478.5,1461,1467.5,2745900,1467.5
2016-09-20,1437.5,1461,1428.5,1443,5120100,1443
2016-09-21,1437,1474.5,1412.5,1472.5,4345400,1472.5
2016-09-23,1471.5,1473.5,1434.5,1456,5419000,1456
2016-09-26,1456.5,1472,1443.5,1455,4562100,1455
2016-09-27,1437.5,1479,1415,1479,5588000,1479
2016-09-28,1461,1469,1419.5,1435,4867200,1435
2016-09-29,1457,1499.5,1455,1469,8453000,1469
2016-09-30,1439,1468,1431,1461,4881100,1461
2016-10-03,1465,1505.5,1463,1471.5,4914300,1471.5
2016-10-04,1489.5,1539,1487.5,1522,6214400,1522
2016-10-05,1530,1540.5,1506,1529,4572600,1529
2016-10-06,1547,1567,1533,1535.5,3794800,1535.5
2016-10-07,1536,1556.5,1525,1531,2971200,1531
2016-10-11,1523.5,1540,1496,1522,4269700,1522
2016-10-12,1472,1477,1436.5,1443.5,6720300,1443.5
2016-10-13,1454.5,1458,1413,1421,4547300,1421
2016-10-17,1438.5,1464,1434,1449,3403400,1449
2016-10-19,1463,1468,1447.5,1458,2479700,1458
2016-10-20,1467,1492,1459.5,1487,3401200,1487
2016-10-21,1478.5,1491.5,1472,1478,3401900,1478
2016-10-24,1478,1484,1442,1471,3836700,1471
2016-10-25,1467.5,1472.5,1433,1437,5348700,1437
2016-10-26,1430,1459.5,1421.5,1456.5,3992900,1456.5
2016-10-27,1462.5,1482,1446.5,1459,3461300,1459
2016-10-28,1474.5,1502,1466.5,1499.5,5524800,1499.5
2016-10-31,1493.5,1518.5,1481,1506.5,5754100,1506.5
2016-11-01,1495.5,1503.5,1482.5,1493,2950400,1493
2016-11-02,1469.5,1499.5,1469.5,1478.5,5549500,1478.5
2016-11-04,1459,1464,1433.5,1446.5,3610000,1446.5
2016-11-07,1469,1486,1463.5,1475.5,2999400,1475.5
2016-11-08,1475.5,1497.5,1473.5,1487.5,2209300,1487.5
2016-11-09,1506.5,1520.5,1345,1377,8259200,1377
2016-11-10,1496.5,1515,1445.5,1498.5,6901700,1498.5
2016-11-11,1518.5,1568,1517,1532.5,6490000,1532.5
2016-11-14,1553.5,1609,1548.5,1595,6130800,1595
2016-11-15,1612,1648,1594,1604,5484900,1604
2016-11-16,1630.5,1642,1620,1636,4752900,1636
2016-11-17,1607,1648,1601.5,1641,4626600,1641
2016-11-18,1664,1684,1656,1657.5,4724800,1657.5
2016-11-21,1669.5,1669.5,1632.5,1654,4006600,1654
2016-11-22,1655,1659.5,1641.5,1653.5,4016700,1653.5
2016-11-24,1690.5,1770,1683,1754,7499300,1754
2016-11-25,1766,1806,1759.5,1769.5,6094100,1769.5
2016-11-28,1759,1780.5,1736,1778.5,4740900,1778.5
2016-11-29,1764,1772,1732,1745.5,4707900,1745.5
2016-11-30,1745.5,1745.5,1669,1670,8442600,1670
2016-12-01,1716.5,1735,1704.5,1712,6089500,1712
2016-12-02,1715,1752,1708.5,1748,5775100,1748
2016-12-05,1736.5,1748.5,1705.5,1735,3589200,1735
2016-12-06,1766.5,1809.5,1763,1803.5,5565900,1803.5
2016-12-07,1820,1845,1813,1841,3916900,1841
2016-12-08,1893,1911,1867.5,1895.5,6074600,1895.5
2016-12-09,1932,1945,1912.5,1939.5,5630200,1939.5
2016-12-12,1950,1983,1889.5,1917.5,5024300,1917.5
2016-12-13,1883,1908,1852.5,1897,4552800,1897
2016-12-14,1910,1916,1877,1908,2850100,1908
2016-12-15,1926.5,1939.5,1872,1894.5,4213100,1894.5
2016-12-16,1912.5,1934,1909,1926.5,3814300,1926.5
2016-12-19,1891.5,1896,1863,1872,4359100,1872
2016-12-20,1850.5,1871,1844.5,1863,3682000,1863
2016-12-21,1874,1893.5,1839,1845,4609000,1845
2016-12-22,1855,1858.5,1820.5,1843,4108900,1843
2016-12-26,1843,1846.5,1810.5,1822.5,2565100,1822.5
2016-12-27,1822.5,1840,1810,1818.5,2182100,1818.5
2016-12-28,1833,1858,1830.5,1845.5,2505400,1845.5
2016-12-29,1809.5,1817,1780.5,1790,3995400,1790
2016-12-30,1767.5,1784.5,1750.5,1780,3005800,1780
2017-01-04,1815.5,1877,1815,1872,5160800,1872
2017-01-05,1878,1885,1823,1845,3899700,1845
2017-01-06,1775,1797,1769.5,1787,4511700,1787
2017-01-10,1750,1808,1742,1778.5,3675300,1778.5
2017-01-11,1830,1879,1830,1877,5769300,1877
2017-01-12,1867,1884,1831.5,1853,3207300,1853
2017-01-13,1842.5,1850,1818,1850,2685700,1850
2017-01-16,1850,1850,1813,1819,3022300,1819
2017-01-17,1830.5,1883,1809,1836.5,4993000,1836.5
2017-01-18,1841,1924.5,1841,1916.5,7004100,1916.5
2017-01-19,1941,1961,1933,1944,4382800,1944
2017-01-20,1936,1960,1926,1955,3453000,1955
2017-01-23,1930.5,1962,1927,1944,2724900,1944
2017-01-24,1938,1970,1928.5,1951,3520600,1951
2017-01-25,2005,2039,1995.5,2016.5,7344300,2016.5
2017-01-26,2035,2052,1991.5,2025.5,5610700,2025.5
2017-01-27,2037.5,2038.5,2006,2034.5,4042600,2034.5
2017-01-30,2050,2081,2032.5,2054,4697900,2054
2017-01-31,2015,2036,1976,1982,5221100,1982
2017-02-01,2070,2070,2026.5,2066.5,5111000,2066.5
2017-02-02,2077,2077,2037,2048.5,4245700,2048.5
2017-02-03,2054,2084.5,2031.5,2043.5,3450100,2043.5
2017-02-06,2081.5,2110,2054,2067.5,4004800,2067.5
2017-02-07,2050,2112.5,2049,2090.5,4288400,2090.5
2017-02-08,2083,2103,2072,2103,2353600,2103
2017-02-09,2091.5,2104.5,2078,2094,2405700,2094
2017-02-10,2132,2145.5,2117.5,2123.5,3186300,2123.5
2017-02-13,2158,2174.5,2152.5,2165,2964900,2165
2017-02-14,2177,2204,2158.5,2164.5,4346500,2164.5
2017-02-15,2181,2201.5,2131.5,2141,5108400,2141
2017-02-16,2142.5,2148,2113,2146,3432200,2146
2017-02-17,2146,2151,2119.5,2147.5,2674100,2147.5
2017-02-20,2138.5,2154,2119,2142,1590600,2142
2017-02-21,2146.5,2175,2137.5,2162.5,1922000,2162.5
2017-02-22,2212.5,2258,2196,2228,5157100,2228
2017-02-23,2193.5,2207,2179.5,2202,3689600,2202
2017-02-24,2169,2186.5,2151,2156,3631100,2156
2017-02-27,2131,2141,2104.5,2121,3308100,2121
2017-02-28,2143,2174,2122.5,2125,3550400,2125
2017-03-01,2139.5,2165,2115.5,2151.5,2867200,2151.5
2017-03-02,2201.5,2217.5,2172.5,2173.5,3418800,2173.5
2017-03-03,2160,2175.5,2145.5,2159.5,2501000,2159.5
2017-03-06,2169,2192,2159.5,2184,2791400,2184
2017-03-07,2176,2183,2156,2169.5,3019300,2169.5
2017-03-08,2169.5,2172,2113.5,2116,5436600,2116
2017-03-09,2125,2128,2089,2108.5,3367800,2108.5
2017-03-10,2119,2120,2058.5,2071,5374800,2071
2017-03-13,2059,2062.5,2038,2053,3389900,2053
2017-03-14,2039,2047.5,2027.5,2032,3711500,2032
2017-03-15,2018,2023,2001,2018.5,3755300,2018.5
2017-03-16,2031,2058,2027,2041.5,3616300,2041.5
2017-03-17,2018,2032.5,2013.5,2026.5,3430000,2026.5
2017-03-21,2006,2010.5,1986.5,1990,3523700,1990
2017-03-22,1933.5,1949.5,1919.5,1934.5,4617900,1934.5
2017-03-23,1940,1951,1925,1941.5,2461500,1941.5
2017-03-24,1941.5,1964,1930,1956.5,2887100,1956.5
2017-03-27,1924.5,1926,1898,1914,3258900,1914
2017-03-28,1925.5,1949.5,1924,1935.5,3282400,1935.5
2017-03-29,1941,1948.5,1919.5,1923.5,3439000,1923.5
2017-03-30,1930,1949.5,1909,1918,3384100,1918
2017-03-31,1940.5,1949.5,1908.5,1908.5,3763400,1908.5
2017-04-03,1914,1925,1861,1888.5,3983100,1888.5
2017-04-04,1880,1880,1812,1830.5,7148900,1830.5
2017-04-05,1840.5,1853.5,1824.5,1846,4721300,1846
2017-04-06,1826.5,1833.5,1800,1801.5,3924900,1801.5
2017-04-07,1818,1825.5,1796,1809,4369900,1809
2017-04-10,1830.5,1868,1823,1852.5,4131600,1852.5
2017-04-11,1841,1865.5,1827,1859,3163700,1859
2017-04-12,1828.5,1847.5,1816.5,1847,4329900,1847
2017-04-13,1809,1809.5,1753.5,1787,6637600,1787
2017-04-14,1775.5,1823,1760,1801,5476100,1801
2017-04-17,1774.5,1801,1756,1798.5,3783800,1798.5
2017-04-18,1820.5,1832.5,1780,1789,3813300,1789
2017-04-19,1779,1803,1762,1794,4216400,1794
2017-04-20,1785,1835,1777.5,1806,4272000,1806
2017-04-21,1855,1864,1821,1857,4980100,1857
2017-04-24,1877.5,1888,1818.5,1827.5,5130900,1827.5
2017-04-25,1835,1891.5,1834,1889.5,4426400,1889.5
2017-04-26,1899,1908,1875.5,1901.5,3995900,1901.5
2017-04-27,1904.5,1904.5,1868.5,1882.5,3483700,1882.5
2017-04-28,1935,1946,1890.5,1900.5,5788600,1900.5
2017-05-01,1905,1910,1862,1868,4036500,1868
2017-05-02,1867.5,1906,1865,1894.5,2923900,1894.5
2017-05-08,1865.5,1902.5,1857,1889,4555300,1889
2017-05-09,1883.5,1885,1835.5,1857.5,5333100,1857.5
2017-05-10,1875.5,1914.5,1875.5,1898.5,4743400,1898.5
2017-05-11,1897.5,1898,1857,1862.5,3709100,1862.5
2017-05-12,1855.5,1869.5,1845,1860,2906200,1860
2017-05-15,1842.5,1843,1789.5,1805.5,4574000,1805.5
2017-05-16,1821.5,1833.5,1811.5,1823,4127600,1823
2017-05-17,1812.5,1812.5,1791,1797,2851000,1797
2017-05-18,1767.5,1777.5,1748,1765.5,3884400,1765.5
2017-05-19,1769.5,1823.5,1769.5,1816,5568000,1816
2017-05-22,1853,1882,1849.5,1872.5,5102100,1872.5
2017-05-23,1862.5,1895,1862.5,1871.5,4134600,1871.5
2017-05-24,1911,1928,1878.5,1887.5,4891300,1887.5
2017-05-25,1869,1879,1847.5,1871.5,2843700,1871.5
2017-05-26,1888,1923,1882.5,1884,4024900,1884
2017-05-29,1869.5,1871,1825.5,1832,4068600,1832
2017-05-30,1829,1839,1811.5,1835,2692600,1835
2017-05-31,1825,1861.5,1816.5,1846.5,3922400,1846.5
2017-06-01,1828.5,1839.5,1812,1824.5,3581100,1824.5
2017-06-02,1870,1933.5,1855.5,1932.5,7790500,1932.5
2017-06-05,1910,1910,1873,1877.5,4381500,1877.5
2017-06-06,1870,1881,1853,1855,2473800,1855
2017-06-07,1857,1887.5,1847,1878,3217900,1878
2017-06-08,1884.5,1888.5,1865,1868.5,2776800,1868.5
2017-06-09,1862.5,1897.5,1857,1877.5,3810600,1877.5
2017-06-12,1890,1936.5,1882,1882.5,4445600,1882.5
2017-06-13,1878.5,1880,1851.5,1863.5,4531700,1863.5
2017-06-14,1863,1863,1823.5,1840.5,4238800,1840.5
2017-06-15,1818,1821.5,1780.5,1780.5,6028000,1780.5
2017-06-16,1788,1808.5,1762,1766.5,6346600,1766.5
2017-06-19,1774,1795.5,1769.5,1784,3581100,1784
2017-06-20,1819,1832,1793,1793,4491100,1793
2017-06-21,1806.5,1810.5,1768.5,1783,5177100,1783
2017-06-22,1799.5,1807.5,1796,1801.5,2772000,1801.5
2017-06-23,1792,1793,1762,1787,3649400,1787
2017-06-26,1802,1817,1783,1787,1930300,1787
2017-06-27,1798,1839,1797,1832,3391100,1832
2017-06-28,1854,1882.5,1845.5,1871,4797200,1871
2017-06-29,1902,1934.5,1902,1921.5,7350400,1921.5
2017-06-30,1925,1957,1912.5,1950.5,6571900,1950.5
2017-07-03,1951,1987,1943.5,1985.5,5039000,1985.5
2017-07-04,2002.5,2024,1976.5,1992,4886900,1992
2017-07-05,2000,2018,1979,2018,4228700,2018
2017-07-06,1998,2027,1985,2015,3258900,2015
2017-07-07,2000.5,2046.5,1997,2020,4080300,2020
2017-07-10,2038,2045.5,2020,2034,2989600,2034
2017-07-11,2041.5,2054,2035,2039,2069100,2039
2017-07-12,2045,2048,2022.5,2037.5,1843500,2037.5
2017-07-13,2038.5,2056,2007.5,2052,3456700,2052
2017-07-14,2059,2071.5,2050,2051,3044200,2051
2017-07-18,2038,2068.5,2033.5,2065.5,2344700,2065.5
2017-07-19,2072,2104,2063,2084.5,3552300,2084.5
2017-07-20,2091,2125.5,2089,2122.5,3804000,2122.5
2017-07-21,2108,2109,2088,2099,2715000,2099
2017-07-24,2088.5,2095.5,2074.5,2083,2738500,2083
2017-07-25,2083,2097,2067.5,2071,2417900,2071
2017-07-26,2102,2110.5,2091.5,2102,3142100,2102
2017-07-27,2097.5,2111.5,2085,2098,2077000,2098
2017-07-28,2087,2107.5,2080,2105,3052000,2105
2017-07-31,2085,2142,2084,2132.5,3514700,2132.5
2017-08-01,2144,2159,2107,2121.5,3422000,2121.5
2017-08-02,2200,2269.5,2186,2247.5,9522400,2247.5
2017-08-03,2245.5,2259.5,2214,2259.5,4610800,2259.5
2017-08-04,2250,2288,2238,2282,3837200,2282
2017-08-07,2292,2294.5,2253,2267.5,4042600,2267.5
2017-08-08,2271.5,2304,2271.5,2296.5,4180700,2296.5
2017-08-09,2288,2318.5,2283.5,2317,4736500,2317
2017-08-10,2309.5,2330,2281,2286.5,4090300,2286.5
2017-08-14,2217,2224.5,2180.5,2181,6611200,2181
2017-08-15,2198,2200,2164.5,2171.5,4706200,2171.5
2017-08-16,2188,2203.5,2175.5,2187.5,2338400,2187.5
2017-08-17,2185,2205.5,2166.5,2187,2329900,2187
2017-08-18,2170.5,2188,2161,2187.5,2800000,2187.5
2017-08-21,2198.5,2206.5,2177,2187.5,2400100,2187.5
2017-08-22,2187.5,2232,2174,2231,2926200,2231
2017-08-23,2240,2244.5,2145.5,2153,4350000,2153
2017-08-24,2068.5,2091,2047.5,2059,8089000,2059
2017-08-25,2080,2103.5,2068.5,2091,5053100,2091
2017-08-28,2088.5,2111.5,2069,2081.5,3764200,2081.5
2017-08-29,2065.5,2102.5,2061,2081,2941800,2081
2017-08-30,2091.5,2109.5,2088.5,2100,2412200,2100
2017-08-31,2143,2190.5,2120.5,2172,4876900,2172
2017-09-01,2194,2206,2162,2190.5,4238300,2190.5
2017-09-04,2185,2189,2162.5,2174,2196700,2174
2017-09-05,2177.5,2183,2163,2171,2348700,2171
2017-09-06,2188,2234.5,2169,2227,4045400,2227
2017-09-07,2241.5,2269.5,2232,2257,3897900,2257
2017-09-08,2241,2253.5,2210,2226.5,3189600,2226.5
2017-09-11,2239,2257.5,2225,2243.5,1872600,2243.5
2017-09-12,2228,2231,2197,2227,4367100,2227
2017-09-13,2258,2263,2241.5,2257.5,2614700,2257.5
2017-09-14,2300,2330.5,2237.5,2244,5349500,2244
2017-09-15,2230,2255,2225,2234,3414900,2234
2017-09-19,2262,2266,2216,2235.5,4045000,2235.5
2017-09-20,2253.5,2275,2237.5,2272.5,3376800,2272.5
2017-09-21,2284.5,2289.5,2222.5,2233,3243300,2233
2017-09-22,2185.5,2186,2116,2128.5,6806200,2128.5
2017-09-25,2149.5,2159,2128,2133.5,2898200,2133.5
2017-09-26,2133.5,2163,2130,2149.5,3489900,2149.5
2017-09-27,2133,2173.5,2130,2148,2910800,2148
2017-09-28,2178.5,2185,2154,2172.5,3089800,2172.5
2017-09-29,2172,2197.5,2160.5,2197.5,2802300,2197.5
2017-10-02,2202,2222,2188,2211,2814800,2211
2017-10-03,2202,2234,2201,2225,2729000,2225
2017-10-04,2234,2266,2232.5,2252,3084500,2252
2017-10-05,2250,2250,2207,2226.5,3654400,2226.5
2017-10-06,2227,2259.5,2218,2254,2815400,2254
2017-10-10,2240,2266,2226.5,2264.5,3015200,2264.5
2017-10-11,2253,2255,2194,2204,4359900,2204
2017-10-12,2214,2226.5,2190,2200,3271700,2200
2017-10-13,2216,2236,2194,2225.5,3510800,2225.5
2017-10-16,2259,2315,2247.5,2295,4824100,2295
2017-10-17,2315,2353,2312,2334,4572900,2334
2017-10-18,2314.5,2322,2286,2321,2719300,2321
2017-10-19,2339.5,2343.5,2312.5,2334.5,2728000,2334.5
2017-10-20,2326,2334.5,2306,2313,2789200,2313
2017-10-23,2326.5,2369,2316,2357.5,2967200,2357.5
2017-10-24,2356,2404.5,2347,2390.5,3325900,2390.5
2017-10-25,2440.5,2459,2424,2444,4702300,2444
2017-10-26,2454.5,2462,2429,2450,3764900,2450
2017-10-27,2475,2479,2441.5,2464,3745500,2464
2017-10-30,2457.5,2469.5,2435.5,2465,4772700,2465
2017-10-31,2444.5,2445,2413.5,2420,4134500,2420
2017-11-01,2420,2467.5,2418,2461,3909900,2461
2017-11-02,2489.5,2548.5,2442,2544,5879200,2544
2017-11-06,2541.5,2556,2514,2528.5,3685900,2528.5
2017-11-07,2544,2609,2537,2593.5,5147300,2593.5
2017-11-08,2572.5,2587,2557,2574,3243900,2574
2017-11-09,2586,2625,2514,2554,4632000,2554
2017-11-10,2508,2558.5,2508,2554.5,3897000,2554.5
2017-11-13,2577.5,2584.5,2514,2524.5,2245200,2524.5
2017-11-15,2515,2517,2405,2405.5,6112100,2405.5
2017-11-16,2400,2412,2376.5,2404,4178600,2404
2017-11-17,2454,2464,2400,2405.5,3597400,2405.5
2017-11-20,2416,2447,2412.5,2413,2423800,2413
2017-11-21,2442,2456.5,2432,2446,2481400,2446
2017-11-22,2490,2502,2471.5,2486.5,3043100,2486.5
2017-11-24,2468.5,2468.5,2415,2447.5,3008900,2447.5
2017-11-27,2494.5,2509.5,2447.5,2463,3015400,2463
2017-11-28,2461.5,2480,2437,2451,2597100,2451
2017-11-29,2510.5,2604,2510.5,2595,6622800,2595
2017-11-30,2645,2665,2620.5,2642,7271700,2642
2017-12-01,2684,2705.5,2663,2685.5,5288100,2685.5
2017-12-04,2700,2704,2657,2693.5,3751100,2693.5
2017-12-05,2700,2751.5,2700,2742,4362800,2742
2017-12-06,2700.5,2726,2664,2673,5122800,2673
2017-12-07,2705.5,2724,2682,2716.5,3488200,2716.5
2017-12-08,2686.5,2743.5,2686.5,2731.5,3855500,2731.5
2017-12-11,2740,2754,2727.5,2749,2420000,2749
2017-12-12,2755,2774,2737,2750.5,2222200,2750.5
2017-12-13,2753,2754.5,2718.5,2725.5,2109100,2725.5
2017-12-14,2735,2752.5,2717.5,2734,1836300,2734
2017-12-15,2717,2722.5,2682,2684,2928300,2684
2017-12-18,2694,2699,2663.5,2675.5,3173300,2675.5
2017-12-19,2698.5,2708,2676.5,2682.5,2266600,2682.5
2017-12-20,2695.5,2718.5,2684,2707.5,1802000,2707.5
2017-12-21,2732,2735.5,2704.5,2716.5,1674500,2716.5
2017-12-22,2733.5,2744,2716,2729,2219800,2729
2017-12-25,2729,2731.5,2693.5,2705,1509600,2705
2017-12-26,2714,2723.5,2704,2711.5,1092100,2711.5
2017-12-27,2711,2739.5,2709.5,2717,1158500,2717
2017-12-28,2711,2732,2698,2705,1482400,2705
2017-12-29,2715,2732.5,2701,2706,1584800,2706
2018-01-04,2750,2794,2743.5,2794,3190700,2794
2018-01-05,2810,2844.5,2806,2827.5,2730600,2827.5
2018-01-09,2869,2887,2792.5,2794,3269000,2794
2018-01-10,2794.5,2817,2777.5,2790,2548900,2790
2018-01-11,2777.5,2805,2770,2793.5,2211600,2793.5
2018-01-12,2799.5,2802,2761,2777,2273000,2777
2018-01-15,2802,2804,2728.5,2736.5,2389800,2736.5
2018-01-16,2734,2734,2646,2664.5,4694400,2664.5
2018-01-17,2672,2673,2615,2638.5,4449800,2638.5
2018-01-18,2673.5,2673.5,2612,2620.5,3929600,2620.5
2018-01-19,2650,2676.5,2623,2666,2997500,2666
2018-01-22,2665,2681,2635.5,2658.5,2259100,2658.5
2018-01-23,2669,2706,2653,2690,2769300,2690
2018-01-24,2683,2698,2667.5,2681,2753400,2681
2018-01-25,2660,2684.5,2648,2667,2361700,2667
2018-01-26,2650.5,2667.5,2621.5,2642,2591100,2642
2018-01-29,2647.5,2680,2640.5,2661.5,2001800,2661.5
2018-01-30,2660,2676,2634,2652,2554000,2652
2018-01-31,2640,2642,2588,2588.5,3803600,2588.5
2018-02-01,2602,2670,2582.5,2665.5,4844100,2665.5
2018-02-02,2720.5,2721,2635,2663.5,4212600,2663.5
2018-02-05,2625,2646.5,2596.5,2619,3885400,2619
2018-02-06,2505,2521,2452,2509.5,5299500,2509.5
2018-02-07,2590,2666,2520,2520,4475000,2520
2018-02-08,2525,2595,2523,2571.5,3096600,2571.5
2018-02-09,2485,2495.5,2456,2495,3678300,2495
2018-02-13,2531,2541,2473.5,2480,2999200,2480
2018-02-14,2460.5,2485.5,2423.5,2428,3369600,2428
2018-02-15,2452,2507.5,2452,2483.5,2679000,2483.5
2018-02-16,2495.5,2523.5,2466,2500,2812700,2500
2018-02-19,2500,2538.5,2481,2527,2180700,2527
2018-02-20,2518.5,2558,2512.5,2533,2444100,2533
2018-02-21,2554,2584,2525.5,2539,3779800,2539
2018-02-22,2507.5,2507.5,2454,2467.5,3133200,2467.5
2018-02-23,2478,2508.5,2470,2500,2858100,2500
2018-02-26,2528.5,2529.5,2502,2518,2462200,2518
2018-02-27,2533,2560.5,2518.5,2559.5,2205600,2559.5
2018-02-28,2538.5,2540,2483,2487.5,3586400,2487.5
2018-03-01,2454.5,2456.5,2392.5,2412,4383800,2412
2018-03-02,2334,2358.5,2323,2344.5,3586600,2344.5
2018-03-05,2301,2306.5,2270.5,2287,3587100,2287
2018-03-06,2327,2357.5,2309,2312.5,3329400,2312.5
2018-03-07,2307,2310.5,2265,2275,4015400,2275
2018-03-08,2287,2295,2271,2279.5,3006100,2279.5
2018-03-09,2280.5,2296.5,2236.5,2245.5,4849900,2245.5
2018-03-12,2262,2272,2245,2266,3395700,2266
2018-03-13,2248,2252.5,2214.5,2250.5,3502200,2250.5
2018-03-14,2220,2240.5,2215.5,2234.5,2676000,2234.5
2018-03-15,2214,2232.5,2185,2217,3378300,2217
2018-03-16,2218.5,2218.5,2188.5,2193,2828500,2193
2018-03-19,2235,2240,2189,2196.5,2266900,2196.5
2018-03-20,2175.5,2204,2170,2202.5,2457700,2202.5
2018-03-22,2201,2208.5,2170.5,2190,2964400,2190
2018-03-23,2120,2138.5,2102.5,2112,4023300,2112
2018-03-26,2100,2110,2071,2108,3285100,2108
2018-03-27,2136.5,2158,2113.5,2158,3367800,2158
2018-03-28,2080.5,2132,2071,2123,3057400,2123
2018-03-29,2147,2174,2096.5,2117.5,2899500,2117.5
2018-03-30,2146,2156.5,2123,2143.5,1834700,2143.5
2018-04-03,2115,2144.5,2103,2135,1749200,2135
2018-04-04,2150,2154,2130,2134.5,1606000,2134.5
2018-04-05,2131,2134.5,2099.5,2123,2697600,2123
2018-04-06,2124,2158.5,2123,2130,2248400,2130
2018-04-09,2126,2133,2091.5,2123.5,2030400,2123.5
2018-04-10,2130,2201.5,2106.5,2187.5,3596200,2187.5
2018-04-11,2230,2252,2197.5,2201,3454300,2201
2018-04-12,2202,2229.5,2197,2208,3010300,2208
2018-04-13,2231,2263.5,2217,2254,3413100,2254
